Division,WeightClassKg,Place,Name,Team,BodyweightKg,Best3SquatKg,Best3BenchKg,Best3DeadliftKg,TotalKg,Equipment,Event,Sex
Boys,51.71,1,Matthew Tracy,Lubbock Coronado,45.95,97.52,52.16,111.13,260.82,Single-ply,SBD,M
Boys,55.79,1,Anthony Lara,Wolfforth Frenship,52.25,120.2,65.77,142.88,328.85,Single-ply,SBD,M
Boys,55.79,2,Miguel Arroyo,San Angelo Lake View,53.71,117.93,65.77,140.61,324.32,Single-ply,SBD,M
Boys,55.79,3,Alejandro Castro,Eldorado,54.61,102.06,63.5,140.61,306.17,Single-ply,SBD,M
Boys,55.79,4,Jake Robertson,Hermleigh,53.16,74.84,52.16,97.52,224.53,Single-ply,SBD,M
Boys,59.87,1,Raymon Aranda,Seagraves,59.06,188.24,108.86,206.38,503.49,Single-ply,SBD,M
Boys,59.87,2,Adrian Velasquez,Wolfforth Frenship,58.51,149.69,92.99,165.56,408.23,Single-ply,SBD,M
Boys,59.87,3,Luke Krueger,Snyder,58.56,156.49,77.11,161.03,394.63,Single-ply,SBD,M
Boys,59.87,4,Ervey Alvarado,Post,56.34,158.76,74.84,145.15,378.75,Single-ply,SBD,M
Boys,59.87,5,Cameron Arellano,Wolfforth Frenship,59.06,138.35,79.38,147.42,365.14,Single-ply,SBD,M
Boys,59.87,6,Anthony Olivares,Eldorado,57.42,142.88,72.57,142.88,358.34,Single-ply,SBD,M
Boys,59.87,7,Ali Mata,Snyder,58.97,111.13,70.31,147.42,328.85,Single-ply,SBD,M
Boys,59.87,8,James Bejarano,Wolfforth Frenship,59.24,111.13,63.5,145.15,319.78,Single-ply,SBD,M
Boys,59.87,9,Jeffery Davis,Lubbock Coronado,57.15,122.47,52.16,136.08,310.71,Single-ply,SBD,M
Boys,67.13,1,Zachary Burt,Hawley,62.96,147.42,97.52,172.37,417.3,Single-ply,SBD,M
Boys,67.13,2,Zach Soto,Lubbock Coronado,65.41,147.42,104.33,165.56,417.3,Single-ply,SBD,M
Boys,67.13,3,Don Jones #3,Shallowater,63.5,138.35,86.18,165.56,390.09,Single-ply,SBD,M
Boys,67.13,4,Eli Garza,Hermleigh,62.69,136.08,72.57,165.56,374.21,Single-ply,SBD,M
Boys,67.13,5,Domian Garcia Rodriguez,Post,65.95,147.42,74.84,151.95,374.21,Single-ply,SBD,M
Boys,67.13,6,Kraig Cadena,Eldorado,66.59,147.42,70.31,154.22,371.95,Single-ply,SBD,M
Boys,67.13,7,Hayden McCalib,Wolfforth Frenship,62.6,133.81,56.7,161.03,351.53,Single-ply,SBD,M
Boys,67.13,8,Jeremy Mireles,San Angelo Lake View,63.5,115.67,79.38,147.42,342.46,Single-ply,SBD,M
Boys,67.13,9,Jonathan Rodriguez,Post,63.23,129.27,74.84,136.08,340.19,Single-ply,SBD,M
Boys,67.13,10,Kristian Davilla,Lubbock Coronado,60.69,120.2,70.31,142.88,333.39,Single-ply,SBD,M
Boys,67.13,11,Colton Messick,Hermleigh,66.77,124.74,70.31,129.27,324.32,Single-ply,SBD,M
Boys,67.13,12,Fidel Trinidad,Post,63.5,117.93,61.23,136.08,315.25,Single-ply,SBD,M
Boys,67.13,13,Cameron Clement,Hermleigh,61.05,124.74,70.31,102.06,297.1,Single-ply,SBD,M
Boys,67.13,14,Luis Gonzales,Hermleigh,64.95,90.72,63.5,127.01,281.23,Single-ply,SBD,M
Boys,67.13,DQ,Brock Vasquez,Hermleigh,66.86,179.17,,,,Single-ply,SBD,M
Boys,67.13,DQ,James Palmour,San Angelo Lake View,65.95,129.27,,,,Single-ply,SBD,M
Boys,74.84,1,Tristan Wegener,Hawley,73.66,219.99,113.4,161.03,494.42,Single-ply,SBD,M
Boys,74.84,2,Cooper Ogle,Shallowater,68.86,167.83,104.33,195.04,467.2,Single-ply,SBD,M
Boys,74.84,3,Jacob Duenes,Shallowater,74.75,165.56,95.25,192.78,453.59,Single-ply,SBD,M
Boys,74.84,4,Esteban Zuniga,Lubbock Coronado,74.21,170.1,102.06,179.17,451.32,Single-ply,SBD,M
Boys,74.84,5,Caleb Ramirez,San Angelo Lake View,74.84,145.15,102.06,185.97,433.18,Single-ply,SBD,M
Boys,74.84,6,Jerry Simental,Seagraves,73.3,151.95,97.52,181.44,430.91,Single-ply,SBD,M
Boys,74.84,7,Colt Mallory,Hermleigh,73.3,145.15,79.38,181.44,405.97,Single-ply,SBD,M
Boys,74.84,8,Keanu Hernandez,Eldorado,72.03,161.03,79.38,154.22,394.63,Single-ply,SBD,M
Boys,74.84,9,Hunter Graves,Post,71.76,138.35,86.18,154.22,378.75,Single-ply,SBD,M
Boys,74.84,10,James Christensen,San Angelo Lake View,67.86,136.08,86.18,133.81,356.07,Single-ply,SBD,M
Boys,74.84,11,Blaine Aker,Eldorado,74.12,124.74,56.7,142.88,324.32,Single-ply,SBD,M
Boys,82.1,1,Jose Juarez,Snyder,81.47,235.87,136.08,235.87,607.81,Single-ply,SBD,M
Boys,82.1,2,Enrique Barron,Snyder,81.96,226.8,113.4,204.12,544.31,Single-ply,SBD,M
Boys,82.1,3,Jacob Guzman,Hermleigh,81.47,201.85,117.93,215.46,535.24,Single-ply,SBD,M
Boys,82.1,4,Blaine Reece,Post,77.66,217.72,115.67,183.7,517.1,Single-ply,SBD,M
Boys,82.1,5,Wayne Carrillo,Shallowater,79.92,176.9,108.86,204.12,489.88,Single-ply,SBD,M
Boys,82.1,6,Francisco Muniz,San Angelo Lake View,78.93,151.95,106.59,210.92,469.47,Single-ply,SBD,M
Boys,82.1,7,Alex Quinonez,Seagraves,81.47,158.76,97.52,206.38,462.66,Single-ply,SBD,M
Boys,82.1,8,Dillon Hibbitts,Seagraves,81.37,156.49,104.33,181.44,442.25,Single-ply,SBD,M
Boys,82.1,9,Shawn Rodriguez,San Angelo Lake View,77.29,158.76,104.33,151.95,415.04,Single-ply,SBD,M
Boys,82.1,10,Quinten Johnson,Wolfforth Frenship,81.83,151.95,79.38,181.44,412.77,Single-ply,SBD,M
Boys,82.1,11,Logan Jacobs,Lubbock Coronado,80.65,147.42,104.33,156.49,408.23,Single-ply,SBD,M
Boys,82.1,12,Brandon Rodriguez,San Angelo Lake View,77.93,147.42,99.79,158.76,405.97,Single-ply,SBD,M
Boys,82.1,13,Julio Narvaez,Eldorado,79.83,149.69,88.45,151.95,390.09,Single-ply,SBD,M
Boys,82.1,DQ,RJ Young,Wolfforth Frenship,79.92,147.42,,,,Single-ply,SBD,M
Boys,89.81,1,Caleb Thomas,Snyder,84.05,217.72,113.4,226.8,557.92,Single-ply,SBD,M
Boys,89.81,2,Tanner Schnoor,Hawley,88.99,226.8,92.99,208.65,528.44,Single-ply,SBD,M
Boys,89.81,3,Java Smith,San Angelo Lake View,86.73,206.38,104.33,183.7,494.42,Single-ply,SBD,M
Boys,89.81,4,Adam Delgado,Wolfforth Frenship,85.37,156.49,102.06,188.24,446.79,Single-ply,SBD,M
Boys,89.81,5,Isaiah Williams,Wolfforth Frenship,89.09,142.88,97.52,174.63,415.04,Single-ply,SBD,M
Boys,89.81,6,Nik Hodges,Shallowater,89.36,158.76,102.06,154.22,415.04,Single-ply,SBD,M
Boys,89.81,7,Colton Youngblood,Lubbock Coronado,87.27,149.69,102.06,149.69,401.43,Single-ply,SBD,M
Boys,89.81,8,Donatello Tovar,San Angelo Lake View,85,122.47,83.91,133.81,340.19,Single-ply,SBD,M
Boys,99.79,1,Bolton Huerta,Wolfforth Frenship,96.89,199.58,124.74,226.8,551.11,Single-ply,SBD,M
Boys,99.79,2,Valente Perez,Post,94.71,206.38,122.47,201.85,530.7,Single-ply,SBD,M
Boys,99.79,3,Asher Robinson,Wolfforth Frenship,95.07,190.51,122.47,213.19,526.17,Single-ply,SBD,M
Boys,99.79,4,Andrew King,Lubbock Coronado,93.44,197.31,113.4,213.19,523.9,Single-ply,SBD,M
Boys,99.79,5,Jordan Harris,Hawley,96.98,183.7,117.93,183.7,485.34,Single-ply,SBD,M
Boys,99.79,6,Frank Richard,Wolfforth Frenship,99.06,154.22,108.86,188.24,451.32,Single-ply,SBD,M
Boys,99.79,7,Chase Carr,Hermleigh,99.34,158.76,95.25,174.63,428.64,Single-ply,SBD,M
Boys,99.79,8,Lance Lee,Wolfforth Frenship,90.9,120.2,102.06,204.12,426.38,Single-ply,SBD,M
Boys,99.79,9,Jose Valles,Wolfforth Frenship,94.44,127.01,83.91,181.44,392.36,Single-ply,SBD,M
Boys,99.79,10,Jerry Cueller,Eldorado,95.44,102.06,74.84,120.2,297.1,Single-ply,SBD,M
Boys,99.79,11,Tracker Dugan,Hermleigh,98.88,106.59,61.23,124.74,292.57,Single-ply,SBD,M
Boys,99.79,12,John Harty,Hermleigh,92.99,104.33,61.23,108.86,274.42,Single-ply,SBD,M
Boys,99.79,DQ,Trace Hariman,Eldorado,92.9,183.7,111.13,,,Single-ply,SBD,M
Boys,99.79,DQ,Brandon Steele,Lubbock Coronado,94.53,226.8,,,,Single-ply,SBD,M
Boys,109.77,1,Paul Mata,Snyder,100.43,226.8,158.76,204.12,589.67,Single-ply,SBD,M
Boys,109.77,2,Gage Holmes,Wolfforth Frenship,109.32,204.12,104.33,213.19,521.63,Single-ply,SBD,M
Boys,109.77,3,Jordan Hernandez,Wolfforth Frenship,102.15,181.44,102.06,142.88,426.38,Single-ply,SBD,M
Boys,124.74,1,Zane Sorrells,Snyder,118.43,272.16,136.08,235.87,644.1,Single-ply,SBD,M
Boys,124.74,2,Israel Rosalez,Seagraves,120.75,249.48,161.03,210.92,621.42,Single-ply,SBD,M
Boys,124.74,3,Jessie Austin,Lubbock Coronado,114.03,199.58,129.27,183.7,512.56,Single-ply,SBD,M
Boys,124.74,4,Lucas Flores,Wolfforth Frenship,115.21,197.31,102.06,206.38,505.76,Single-ply,SBD,M
Boys,124.74,5,John Garcia,Hermleigh,115.21,163.29,92.99,147.42,403.7,Single-ply,SBD,M
Boys,124.74+,1,Sean Humphrey,Snyder,125.19,244.94,167.83,226.8,639.57,Single-ply,SBD,M
Boys,124.74+,2,Michael Jordan,San Angelo Lake View,135.26,183.7,111.13,226.8,521.63,Single-ply,SBD,M
Boys,124.74+,DQ,Ray Leon,Hawley,140.16,,,,,Single-ply,SBD,M
