Division,WeightClassKg,Place,Name,Team,BodyweightKg,Best3SquatKg,Best3BenchKg,Best3DeadliftKg,TotalKg,Equipment,Event,Sex
Boys,51.71,1,Josh Nowlin,San Antonio East Central,49.9,151.95,90.72,154.22,396.89,Single-ply,SBD,M
Boys,51.71,2,Tyler Crank,San Antonio East Central,48.53,99.79,65.77,113.4,278.96,Single-ply,SBD,M
Boys,51.71,3,Isaiah Lucio,Pearsall,47.63,97.52,58.97,115.67,272.16,Single-ply,SBD,M
Boys,55.79,1,Josh Lomas,Crystal City,55.34,181.44,99.79,188.24,469.47,Single-ply,SBD,M
Boys,55.79,2,Sawyer Yandell,Natalia,55.79,176.9,74.84,183.7,435.45,Single-ply,SBD,M
Boys,55.79,3,Ricky Guerra,Poteet,54.88,163.29,104.33,163.29,430.91,Single-ply,SBD,M
Boys,55.79,4,Alan Espinosa,Dilley,55.79,149.69,83.91,172.37,405.97,Single-ply,SBD,M
Boys,55.79,5,Mauricio Galarza,San Antonio East Central,55.79,140.61,88.45,154.22,383.29,Single-ply,SBD,M
Boys,55.79,6,Randy Mancha,Crystal City,55.79,131.54,77.11,147.42,356.07,Single-ply,SBD,M
Boys,55.79,7,Sid Alcoser,Somerset,54.43,138.35,70.31,145.15,353.8,Single-ply,SBD,M
Boys,55.79,8,Zach Truillo,Universal City Randolph,55.79,136.08,70.31,145.15,351.53,Single-ply,SBD,M
Boys,55.79,9,Mark Livesay,Floresville,54.88,136.08,61.23,149.69,347,Single-ply,SBD,M
Boys,55.79,10,Jm Elizondo,Pearsall,53.98,124.74,72.57,127.01,324.32,Single-ply,SBD,M
Boys,55.79,11,Raul Cruz,Carrizo Springs,55.79,106.59,70.31,136.08,312.98,Single-ply,SBD,M
Boys,55.79,12,Chaz Graham,Lytle,52.62,106.59,58.97,136.08,301.64,Single-ply,SBD,M
Boys,55.79,13,Robert Tappan,Comfort,55.34,99.79,70.31,115.67,285.76,Single-ply,SBD,M
Boys,55.79,DQ,Angel Bermudez,Poteet,52.62,127.01,,,,Single-ply,SBD,M
Boys,59.87,1,Rudy Martinez,Carrizo Springs,58.97,145.15,90.72,170.1,405.97,Single-ply,SBD,M
Boys,59.87,2,Ricky Rios,Devine,59.87,158.76,92.99,140.61,392.36,Single-ply,SBD,M
Boys,59.87,3,Joel Rodriguez,Castroville Medina Valley,57.61,129.27,97.52,149.69,376.48,Single-ply,SBD,M
Boys,59.87,4,Oscar de Leon,Somerset,58.97,138.35,90.72,147.42,376.48,Single-ply,SBD,M
Boys,59.87,5,Mario Cano,Pleasanton,58.97,136.08,79.38,161.03,376.48,Single-ply,SBD,M
Boys,59.87,6,John Dominguez,Somerset,58.97,145.15,72.57,149.69,367.41,Single-ply,SBD,M
Boys,59.87,7,Luis Flores,Poteet,59.42,147.42,68.04,151.95,367.41,Single-ply,SBD,M
Boys,59.87,8,Wyatt Scheff,Devine,57.61,127.01,72.57,142.88,342.46,Single-ply,SBD,M
Boys,59.87,9,Nathan Pringle,Lytle,57.15,120.2,74.84,136.08,331.12,Single-ply,SBD,M
Boys,59.87,10,Joseph Soria,Lytle,59.87,122.47,72.57,124.74,319.78,Single-ply,SBD,M
Boys,59.87,DQ,Efrain Botello,Castroville Medina Valley,59.87,122.47,68.04,,,Single-ply,SBD,M
Boys,67.13,1,Elvis Benitez,San Antonio East Central,62.6,185.97,113.4,174.63,474,Single-ply,SBD,M
Boys,67.13,2,Zach Ornelas,Pearsall,66.68,190.51,86.18,197.31,474,Single-ply,SBD,M
Boys,67.13,3,Ozzy Gonzalez,Somerset,66.22,195.04,86.18,181.44,462.66,Single-ply,SBD,M
Boys,67.13,4,Raul Garcia,Carrizo Springs,64.86,167.83,77.11,185.97,430.91,Single-ply,SBD,M
Boys,67.13,5,Scott Gonzales,Floresville,64.86,156.49,99.79,170.1,426.38,Single-ply,SBD,M
Boys,67.13,6,Josh Ramos,Somerset,66.68,188.24,63.5,174.63,426.38,Single-ply,SBD,M
Boys,67.13,7,Jess Rutledge,Carrizo Springs,61.69,163.29,74.84,167.83,405.97,Single-ply,SBD,M
Boys,67.13,8,Justin Hartman,Universal City Randolph,63.05,172.37,81.65,151.95,405.97,Single-ply,SBD,M
Boys,67.13,9,Prendi Garcia,Dilley,63.05,167.83,88.45,149.69,405.97,Single-ply,SBD,M
Boys,67.13,10,Taylor Carrillo,Lytle,66.68,145.15,88.45,163.29,396.89,Single-ply,SBD,M
Boys,67.13,11,Lorenzo Cruz,Carrizo Springs,63.5,136.08,90.72,163.29,390.09,Single-ply,SBD,M
Boys,67.13,12,Francisco Martinez,Poteet,67.13,142.88,90.72,149.69,383.29,Single-ply,SBD,M
Boys,67.13,13,Leroy Torres,Castroville Medina Valley,66.22,140.61,81.65,154.22,376.48,Single-ply,SBD,M
Boys,67.13,14,Angel Gonzales,Uvalde,65.77,136.08,70.31,158.76,365.14,Single-ply,SBD,M
Boys,67.13,15,Tyler Gould,Pleasanton,62.6,140.61,70.31,145.15,356.07,Single-ply,SBD,M
Boys,67.13,16,Abraham Gonzales,Sabinal,64.41,124.74,79.38,147.42,351.53,Single-ply,SBD,M
Boys,67.13,17,Chris Taylor,Comfort,66.22,129.27,61.23,149.69,340.19,Single-ply,SBD,M
Boys,67.13,18,Conner Thayn,Comfort,65.32,122.47,68.04,138.35,328.85,Single-ply,SBD,M
Boys,67.13,19,Criag Jacobs,Center Point,62.6,136.08,65.77,117.93,319.78,Single-ply,SBD,M
Boys,67.13,20,Miguel Rivera,Universal City Randolph,60.78,115.67,61.23,136.08,312.98,Single-ply,SBD,M
Boys,67.13,21,Justin Fish,Poth,62.14,122.47,77.11,111.13,310.71,Single-ply,SBD,M
Boys,67.13,22,Andres Rodriguez,Castroville Medina Valley,61.23,117.93,65.77,124.74,308.44,Single-ply,SBD,M
Boys,67.13,DQ,Chris Cherry,Center Point,63.96,120.2,,,,Single-ply,SBD,M
Boys,67.13,DQ,Justin Martinez,Carrizo Springs,61.69,,,,,Single-ply,SBD,M
Boys,67.13,DQ,Tj Kwapich,Castroville Medina Valley,61.69,,,,,Single-ply,SBD,M
Boys,74.84,1,Matt Ritch,San Antonio East Central,72.12,226.8,129.27,181.44,537.51,Single-ply,SBD,M
Boys,74.84,2,Dustin Toscano,San Antonio East Central,72.12,226.8,120.2,188.24,535.24,Single-ply,SBD,M
Boys,74.84,3,Travis Morales,Floresville,72.12,215.46,106.59,213.19,535.24,Single-ply,SBD,M
Boys,74.84,4,Masen Lindner,Comfort,74.84,183.7,136.08,192.78,512.56,Single-ply,SBD,M
Boys,74.84,5,Michael Chavez,Devine,74.39,190.51,104.33,172.37,467.2,Single-ply,SBD,M
Boys,74.84,6,Trever Horvath,Castroville Medina Valley,70.31,174.63,113.4,165.56,453.59,Single-ply,SBD,M
Boys,74.84,7,Cj Felux,Floresville,73.48,172.37,90.72,185.97,449.06,Single-ply,SBD,M
Boys,74.84,8,Matt Chapa,Center Point,73.48,176.9,106.59,163.29,446.79,Single-ply,SBD,M
Boys,74.84,9,Vasquez Raul,Pearsall,70.31,172.37,97.52,172.37,442.25,Single-ply,SBD,M
Boys,74.84,10,Dylan Aguinaga,Lytle,74.39,158.76,86.18,195.04,439.98,Single-ply,SBD,M
Boys,74.84,11,Andrew Esquivel,Carrizo Springs,68.49,167.83,90.72,179.17,437.72,Single-ply,SBD,M
Boys,74.84,12,John Santos,Lytle,73.03,165.56,81.65,176.9,424.11,Single-ply,SBD,M
Boys,74.84,13,Orlando Medrano,Lytle,74.39,154.22,97.52,167.83,419.57,Single-ply,SBD,M
Boys,74.84,14,Chase Lindner,Comfort,72.57,136.08,111.13,170.1,417.3,Single-ply,SBD,M
Boys,74.84,15,Matt Chapa,Poteet,73.48,151.95,108.86,154.22,415.04,Single-ply,SBD,M
Boys,74.84,16,Lemuel Ramirez,Center Point,73.94,167.83,95.25,145.15,408.23,Single-ply,SBD,M
Boys,74.84,17,Steven Sartuche,Devine,74.84,136.08,97.52,172.37,405.97,Single-ply,SBD,M
Boys,74.84,18,Raul Chavez,San Antonio East Central,74.39,145.15,86.18,145.15,376.48,Single-ply,SBD,M
Boys,74.84,19,Zeke Hinojosa,Pearsall,73.48,142.88,81.65,142.88,367.41,Single-ply,SBD,M
Boys,74.84,20,Mark Hernandez,Natalia,71.67,133.81,90.72,140.61,365.14,Single-ply,SBD,M
Boys,74.84,21,Yngwie Mata,Dilley,68.49,136.08,72.57,140.61,349.27,Single-ply,SBD,M
Boys,74.84,22,Chase Todd,Castroville Medina Valley,68.04,102.06,63.5,136.08,301.64,Single-ply,SBD,M
Boys,74.84,DQ,Robert Rodriguez,Castroville Medina Valley,72.12,129.27,,,,Single-ply,SBD,M
Boys,74.84,DQ,Hans Torres,Bandera,68.04,151.95,,,,Single-ply,SBD,M
Boys,74.84,DQ,Trey Washington,Universal City Randolph,70.31,172.37,,,,Single-ply,SBD,M
Boys,82.1,1,Jacob Ritch,San Antonio East Central,82.1,258.55,163.29,229.06,650.91,Single-ply,SBD,M
Boys,82.1,2,Pedro Molina,Somerset,80.29,249.48,127.01,226.8,603.28,Single-ply,SBD,M
Boys,82.1,3,Rueben Hinojosa,Lytle,80.74,219.99,129.27,238.14,587.4,Single-ply,SBD,M
Boys,82.1,4,Matt Marrs,Bandera,78.47,233.6,111.13,217.72,562.45,Single-ply,SBD,M
Boys,82.1,5,John Ventura,Pearsall,78.47,204.12,120.2,224.53,548.85,Single-ply,SBD,M
Boys,82.1,6,Hunter Peterson,Castroville Medina Valley,77.11,226.8,115.67,201.85,544.31,Single-ply,SBD,M
Boys,82.1,7,Zack Bosquez,Comfort,80.29,192.78,117.93,204.12,514.83,Single-ply,SBD,M
Boys,82.1,8,Mario Munoz,Center Point,76.66,210.92,108.86,172.37,492.15,Single-ply,SBD,M
Boys,82.1,9,Jake Martinez,Lytle,77.11,167.83,111.13,199.58,478.54,Single-ply,SBD,M
Boys,82.1,10,John Valdez,Somerset,76.2,181.44,104.33,181.44,467.2,Single-ply,SBD,M
Boys,82.1,11,Chris Vinton,Pearsall,78.47,181.44,108.86,167.83,458.13,Single-ply,SBD,M
Boys,82.1,12,Trejo Silverio,Pearsall,78.47,179.17,97.52,170.1,446.79,Single-ply,SBD,M
Boys,82.1,13,Freddie Larry,Universal City Randolph,80.74,183.7,99.79,163.29,446.79,Single-ply,SBD,M
Boys,82.1,14,Brenner Haby,Castroville Medina Valley,76.66,142.88,92.99,156.49,392.36,Single-ply,SBD,M
Boys,82.1,15,Josh Guerra,Castroville Medina Valley,81.19,142.88,88.45,161.03,392.36,Single-ply,SBD,M
Boys,82.1,16,Brennan Poole,Universal City Randolph,82.1,142.88,77.11,167.83,387.82,Single-ply,SBD,M
Boys,82.1,17,Rigo Hernandez,Uvalde,78.93,145.15,77.11,161.03,383.29,Single-ply,SBD,M
Boys,82.1,18,Rowdy Souter,Comfort,80.29,145.15,68.04,154.22,367.41,Single-ply,SBD,M
Boys,82.1,19,James Martinez,Castroville Medina Valley,78.02,106.59,77.11,161.03,344.73,Single-ply,SBD,M
Boys,82.1,DQ,Albert Romo,Castroville Medina Valley,82.1,129.27,83.91,,,Single-ply,SBD,M
Boys,89.81,1,Justin Quesada,Somerset,83.46,238.14,127.01,217.72,582.87,Single-ply,SBD,M
Boys,89.81,2,Carlos Carrillo,Lytle,87.54,226.8,136.08,217.72,580.6,Single-ply,SBD,M
Boys,89.81,3,Chase Wiatrek,Poth,89.81,210.92,136.08,210.92,557.92,Single-ply,SBD,M
Boys,89.81,4,Morales Gabe,Pearsall,89.36,215.46,104.33,183.7,503.49,Single-ply,SBD,M
Boys,89.81,5,Michael Bustamante,Somerset,86.64,192.78,115.67,174.63,483.08,Single-ply,SBD,M
Boys,89.81,6,Justin Laque,Castroville Medina Valley,88.45,181.44,106.59,190.51,478.54,Single-ply,SBD,M
Boys,89.81,7,Thomas Trevino,Pleasanton,84.37,197.31,97.52,176.9,471.74,Single-ply,SBD,M
Boys,89.81,8,Ryan Farrell,Universal City Randolph,83.91,165.56,102.06,190.51,458.13,Single-ply,SBD,M
Boys,89.81,9,Julian Valdvidono,Bandera,85.73,170.1,99.79,179.17,449.06,Single-ply,SBD,M
Boys,89.81,10,José Pérez,Uvalde,84.37,170.1,90.72,136.08,396.89,Single-ply,SBD,M
Boys,89.81,11,Cantu AB,Pearsall,89.81,145.15,86.18,163.29,394.63,Single-ply,SBD,M
Boys,89.81,12,Lance Huerta,Natalia,87.09,147.42,83.91,158.76,390.09,Single-ply,SBD,M
Boys,89.81,13,Isaac Robles #3,Castroville Medina Valley,88.45,113.4,99.79,97.52,310.71,Single-ply,SBD,M
Boys,89.81,DQ,Yair Iglesias,Devine,89.36,,,,,Single-ply,SBD,M
Boys,89.81,DQ,Abdul Altacarious,Bandera,86.18,158.76,102.06,,,Single-ply,SBD,M
Boys,89.81,DQ,Nick Andreas,Bandera,84.37,183.7,97.52,,,Single-ply,SBD,M
Boys,99.79,1,Joe Hernandez,San Antonio East Central,97.52,265.35,136.08,226.8,628.23,Single-ply,SBD,M
Boys,99.79,2,Justin Lomas,Crystal City,99.79,249.48,131.54,231.33,612.35,Single-ply,SBD,M
Boys,99.79,3,Henry Vasquez,San Antonio East Central,96.16,267.62,122.47,217.72,607.81,Single-ply,SBD,M
Boys,99.79,4,Mark Cerda,Somerset,99.34,226.8,127.01,231.33,585.13,Single-ply,SBD,M
Boys,99.79,5,Kolby Janek,Poth,94.8,213.19,147.42,213.19,573.79,Single-ply,SBD,M
Boys,99.79,6,Cole Thompson,Universal City Randolph,92.08,195.04,127.01,206.38,528.44,Single-ply,SBD,M
Boys,99.79,7,Fabien Huerta,Crystal City,99.79,199.58,113.4,204.12,517.1,Single-ply,SBD,M
Boys,99.79,8,Jason Van Epps,Pleasanton,98.88,190.51,97.52,188.24,476.27,Single-ply,SBD,M
Boys,99.79,9,Ray Palomenque,Pearsall,90.26,163.29,104.33,183.7,451.32,Single-ply,SBD,M
Boys,99.79,10,Josh Hicks,Castroville Medina Valley,94.35,151.95,102.06,174.63,428.64,Single-ply,SBD,M
Boys,99.79,DQ,Juan Landa,Castroville Medina Valley,97.52,,,,,Single-ply,SBD,M
Boys,99.79,DQ,Izzy Hays,Bandera,98.88,179.17,106.59,,,Single-ply,SBD,M
Boys,99.79,DQ,Dillon Kendrick,Devine,99.79,,,,,Single-ply,SBD,M
Boys,99.79,DQ,Joe Tovar,Somerset,97.52,,,,,Single-ply,SBD,M
Boys,109.77,1,Sal Marines,Somerset,106.14,317.51,149.69,276.69,743.89,Single-ply,SBD,M
Boys,109.77,2,Danny DeLeon,San Antonio East Central,107.05,260.82,124.74,215.46,601.01,Single-ply,SBD,M
Boys,109.77,3,Zach Monreal,Devine,109.77,235.87,136.08,213.19,585.13,Single-ply,SBD,M
Boys,109.77,4,Jon Macat,Lytle,108.41,215.46,136.08,229.06,580.6,Single-ply,SBD,M
Boys,109.77,5,Alexander Trevino,Floresville,108.41,226.8,133.81,215.46,576.06,Single-ply,SBD,M
Boys,109.77,6,Leo Perez,Devine,100.24,226.8,124.74,204.12,555.65,Single-ply,SBD,M
Boys,109.77,7,Bj Frieda,Somerset,109.32,242.67,120.2,183.7,546.58,Single-ply,SBD,M
Boys,109.77,8,Adrian Contreras,Poteet,108.41,219.99,122.47,197.31,539.77,Single-ply,SBD,M
Boys,109.77,9,Dustin Phelps,Universal City Randolph,101.6,199.58,106.59,217.72,523.9,Single-ply,SBD,M
Boys,109.77,10,Tyler Mitchell,Somerset,100.24,197.31,127.01,183.7,508.02,Single-ply,SBD,M
Boys,109.77,11,Frank Hernandez,Pleasanton,101.6,197.31,111.13,195.04,503.49,Single-ply,SBD,M
Boys,109.77,12,Matt Thomas,Sabinal,108.41,158.76,111.13,233.6,503.49,Single-ply,SBD,M
Boys,109.77,13,Julio Fuentes,Carrizo Springs,107.5,185.97,120.2,188.24,494.42,Single-ply,SBD,M
Boys,109.77,14,Marc Hubbard,Comfort,106.59,174.63,106.59,197.31,478.54,Single-ply,SBD,M
Boys,109.77,15,Tyler Pharris,Universal City Randolph,102.06,185.97,113.4,176.9,476.27,Single-ply,SBD,M
Boys,109.77,16,Lucas Taulli,Bandera,104.33,185.97,104.33,185.97,476.27,Single-ply,SBD,M
Boys,109.77,17,Nieto David,Pearsall,101.6,183.7,104.33,170.1,458.13,Single-ply,SBD,M
Boys,109.77,18,Bj Carranza,Uvalde,109.32,183.7,92.99,181.44,458.13,Single-ply,SBD,M
Boys,109.77,19,Joe Reschman,Somerset,108.41,172.37,117.93,163.29,453.59,Single-ply,SBD,M
Boys,109.77,20,Ivan Hernandez,Uvalde,107.05,165.56,104.33,147.42,417.3,Single-ply,SBD,M
Boys,109.77,DQ,Ricky Arambula,Carrizo Springs,105.23,,,,,Single-ply,SBD,M
Boys,124.74,1,Benny Ximenez,Floresville,119.29,272.16,156.49,215.46,644.1,Single-ply,SBD,M
Boys,124.74,2,Pat Rodriguez,Devine,115.67,240.4,172.37,229.06,641.83,Single-ply,SBD,M
Boys,124.74,3,Gabriel Garza,Somerset,123.83,263.08,163.29,206.38,632.76,Single-ply,SBD,M
Boys,124.74,4,Raul Loza,Natalia,122.92,278.96,133.81,208.65,621.42,Single-ply,SBD,M
Boys,124.74,5,Alejandro Maldonado,Uvalde,112.04,260.82,129.27,224.53,614.62,Single-ply,SBD,M
Boys,124.74,6,Ronnie Lucio,Poteet,124.74,240.4,108.86,192.78,542.04,Single-ply,SBD,M
Boys,124.74,7,Juan Flores,Castroville Medina Valley,113.4,204.12,113.4,181.44,498.95,Single-ply,SBD,M
Boys,124.74,8,Marcus Avilla,Carrizo Springs,123.83,181.44,113.4,199.58,494.42,Single-ply,SBD,M
Boys,124.74,9,Santana Aguilar,Dilley,111.13,204.12,108.86,179.17,492.15,Single-ply,SBD,M
Boys,124.74,10,Cody Martin,Center Point,116.12,190.51,102.06,190.51,483.08,Single-ply,SBD,M
Boys,124.74,11,Noah Ramirez,Comfort,119.29,195.04,102.06,181.44,478.54,Single-ply,SBD,M
Boys,124.74,12,Michael Garza,Crystal City,112.04,185.97,102.06,181.44,469.47,Single-ply,SBD,M
Boys,124.74,13,Julius Gonzales,Dilley,113.85,183.7,92.99,163.29,439.98,Single-ply,SBD,M
Boys,124.74,DQ,Joe Aguero,Somerset,123.83,,,,,Single-ply,SBD,M
Boys,124.74,DQ,Jose Alaniz,Natalia,112.49,172.37,92.99,,,Single-ply,SBD,M
Boys,124.74+,1,Johnathan Saldana,Floresville,142.88,340.19,181.44,285.76,807.39,Single-ply,SBD,M
Boys,124.74+,2,Nune Perez,Crystal City,135.62,317.51,190.51,254.01,762.04,Single-ply,SBD,M
Boys,124.74+,3,Michael Reyes,Natalia,141.07,326.59,142.88,235.87,705.34,Single-ply,SBD,M
Boys,124.74+,4,Steven Balderrama,Devine,126.1,272.16,154.22,226.8,653.17,Single-ply,SBD,M
Boys,124.74+,5,Dj Carlson,Devine,129.73,263.08,151.95,219.99,635.03,Single-ply,SBD,M
Boys,124.74+,6,Nick O'Bryant,Castroville Medina Valley,128.82,254.01,136.08,217.72,607.81,Single-ply,SBD,M
Boys,124.74+,7,Charest Inman,Castroville Medina Valley,144.24,226.8,156.49,215.46,598.74,Single-ply,SBD,M
Boys,124.74+,8,Andy Valladoid,Somerset,135.62,258.55,124.74,181.44,564.72,Single-ply,SBD,M
Boys,124.74+,9,Drew Kirkpatrick,Uvalde,132.45,226.8,136.08,197.31,560.19,Single-ply,SBD,M
Boys,124.74+,10,Garrett Neuman,Castroville Medina Valley,145.15,219.99,142.88,197.31,560.19,Single-ply,SBD,M
Boys,124.74+,11,Zac Moore,Comfort,127.91,163.29,81.65,170.1,415.04,Single-ply,SBD,M
Boys,124.74+,12,Gabriel Maldonado,Dilley,133.81,181.44,79.38,140.61,401.43,Single-ply,SBD,M
Boys,124.74+,DQ,Kyle Oden,Uvalde,161.03,204.12,129.27,,,Single-ply,SBD,M
Boys,,NS,Darren Garcia,Crystal City,,,,,,Single-ply,SBD,M
