Place,Name,BodyweightKg,Squat1Kg,Squat2Kg,Squat3Kg,Best3SquatKg,Bench1Kg,Bench2Kg,Bench3Kg,Best3BenchKg,Deadlift1Kg,Deadlift2Kg,Deadlift3Kg,Best3DeadliftKg,TotalKg,WeightClassKg,Sex,CyrillicName,BirthYear,Equipment,Event,Division
1,Dmitriy Panin,51.8,175,182.5,187.5,187.5,95,100,102.5,102.5,190,200,-207.5,200,490,52,M,Дмитрий Панин,1980,Single-ply,SBD,Open
2,Viktor Kurbatov #1,51.7,170,180,-185,180,100,105,110,110,140,150,152.5,152.5,442.5,52,M,Виктор Курбатов,1978,Single-ply,SBD,Open
3,Ruslan Azizov,51.9,155,-165,170,170,85,92.5,-95,92.5,167.5,180,-182.5,180,442.5,52,M,Руслан Азизов,1976,Single-ply,SBD,Open
4,Denis Petin,51.3,150,160,162.5,162.5,95,102.5,105,105,160,-170,172.5,172.5,440,52,M,Денис Петин,1982,Single-ply,SBD,Open
5,Alexey Romanov,50.9,170,177.5,182.5,182.5,90,-95,100,100,150,-160,-160,150,432.5,52,M,Алексей Романов,1981,Single-ply,SBD,Open
6,Vyacheslav Felichev,51.4,145,157.5,-165,157.5,80,-85,85,85,145,157.5,165,165,407.5,52,M,Вячеслав Феличев,1984,Single-ply,SBD,Open
7,Oleg Kruglov,51.95,-130,130,140,140,70,-75,80,80,170,177.5,182.5,182.5,402.5,52,M,Олег Круглов,1981,Single-ply,SBD,Open
8,Bogomyatkov,49.5,115,130,-140,130,62.5,-70,70,70,130,140,-150,140,340,52,M,Богомятков,1983,Single-ply,SBD,Open
9,Andrey Klopot,52,100,115,125,125,65,-70,-70,65,120,135,-140,135,325,52,M,Андрей Клопот,1984,Single-ply,SBD,Open
10,Ilia Pavlov,43.5,-100,105,,105,45,50,-55,50,115,-125,-125,115,270,52,M,Илья Павлов,1985,Single-ply,SBD,Open
DQ,Sergey Zemlyanskiy,52,-140,-140,-140,,,,,,,,,,,52,M,Сергей Землянский,1983,Single-ply,SBD,Open
DQ,Maksim Romanov,52,-150,-160,-160,,,,,,,,,,,52,M,Максим Романов,1982,Single-ply,SBD,Open
1,Sergey Savinykh,55,200,-205,205,205,122.5,-125,125,125,190,200,-212.5,200,530,56,M,Сергей Савиных,1983,Single-ply,SBD,Open
2,Vladimir Maliagov,55,200,207.5,217.5,217.5,115,120,-125,120,182.5,190,-197.5,190,527.5,56,M,Владимир Малягов,1977,Single-ply,SBD,Open
3,Evgeniy Ushakov,56,-190,190,202.5,202.5,87.5,-95,-95,87.5,-195,205,-215,205,495,56,M,Евгений Ушаков,1982,Single-ply,SBD,Open
4,Dmitriy Smirnov,55.75,170,-190,190,190,115,120,-122.5,120,170,177.5,-180,177.5,487.5,56,M,Дмитрий Смирнов,1978,Single-ply,SBD,Open
5,Aleksey Solonenkov,56,165,177.5,182.5,182.5,95,100,105,105,187.5,200,,200,487.5,56,M,Алексей Солоненков,1981,Single-ply,SBD,Open
6,Denis Kabanov,56,195,-205,-205,195,100,-105,105,105,175,187.5,-195,187.5,487.5,56,M,Денис Кабанов,1983,Single-ply,SBD,Open
7,Yuriy Karasev,55.35,175,182.5,187.5,187.5,87.5,92.5,-95,92.5,200,-207.5,-207.5,200,480,56,M,Юрий Карасов,1981,Single-ply,SBD,Open
8,Vyacheslav Shapovalov,55.15,160,175,180,180,95,100,105,105,182.5,-190,-190,182.5,467.5,56,M,Вячеслав Шаповалов,1980,Single-ply,SBD,Open
9,Mikoel Batygin,55.15,155,160,162.5,162.5,-100,100,-105,100,195,-212.5,-212.5,195,457.5,56,M,Микоел Батыгин,1978,Single-ply,SBD,Open
10,Eldar Gizyatulov,55.25,160,170,-180,170,100,105,107.5,107.5,170,-185,-185,170,447.5,56,M,Эльдар Гизятулов,1978,Single-ply,SBD,Open
11,Albert Nafikov,55,160,170,-177.5,170,90,95,-97.5,95,165,175,,175,440,56,M,Альберт Нафиков,1982,Single-ply,SBD,Open
12,Ilya Pletyukhin,55.7,140,150,-160,150,70,75,-90,75,160,175,-180,175,400,56,M,Илья Плетюхин,1981,Single-ply,SBD,Open
13,Aleksey Galyshin,53.4,130,140,-150,140,60,67.5,70,70,140,150,-155,150,360,56,M,Алексей Галышин,1980,Single-ply,SBD,Open
14,Vladimir Balov,53.15,90,100,110,110,55,60,65,65,135,-142.5,-142.5,135,310,56,M,Владимир Балов,1984,Single-ply,SBD,Open
1,Andrey Zvyagintsev,59.6,210,220,225,225,140,147.5,152.5,152.5,200,210,220,220,597.5,60,M,Андрей Звягинцев,1980,Single-ply,SBD,Open
2,Aleksandr Gromov,59.3,220,235,240,240,125,135,-140,135,185,195,-197.5,195,570,60,M,Александр Громов,1981,Single-ply,SBD,Open
3,Dmitriy Lebedenkov,59.7,205,210,-215,210,125,130,135,135,205,215,225,225,570,60,M,Дмитрий Лебеденков,1979,Single-ply,SBD,Open
4,Maxim Nurutdinov,59.7,205,215.5,220,220,105,110,115,115,185,197.5,-200,197.5,532.5,60,M,Максим Нурутдинов,1982,Single-ply,SBD,Open
5,Denis Rasskazov,59.4,192.5,205,-212.5,205,107.5,115,117.5,117.5,207.5,-220,-220,207.5,530,60,M,Денис Рассказов,1982,Single-ply,SBD,Open
6,Igor Teplykh,58.5,200,210,220,220,102.5,-110,-110,102.5,177.5,187.5,-197.5,187.5,510,60,M,Игорь Теплых,1973,Single-ply,SBD,Open
7,Mikhail Tumanov,60,-170,175,192.5,192.5,100,107.5,-110,107.5,200,-220,-220,200,500,60,M,Михаил Туманов,1981,Single-ply,SBD,Open
8,Valeriy Dal-Zagayka,59.7,160,-190,-190,160,-125,125,-130,125,160,180,-185,180,465,60,M,Валерий Даль-Загайка,1977,Single-ply,SBD,Open
9,Aleksey Rodin,59.7,170,180,-190,180,70,-80,80,80,175,190,205,205,465,60,M,Алексей Родин,1983,Single-ply,SBD,Open
10,Igor Shilov,59.7,-170,170,-180,170,100,-105,-105,100,160,-172.5,-172.5,160,430,60,M,Игорь Шилов,1983,Single-ply,SBD,Open
11,Aleksey Vlasov,59.3,-145,-145,145,145,95,100,-105,100,-155,155,-165,155,400,60,M,Алексей Власов,1981,Single-ply,SBD,Open
12,Igor Vinogradov,58.4,140,150,-152.5,150,70,-80,-80,70,160,170,,170,390,60,M,Игорь Виноградов,1981,Single-ply,SBD,Open
DQ,Aleksey Khovanskiy,57.8,205,215,-220,215,105,110,115,115,-210,-210,-210,,,60,M,Алексей Хованский,1979,Single-ply,SBD,Open
DQ,Aleksey Golubev,58.6,150,165,-180,165,-110,-110,-110,,,,,,,60,M,Алексей Голубев,1976,Single-ply,SBD,Open
DQ,Aleksey Fedosov,59.3,120,-140,140,140,90,100,-110,100,-150,-155,-155,,,60,M,Алексей Федосов,1984,Single-ply,SBD,Open
1,Nikolay Sokolov,64,-250,257.5,-267.5,257.5,155,160,165,165,240,247.5,252.5,252.5,675,67.5,M,Николай Соколов,1979,Single-ply,SBD,Open
2,Alexey Osokin,67.4,225,232.5,-237.5,232.5,175,182.5,187.5,187.5,-240,240,-252.5,240,660,67.5,M,Алексей Осокин,1979,Single-ply,SBD,Open
3,Konstantin Lebedko,67.4,240,250,257.5,257.5,135,140,142.5,142.5,240,245,247.5,247.5,647.5,67.5,M,Константин Лебедко,1981,Single-ply,SBD,Open
4,Denis Tsebeka,66.8,240,-250,250,250,-125,125,-132.5,125,270,-290,-290,270,645,67.5,M,Денис Цебека,1978,Single-ply,SBD,Open
5,Aleksey Artemev,67,-220,227.5,232.5,232.5,137.5,-142.5,142.5,142.5,-252.5,252.5,265,265,640,67.5,M,Алексей Артемьев,1979,Single-ply,SBD,Open
6,Evgeniy Biktagirov,67.2,225,232.5,237.5,237.5,150,-155,157.5,157.5,-240,-240,240,240,635,67.5,M,Евгений Биктагиров,1979,Single-ply,SBD,Open
7,Dmitriy Dudnik,67.4,220,-230,240,240,147.5,152.5,-155,152.5,225,235,-247.5,235,627.5,67.5,M,Дмитрий Дудник,1979,Single-ply,SBD,Open
8,Pavel Kulkov,66.4,-220,225,-235,225,120,125,-130,125,-250,260,270,270,620,67.5,M,Павел Кульков,1980,Single-ply,SBD,Open
9,Mikhail Felgron,67.1,215,222.5,-227.5,222.5,145,-152.5,152.5,152.5,235,245,-247.5,245,620,67.5,M,Михаил Фельгрон,1979,Single-ply,SBD,Open
10,Maksim Matveyev,67,-235,235,-245,235,135,-145,145,145,225,-235,235,235,615,67.5,M,Максим Матвеев,1981,Single-ply,SBD,Open
11,Sergey Gromov,67.5,-215,220,-230,220,175,-185,-185,175,200,,,200,595,67.5,M,Сергей Громов,1979,Single-ply,SBD,Open
12,Vitaliy Gulyaev,65.7,-230,,230,230,135,-140,-140,135,215,222.5,-230,222.5,587.5,67.5,M,Виталий Гуляев,1977,Single-ply,SBD,Open
13,Anton Poptsov,67.4,220,-225,-225,220,-125,-125,125,125,220,230,232.5,232.5,577.5,67.5,M,Антон Попцов,1982,Single-ply,SBD,Open
14,Andrey Kozelov,65,220,230,240,240,115,120,-125,120,210,220,,220,580,67.5,M,Андрей Козелов,1980,Single-ply,SBD,Open
15,Vladimir Chikin,65.8,230,-240,-240,230,115,-120,-120,115,-230,230,-237.5,230,575,67.5,M,Владимир Чикин,1977,Single-ply,SBD,Open
16,Sergey Logutov,65.8,210,-225,-225,210,-130,137.5,140,140,200,210,215,215,565,67.5,M,Сергей Логутов,1984,Single-ply,SBD,Open
17,Maksim Brazhkin,67.2,-200,200,-210,200,-130,130,140,140,-230,230,-250,230,570,67.5,M,Максим Бражкин,1977,Single-ply,SBD,Open
18,Arkadiy Yudin,67.4,-200,200,-210,200,147.5,152.5,-160,152.5,190,200,207.5,207.5,560,67.5,M,Аркадий Юдин,1978,Single-ply,SBD,Open
19,Vladimir Manitsyn,66.1,220,-230,-230,220,-110,110,115,115,200,-210,-210,200,535,67.5,M,Владимир Маницын,1982,Single-ply,SBD,Open
20,Anatoliy Kozlov,67.4,215,-225,-225,215,120,-130,-135,120,220,-245,,220,555,67.5,M,Анатолий Козлов,1978,Single-ply,SBD,Open
21,Aleksandr Kan,65.8,200,-210,-210,200,125,132.5,-137.5,132.5,210,-220,-220,210,542.5,67.5,M,Александр Кан,1979,Single-ply,SBD,Open
22,Aleksandr Akimov,67,205,-215,220,220,-105,-110,110,110,210,-215,,210,540,67.5,M,Александр Акимов,1981,Single-ply,SBD,Open
23,Maksim Anikin,67,190,-205,-215,190,135,-142.5,-147.5,135,205,212.5,-217.5,212.5,537.5,67.5,M,Максим Аникин,1978,Single-ply,SBD,Open
24,Aleksandr Scherba,67.5,200,-210,-210,200,105,-110,-110,105,220,230,-240,230,535,67.5,M,Александр Щерба,1983,Single-ply,SBD,Open
25,Radik Gizitdinov,65.55,185,-192.5,200,200,105,110,120,120,190,200,-210,200,520,67.5,M,Радик Гизитдинов,1979,Single-ply,SBD,Open
26,Ivan Teryaev,67.5,195,-205,-205,195,-130,-130,130,130,190,,,190,515,67.5,M,Иван Теряев,1978,Single-ply,SBD,Open
27,Andrey Dzyubenko,65,-190,190,200,200,-115,115,117.5,117.5,195,-200,-200,195,512.5,67.5,M,Андрей Дзюбенко,1984,Single-ply,SBD,Open
28,Denis Lysikov,64.7,170,180,-190,180,110,-120,-120,110,170,180,-190,180,470,67.5,M,Денис Лысиков,1981,Single-ply,SBD,Open
29,Aleksandr Glovinov,65,170,-175,,170,-85,85,87.5,87.5,170,180,-185,180,437.5,67.5,M,Александр Голованов,1983,Single-ply,SBD,Open
DQ,Roman Kuzminov,67.1,-240,-240,-240,,,,,,,,,,,67.5,M,Роман Кузьминов,1979,Single-ply,SBD,Open
DQ,Nikolay Durapov,67.5,195,200,-205,200,-105,-105,-105,,,,,,,67.5,M,Николай Дурапов,1980,Single-ply,SBD,Open
DQ,Artem Korotygin,66.5,220,-230,-230,220,-120,-130,-130,,,,,,,67.5,M,Артем Коротыгин,1980,Single-ply,SBD,Open
DQ,Mikhail Stebletsov,66.5,-175,-175,,,,,,,,,,,,67.5,M,Михаил Стеблецов,1980,Single-ply,SBD,Open
DQ,Andrey Slozhenikin,66.6,120,,-140,120,-105,-105,-105,,,,,,,67.5,M,Андрей Сложеникин,1977,Single-ply,SBD,Open
DQ,Miron Nizhalov,66.3,-130,,145,145,-100,-100,-100,,,,,,,67.5,M,Мирон Нижалов,1977,Single-ply,SBD,Open
1,Eduard Krainov,73.75,250,-260,260,260,155,162.5,-170,162.5,272.5,282.5,292.5,292.5,715,75,M,Едуард Крайнов,1978,Single-ply,SBD,Open
2,Aleksey Ermilov,75,267.5,280,-285,280,167.5,-175,-175,167.5,257.5,267.5,-272.5,267.5,715,75,M,Алексей Ермилов,1979,Single-ply,SBD,Open
3,Andrey Altsybeev,75,247.5,260,265,265,152.5,-162.5,162.5,162.5,260,272.5,277.5,277.5,705,75,M,Андрей Алцыбеев,1978,Single-ply,SBD,Open
4,Stanislav Skobelkin,74.7,240,247.5,-250,247.5,147.5,152.5,155,155,280,290,297.5,297.5,700,75,M,Станислав Скобелкин,1977,Single-ply,SBD,Open
5,Vitaliy Boyko,75,250,262.5,267.5,267.5,155,162.5,-165,162.5,-270,270,,270,700,75,M,Виталий Бойко,1980,Single-ply,SBD,Open
6,Yuriy Zadorozhnyy,74.45,265,-270,-270,265,147.5,152.5,-155,152.5,270,-282.5,-282.5,270,687.5,75,M,Юрий Задорожный,1981,Single-ply,SBD,Open
7,Aleksandr Alekseev,74.3,250,-260,260,260,160,-170,-175,160,250,260,-265,260,680,75,M,Александр Алексеев,1973,Single-ply,SBD,Open
8,Sergey Shulepov,72.3,250,260,267.5,267.5,-150,150,155,155,240,250,-260,250,672.5,75,M,Сергей Шулепов,1982,Single-ply,SBD,Open
9,Oleg Ryabinnikov,74.55,-255,-255,255,255,-150,-150,150,150,250,265,-282.5,265,670,75,M,Олег Рябинников,1978,Single-ply,SBD,Open
10,Alexey Zvarykin,74.4,250,-260,260,260,150,-160,-160,150,250,-260,-260,250,660,75,M,Алексей Зварыкин,1979,Single-ply,SBD,Open
11,Andrey Yakovlev,74.7,220,230,235,235,140,145,147.5,147.5,250,262.5,267.5,267.5,650,75,M,Андрей Яковлев,1979,Single-ply,SBD,Open
12,Andrey Mitrofanov,74.85,-270,270,-290,270,-150,150,-160,150,230,-240,-240,230,650,75,M,Андрей Митрофанов,1978,Single-ply,SBD,Open
13,Sergey Kamazinskiy,74.2,220,232.5,237.5,237.5,140,147.5,155,155,240,245,,245,637.5,75,M,Сергей Камазинский,1978,Single-ply,SBD,Open
14,Eduard Solovetskiy,74.75,240,250,-260,250,130,-137.5,-137.5,130,240,250,-255,250,630,75,M,Эдуард Соловецкий,1981,Single-ply,SBD,Open
15,Ruslan Nigmatullin,74.7,225,232.5,-237.5,232.5,125,135,-137.5,135,240,252.5,265,265,632.5,75,M,Руслан Нигматуллин,1983,Single-ply,SBD,Open
16,Nikolay Nakakhidi,74.95,240,250,255,255,-125,125,130,130,-247.5,247.5,-255,247.5,632.5,75,M,Николай Накахиди,1980,Single-ply,SBD,Open
17,Viktor Bey,75,205,-215,215,215,-150,150,-152.5,150,-250,250,267.5,267.5,632.5,75,M,Виктор Бей,1979,Single-ply,SBD,Open
18,Evgeniy Burtsev,74.4,225,235,-240,235,137.5,145,150,150,235,-247.5,-247.5,235,620,75,M,Евгений Бурцев,1982,Single-ply,SBD,Open
19,Vladimir Luchkin,74,220,230,240,240,125,130,132.5,132.5,245,-260,-260,245,617.5,75,M,Владимир Лучкин,1978,Single-ply,SBD,Open
20,Vitaliy Nesterov,74.15,-230,-230,235,235,120,125,127.5,127.5,230,242.5,250,250,612.5,75,M,Виталий Нестеров,1977,Single-ply,SBD,Open
21,Kirill Drozdov,74.55,240,-250,250,250,140,-145,145,145,210,-225,-237.5,210,605,75,M,Кирилл Дроздов,1979,Single-ply,SBD,Open
22,Dmitriy Gordeev,74.1,-215,215,230,230,130,137.5,-142.5,137.5,220,235,-242.5,235,602.5,75,M,Дмитрий Гордеев,1979,Single-ply,SBD,Open
23,Evgeniy Sivolapov,74.2,210,230,-240,230,130,-140,-140,130,240,-260,,240,600,75,M,Евгений Сиволапов,1980,Single-ply,SBD,Open
24,Vladimir Mishin,73.95,220,-235,,220,120,130,135,135,230,-240,,230,585,75,M,Владимир Мишин,1980,Single-ply,SBD,Open
25,Anton Stolyar,73.2,210,220,-225,220,-135,-135,135,135,215,-225,-225,215,570,75,M,Антон Столяр,1981,Single-ply,SBD,Open
26,Oganes Katikyan,75,160,180,200,200,-150,150,-160,150,180,205,215,215,565,75,M,Оганес Катикян,1983,Single-ply,SBD,Open
27,Sergey Lapitskiy,74.3,210,-230,-232.5,210,130,-140,-145,130,220,,,220,560,75,M,Сергей Лапицкий,1979,Single-ply,SBD,Open
28,Vitaliy Bobrov,73.9,-210,210,217.5,217.5,-105,105,110,110,210,-220,220,220,547.5,75,M,Виталий Бобров,1981,Single-ply,SBD,Open
29,Aleksey Filippov,70.7,180,-190,190,190,-110,110,-120,110,210,220,,220,520,75,M,Алексей Филиппов,1981,Single-ply,SBD,Open
30,Timur Kostarev,71.75,190,200,-210,200,110,117.5,-125,117.5,190,200,-205,200,517.5,75,M,Тимур Костарев,1984,Single-ply,SBD,Open
DQ,Aleksandr Pasko,74.8,200,215,-222.5,215,-140,140,147.5,147.5,-245,-245,-245,,,75,M,Александр Пасько,1978,Single-ply,SBD,Open
DQ,Aleksey Smirnov,74.7,-230,-230,-230,,,,,,,,,,,75,M,Алексей Смирнов,1980,Single-ply,SBD,Open
DQ,Sergey Matveev,74,-255,-255,-255,,,,,,,,,,,75,M,Сергей Матвеев,1980,Single-ply,SBD,Open
DQ,Sergey Rozhkov,74.85,240,-250,-250,240,-135,135,-137.5,135,-240,-240,-240,,,75,M,Сергей Рожков,1981,Single-ply,SBD,Open
1,Alexei Malunin,81.65,265,275,282.5,282.5,180,185,-190,185,275,287.5,-300,287.5,755,82.5,M,Алексей Малунин,1978,Single-ply,SBD,Open
2,Viktor Manishin,80.5,-260,260,267.5,267.5,172.5,177.5,-180,177.5,270,285,-297.5,285,730,82.5,M,Виктор Манишин,1979,Single-ply,SBD,Open
3,Marat Altynbaev,81.75,260,270,275,275,155,160,162.5,162.5,260,267.5,275,275,712.5,82.5,M,Марат Алтынбаев,1977,Single-ply,SBD,Open
4,Stepan Bolshak,81.5,255,-270,270,270,160,167.5,170,170,255,262.5,270,270,710,82.5,M,Степан Большак,1980,Single-ply,SBD,Open
5,Evgeniy Nechaev,81.15,240,250,260,260,170,180,-185,180,240,250,260,260,700,82.5,M,Евгений Нечаев,1978,Single-ply,SBD,Open
6,Pavel Malygin,81.95,-265,270,-285,270,155,-160,-160,155,260,270,275,275,700,82.5,M,Павел Малыгин,1978,Single-ply,SBD,Open
7,Sergey Stepanov,82.2,260,265,272.5,272.5,155,-165,165,165,255,262.5,-270,262.5,700,82.5,M,Сергей Степанов,1982,Single-ply,SBD,Open
8,Evgeniy Ryabokrys,81.25,260,-265,-265,260,145,150,-155,150,285,-295,-295,285,695,82.5,M,Евгений Рябокрыс,1980,Single-ply,SBD,Open
9,Anton Malashenko,81.3,-270,270,-280,270,170,180,-185,180,-240,-240,240,240,690,82.5,M,Антон Малашенко,1979,Single-ply,SBD,Open
10,Anatoliy Aliev,81.45,-260,-260,260,260,145,150,-152.5,150,270,275,280,280,690,82.5,M,Анатолий Алиев,1980,Single-ply,SBD,Open
11,Viktor Strizhov,81.85,-250,262.5,267.5,267.5,165,-172.5,172.5,172.5,245,-252.5,-252.5,245,685,82.5,M,Виктор Стрижов,1978,Single-ply,SBD,Open
12,Georgiy Gusev,80.2,-220,220,230,230,-165,170,-175,170,255,275,-280,275,675,82.5,M,Георгий Гусев,1980,Single-ply,SBD,Open
13,Oleg Turov,80.75,260,-270,270,270,125,-135,135,135,-260,270,,270,675,82.5,M,Олег Туров,1979,Single-ply,SBD,Open
14,Mikhail Lavrov,81.5,240,255,262.5,262.5,140,-152.5,152.5,152.5,240,260,-270,260,675,82.5,M,Михаил Лавров,1980,Single-ply,SBD,Open
15,Vyacheslav Smakotin,82.1,245,260,265,265,-150,150,160,160,240,250,-255,250,675,82.5,M,Вячеслав Смакотин,1976,Single-ply,SBD,Open
16,Ararat Varosyan,82.1,-245,250,-255,250,145,152.5,155,155,-255,270,-272.5,270,675,82.5,M,Арарат Варосян,1977,Single-ply,SBD,Open
17,Denis Podvizhnoy,82.5,230,240,245,245,160,165,170,170,260,-270,-270,260,675,82.5,M,Денис Подвижной,1977,Single-ply,SBD,Open
18,Vladimir Kuvaev,80.3,-240,240,-250,240,145,-152.5,152.5,152.5,265,280,-287.5,280,672.5,82.5,M,Владимир Куваев,1980,Single-ply,SBD,Open
19,Evgeniy Kolesnikov,80.6,-240,-245,245,245,145,152.5,157.5,157.5,245,255,-260,255,657.5,82.5,M,Евгений Колесников,1976,Single-ply,SBD,Open
20,Artem Kashurin,81.95,240,-250,250,250,140,-150,-150,140,260,-275,,260,650,82.5,M,Артем Кашурин,1979,Single-ply,SBD,Open
21,Yuriy Kostelev,81.95,-245,-250,250,250,155,-160,-160,155,245,-270,-270,245,650,82.5,M,Юрий Костелев,1977,Single-ply,SBD,Open
22,Tagud Papava,82.4,-255,260,-270,260,-160,-170,170,170,220,-222.5,-222.5,220,650,82.5,M,Тагуд Папава,1977,Single-ply,SBD,Open
23,Aleksey Gruzdev,78.9,235,245,-255,245,-145,145,152.5,152.5,220,227.5,-232.5,227.5,625,82.5,M,Алексей Груздев,1980,Single-ply,SBD,Open
24,Ildar Gilfanov,82.4,-235,240,-247.5,240,130,137.5,-142.5,137.5,235,-245,245,245,622.5,82.5,M,Ильдар Гильфанов,1982,Single-ply,SBD,Open
25,Sergey Melnikov,81.25,-230,230,-240,230,145,150,-155,150,210,220,230,230,610,82.5,M,Сергей Мельников,1981,Single-ply,SBD,Open
26,Mikhail Emelyanov,81.7,220,-230,-235,220,130,140,-145,140,220,-230,-240,220,580,82.5,M,Михаил Емельянов,1979,Single-ply,SBD,Open
27,Denis Alekhin,80.15,210,215,,215,-135,-135,135,135,-220,220,-230,220,570,82.5,M,Денис Алехин,1980,Single-ply,SBD,Open
28,Alexey Ernandes-Ortega,78.85,230,-240,-240,230,125,130,135,135,-200,-200,200,200,565,82.5,M,Алексей Эрнандес-Ортега,1984,Single-ply,SBD,Open
29,Sergey Yarymov,77,180,195,-200,195,140,-150,,140,220,-235,-235,220,555,82.5,M,Сергей Ярымов,1977,Single-ply,SBD,Open
DQ,Vadim Usanov,82.5,250,260,267.5,267.5,-180,-180,-180,,,,,,,82.5,M,Вадим Усанов,1977,Single-ply,SBD,Open
DQ,Evgeniy Senchikhin,82.5,-240,-250,-250,,,,,,,,,,,82.5,M,Евгений Сенчихин,1981,Single-ply,SBD,Open
DQ,Viktor Kornilov,82.5,-240,-250,-250,,,,,,,,,,,82.5,M,Виктор Корнилов,1979,Single-ply,SBD,Open
DQ,Evgeniy Kachusov,82.4,-232.5,-232.5,-232.5,,,,,,,,,,,82.5,M,Евгений Качусов,1981,Single-ply,SBD,Open
1,Alexei Sharovatov,88.3,290,300,-310,300,-200,-205,205,205,305,312.5,-335,312.5,817.5,90,M,Алексей Шароватов,1979,Single-ply,SBD,Open
2,Vladimir Rudenko,89.7,307.5,317.5,-327.5,317.5,187.5,-195,-200,187.5,-300,300,-315,300,805,90,M,Владимир Руденко,1981,Single-ply,SBD,Open
3,Sergey Kharitonov,89.2,280,290,295,295,170,175,177.5,177.5,300,312.5,-320,312.5,785,90,M,Сергей Харитонов,1977,Single-ply,SBD,Open
4,Arsen Batskov,89.75,280,-295,-295,280,180,195,-202.5,195,280,-295,-297.5,280,755,90,M,Арсен Бацков,1981,Single-ply,SBD,Open
5,Sergey Semakin,89.4,280,-290,-290,280,-160,160,167.5,167.5,280,290,295,295,742.5,90,M,Сергей Семакин,1978,Single-ply,SBD,Open
6,Nikolay Parfenov,89.35,-280,280,-290,280,160,165,167.5,167.5,280,290,-300,290,737.5,90,M,Николай Парфенов,1980,Single-ply,SBD,Open
7,Maxim Barkhatov,89.6,-270,-270,270,270,-170,170,180,180,270,-280,280,280,730,90,M,Максим Бархатов,1981,Single-ply,SBD,Open
8,Konstantin Shuchkovskiy,87.9,-275,-275,275,275,-175,175,-190,175,260,275,-285,275,725,90,M,Константин Шучковский,1978,Single-ply,SBD,Open
9,Nikolay Ilyichev,87.9,260,270,275,275,165,-170,175,175,280,-295,-295,280,730,90,M,Николай Ильичев,1977,Single-ply,SBD,Open
10,Vladimir Sedov,89.3,-265,265,-275,265,180,-185,-185,180,265,275,-285,275,720,90,M,Владимир Седов,1978,Single-ply,SBD,Open
11,Sergey Pudovkin,89.35,260,270,275,275,165,172.5,175,175,255,265,-275,265,715,90,M,Сергей Пудовкин,1980,Single-ply,SBD,Open
12,Maksim Ganovskiy,88.1,250,260,262.5,262.5,160,170,-175,170,250,272.5,277.5,277.5,710,90,M,Максим Гановский,1979,Single-ply,SBD,Open
13,Dmitriy Loshkarev,89.65,250,260,-267.5,260,175,-182.5,-185,175,265,275,-285,275,710,90,M,Дмитрий Лошкарев,1979,Single-ply,SBD,Open
14,Alexander Butov,88.6,240,260,-270,260,-160,160,-167.5,160,250,-285,285,285,705,90,M,Александр Бутов,1981,Single-ply,SBD,Open
15,Evgeniy Zhukov,89.2,-265,265,-275,265,-155,155,160,160,280,-290,,280,705,90,M,Евгений Жуков,1978,Single-ply,SBD,Open
16,Vyacheslav Tekonin,89.9,270,280,-285,280,165,-175,-175,165,240,260,-265,260,705,90,M,Вячеслав Теконин,1979,Single-ply,SBD,Open
17,Maksim Bezrukov,85.5,260,275,280,280,155,-160,-160,155,255,-270,-270,255,690,90,M,Максим Безруков,1980,Single-ply,SBD,Open
18,Roman Kovalenko,87.5,240,252.5,-260,252.5,120,-127.5,127.5,127.5,282.5,305,-325,305,685,90,M,Роман Коваленко,1980,Single-ply,SBD,Open
19,Aleksandr Sviridov,89.55,235,245,247.5,247.5,-160,160,165,165,270,-292.5,-292.5,270,682.5,90,M,Александр Свиридов,1980,Single-ply,SBD,Open
20,Aleksandr Atlas,84.4,230,-250,250,250,170,175,-180,175,230,-240,-250,230,655,90,M,Александр Атлас,1981,Single-ply,SBD,Open
21,Rinat Kumarov,89.2,270,-280,-280,270,-155,155,-165,155,230,-250,-250,230,655,90,M,Ринат Кумаров,1980,Single-ply,SBD,Open
22,Vladimir Glazunov,89.3,235,-245,250,250,160,170,-175,170,220,235,-240,235,655,90,M,Владимир Глазунов,1979,Single-ply,SBD,Open
23,Aleksey Garanin,89.15,215,-230,240,240,155,165,170,170,220,230,240,240,650,90,M,Алексей Гаранин,1978,Single-ply,SBD,Open
24,Viktor Maykov,87.3,-225,242.5,255,255,135,145,147.5,147.5,225,242.5,245,245,647.5,90,M,Виктор Майков,1980,Single-ply,SBD,Open
25,Dzhefer Kerimkhanov,84,240,245,250,250,-140,140,147.5,147.5,230,240,-250,240,637.5,90,M,Джефер Керимханов,1981,Single-ply,SBD,Open
DQ,Aleksandr Kositsyn,89.35,-320,-320,-320,,,,,,,,,,,90,M,Александр Косицын,1977,Single-ply,SBD,Open
DQ,Aleksandr Matveev,89.95,-245,-250,250,250,,,,,,,,,,90,M,Александр Матвеев,1981,Single-ply,SBD,Open
DQ,Aleksandr Shalaev,89.4,-215,-215,-215,,,,,,,,,,,90,M,Александр Шалаев,1979,Single-ply,SBD,Open
DQ,Roman Gavrusik,89.1,-255,-260,-260,,,,,,,,,,,90,M,Роман Гаврусик,1982,Single-ply,SBD,Open
1,Nikolay Suslov,97,340,360,-375,360,215,-225,,215,320,-345,-345,320,895,100,M,Николай Суслов,1979,Single-ply,SBD,Open
2,Aleksandr Ushakov,98.8,300,315,325,325,195,205,-207.5,205,300,310,-325,310,840,100,M,Александр Ушаков,1979,Single-ply,SBD,Open
3,Maksim Chernomortsev,99.2,325,337.5,-345,337.5,195,202.5,-207.5,202.5,285,-292.5,-292.5,285,825,100,M,Максим Черноморцев,1977,Single-ply,SBD,Open
4,Mikhail Frolov,92,300,315,330,330,187.5,197.5,202.5,202.5,290,-297.5,297.5,297.5,830,100,M,Михаил Фролов,1979,Single-ply,SBD,Open
5,Sergei Marinin,99.2,290,302.5,310,310,-170,170,-180,170,315,-350,350,350,830,100,M,Сергей Маринин,1979,Single-ply,SBD,Open
6,Pavel Lavin,96,300,310,317.5,317.5,180,190,-192.5,190,300,-322.5,-322.5,300,807.5,100,M,Павел Лавин,1979,Single-ply,SBD,Open
7,Aleksandr Kuzin,97.8,295,305,310,310,185,192.5,197.5,197.5,270,280,285,285,792.5,100,M,Александр Кузин,1979,Single-ply,SBD,Open
8,Konstantin Filippov,98.7,285,-300,300,300,190,200,207.5,207.5,270,280,-287.5,280,787.5,100,M,Константин Филиппов,1978,Single-ply,SBD,Open
9,Vladimir Kotkov,97,280,295,-305,295,170,180,185,185,280,295,305,305,785,100,M,Владимир Котков,1980,Single-ply,SBD,Open
10,Vladimir Semenov,99.8,270,280,285,285,-190,190,-195,190,300,-310,-310,300,775,100,M,Владимир Семенов,1977,Single-ply,SBD,Open
11,Aleksey Gorbachev,96,270,285,-295,285,200,-210,210,210,270,-280,,270,765,100,M,Алексей Горбачев,1979,Single-ply,SBD,Open
12,Anton Khomyakov,99.8,300,310,-320,310,-170,170,175,175,260,275,-280,275,760,100,M,Антон Хомяков,1977,Single-ply,SBD,Open
13,Denis Chernov #3,98.5,270,285,-295,285,190,-197.5,-197.5,190,240,260,270,270,745,100,M,Денис Чернов,1980,Single-ply,SBD,Open
14,Eduard Bogryatsov,99.4,240,250,262.5,262.5,185,190,195,195,265,277.5,-282.5,277.5,735,100,M,Эдуард Богряцов,1977,Single-ply,SBD,Open
15,Aleksey Suschin,98.9,260,270,,270,180,190,-195,190,260,275,-300,275,735,100,M,Алексей Сущин,1976,Single-ply,SBD,Open
16,Andrey Vasilev,98.7,270,280,285,285,-170,170,-180,170,-260,260,-280,260,715,100,M,Андрей Васильев,1979,Single-ply,SBD,Open
17,Aleksandr Rudik,94.3,255,-270,270,270,190,200,-205,200,230,-250,250,250,720,100,M,Александр Рудик,1977,Single-ply,SBD,Open
18,Sergey Bespalov,98.3,-260,-260,260,260,160,170,-175,170,280,-305,-305,280,710,100,M,Сергей Беспалов,1977,Single-ply,SBD,Open
19,Maksim Kuzin,94.9,-275,275,287.5,287.5,-155,155,162.5,162.5,255,-272.5,-272.5,255,705,100,M,Максим Кузин,1977,Single-ply,SBD,Open
20,Vyacheslav Lapin,95,240,250,-260,250,-155,155,165,165,235,245,-250,245,660,100,M,Вячеслав Лапин,1978,Single-ply,SBD,Open
21,Nikolay Malinovskiy,98.5,-250,-250,250,250,-130,130,-140,130,260,-275,280,280,660,100,M,Николай Малиновский,1980,Single-ply,SBD,Open
DQ,Sergey Gorchakov,99.4,-285,-285,-285,,,,,,,,,,,100,M,Сергей Горчаков,1978,Single-ply,SBD,Open
1,Igor Medvedev,103.15,320,335,342.5,342.5,210,217.5,225,225,290,305,317.5,317.5,885,110,M,Игорь Медведев,1980,Single-ply,SBD,Open
2,Valentin Dedyulia,106.9,335,345,355,355,190,200,207.5,207.5,310,315,-325,315,877.5,110,M,Валентин Дедюля,1977,Single-ply,SBD,Open
3,Evgeniy Belenkov,105.4,290,300,320,320,177.5,185,190,190,280,290,300,300,810,110,M,Евгений Беленков,1981,Single-ply,SBD,Open
4,Aleksey Khudyakov,100.2,270,285,290,290,185,192.5,-197.5,192.5,280,300,-327.5,300,782.5,110,M,Алексей Худяков,1979,Single-ply,SBD,Open
5,Sergey Volkov,108.5,290,-305,-305,290,177.5,185,190,190,270,280,-285,280,760,110,M,Сергей Волков,1977,Single-ply,SBD,Open
6,Konstantin Bagmut,109.95,270,-290,290,290,190,195,200,200,260,267.5,-275,267.5,757.5,110,M,Константин Багмут,1978,Single-ply,SBD,Open
7,Vladimir Kotov,108.7,265,282.5,-295,282.5,160,170,-175,170,260,280,285,285,737.5,110,M,Владимир Котов,1977,Single-ply,SBD,Open
8,Ilya Tezin,101,-265,-265,265,265,170,180,-190,180,-270,-270,270,270,715,110,M,Илья Тезин,1980,Single-ply,SBD,Open
9,Nikolay Myshkevich,107,-255,-255,262.5,262.5,175,-185,-185,175,210,220,230,230,667.5,110,M,Николай Мышкевич,1978,Single-ply,SBD,Open
DQ,Yuriy Babakov,108.85,280,290,-300,290,-170,170,180,180,-285,-285,-285,,,110,M,Юрий Бабаков,1979,Single-ply,SBD,Open
G,Oleg Teslikov,109.15,-280,-280,280,280,175,180,-182.5,180,285,-295,-295,285,745,110,M,Олег Тесликов,1975,Single-ply,SBD,Open
1,Andrey Malanichev,124.4,370,390,-400.5,390,220,-235,235,235,320,340,365,365,990,125,M,Андрей Маланичев,1977,Single-ply,SBD,Open
2,Sergey Grinyaev,124.15,310,320,330,330,200,210,220,220,280,300,310,310,860,125,M,Сергей Гриняев,1977,Single-ply,SBD,Open
3,Vitaliy Mikheev,123.1,325,337.5,-347.5,337.5,-225,225,230,230,280,287.5,,287.5,855,125,M,Виталий Михеев,1977,Single-ply,SBD,Open
4,Aleksey Bystrov,122,285,305,315,315,-195,200,205,205,280,305,315,315,835,125,M,Алексей Быстров,1980,Single-ply,SBD,Open
5,Ivan Maksimov,111.7,300,310,320,320,-205,205,215,215,280,-295,-295,280,815,125,M,Иван Максимов,1978,Single-ply,SBD,Open
6,Mikhail Grishin,115.6,310,-330,330,330,170,180,-187.5,180,-260,-260,260,260,770,125,M,Михаил Гришин,1978,Single-ply,SBD,Open
7,Sergey Ovsyannikov,117.55,-300,300,-310,300,180,187.5,-192.5,187.5,-250,250,-260,250,737.5,125,M,Сергей Овсянников,1979,Single-ply,SBD,Open
8,Vyacheslav Aksenov,113.2,230,247.5,-252.5,247.5,145,-155,-155,145,260,277.5,-282.5,277.5,670,125,M,Вячеслав Аксенов,1981,Single-ply,SBD,Open
DQ,Aleksandr Oleynik,118,310,320,325,325,185,195,202.5,202.5,-285,-285,-285,,,125,M,Александр Олейник,1978,Single-ply,SBD,Open
1,Vladimir Bondarenko,129.8,320,-340,340,340,210,222.5,-232.5,222.5,322.5,337.5,350,350,912.5,125+,M,Владимир Бондаренко,1978,Single-ply,SBD,Open
2,Nikolay Guryanov,145.8,325,340,350,350,220,-225,-225,220,330,340,-347.5,340,910,125+,M,Николай Гурьянов,1978,Single-ply,SBD,Open
3,Konstantin Zelenin,156.35,310,317.5,330,330,-250,-250,250,250,302.5,310,-320,310,890,125+,M,Константин Зеленин,1977,Single-ply,SBD,Open
4,Andrey Kunish,127.5,330,350,-360,350,-210,-210,210,210,305,-322.5,-330,305,865,125+,M,Андрей Куниш,1977,Single-ply,SBD,Open
5,Dmitriy Balakaev,149,-290,290,305,305,170,180,185,185,-300,300,,300,790,125+,M,Дмитрий Балакаев,1978,Single-ply,SBD,Open
6,Nikolay Ufimtsev,150.4,-305,315,325,325,185,195,-205,195,260,270,-280,270,790,125+,M,Николай Уфимцев,1980,Single-ply,SBD,Open
DQ,Sergey Ryzhkov,126.5,280,290,300,300,-180,-185,-185,,,,,,,125+,M,Сергей Рыжков,1979,Single-ply,SBD,Open
G,Denis Morozkin,151.8,300,330,340,340,160,170,175,175,260,275,,275,790,125+,M,Денис Морозкин,1978,Single-ply,SBD,Open
DQ,Maksim Uniyak,85.75,-255,-255,-255,,,,,,,,,,,90,M,Максим Унияк,1971,Single-ply,SBD,Open
1,Natalya Shapovalova,43.65,120,127.5,130,130,-62.5,62.5,-67.5,62.5,120,130,-145,130,322.5,44,F,Наталья Шаповалова,1983,Single-ply,SBD,Open
2,Natalya Tokareva,44,115,122.5,-127.5,122.5,45,-50,50,50,105,112.5,-115,112.5,285,44,F,Наталья Токарева,1984,Single-ply,SBD,Open
3,Maria Chushchina,43.9,100,105,-107.5,105,42.5,47.5,50,50,100,110,-115,110,265,44,F,Мария Чущина,1985,Single-ply,SBD,Open
4,Veronika Frolova,43.6,75,-77.5,77.5,77.5,42.5,45,-47.5,45,102.5,105,,105,227.5,44,F,Вероника Фролова,1981,Single-ply,SBD,Open
5,Yana Kholodila,43.65,80,85,90,90,40,-45,-45,40,70,80,85,85,215,44,F,Яна Холодила,1978,Single-ply,SBD,Open
6,Anna Moskaleva,43.8,65,72.5,-77.5,72.5,35,40,-42.5,40,-100,-100,100,100,212.5,44,F,Анна Москалева,1981,Single-ply,SBD,Open
7,Elena Echmaeva,43,85,97.5,-102.5,97.5,30,-37.5,-37.5,30,75,-80,-80,75,202.5,44,F,Елена Ечмаева,1984,Single-ply,SBD,Open
1,Olesya Lafina,47.5,145,155,162.5,162.5,75,80,-85,80,105,110,115,115,357.5,48,F,Олеся Лафина,1979,Single-ply,SBD,Open
2,Kira Pavlovskaya,47.85,130,135,137.5,137.5,65,72.5,75,75,130,142.5,-147.5,142.5,355,48,F,Кира Павловская,1983,Single-ply,SBD,Open
3,Natalya Krikunova,45.9,-125,125,-127.5,125,65,-70,-70,65,115,125,-130,125,315,48,F,Наталья Крикунова,1981,Single-ply,SBD,Open
4,Natalya Zherebtsova,47.5,-125,-125,125,125,65,-67.5,,65,115,125,-130,125,315,48,F,Наталья Жеребцова,1977,Single-ply,SBD,Open
5,Nadezhda Savilova,48,90,95,-97.5,95,45,-50,50,50,105,115,-120,115,260,48,F,Надежда Савилова,1980,Single-ply,SBD,Open
6,Anna Vyshkovskaya,47.2,85,90,95,95,47.5,-50,50,50,95,100,105,105,250,48,F,Анна Вышковская,1978,Single-ply,SBD,Open
7,Elena Danilina,47.4,75,85,-87.5,85,40,42.5,-45,42.5,105,-115,115,115,242.5,48,F,Елена Данилина,1981,Single-ply,SBD,Open
8,Zhanna Puchkova,48,85,95,-105,95,-45,45,-47.5,45,95,102.5,-107.5,102.5,242.5,48,F,Жанна Пучкова,1982,Single-ply,SBD,Open
9,Marina Panikhidina,46.9,80,-90,-90,80,-30,35,-37.5,35,90,100,-110,100,215,48,F,Марина Панихидина,1985,Single-ply,SBD,Open
10,Aleksandra Melnikova,45.8,-70,75,80,80,27.5,30,-32.5,30,65,72.5,-75,72.5,182.5,48,F,Александра Мельникова,1987,Single-ply,SBD,Open
1,Elena Shadrina,51.8,167.5,-175,175,175,80,90,-95,90,160,-165,165,165,430,52,F,Елена Шадрина,1982,Single-ply,SBD,Open
2,Inna Tairova,51.15,-155,155,-160,155,82.5,87.5,90,90,160,170,-185,170,415,52,F,Инна Таирова,1980,Single-ply,SBD,Open
3,Anzhelika Smirnova,49.1,140,147.5,-152.5,147.5,70,-75,-75,70,140,145,-150,145,362.5,52,F,Анжелика Смирнова,1982,Single-ply,SBD,Open
4,Svetlana Samar,52,125,135,142.5,142.5,-75,-75,75,75,130,-137.5,137.5,137.5,355,52,F,Светлана Самар,1979,Single-ply,SBD,Open
5,Elena Vorobyeva,51.8,102.5,112.5,117.5,117.5,60,62.5,-65,62.5,120,-127.5,135,135,315,52,F,Елена Воробьева,1978,Single-ply,SBD,Open
6,Elena Malykh,51.8,112.5,-120,120,120,50,-55,-55,50,102.5,110,-112.5,110,280,52,F,Елена Малых,1983,Single-ply,SBD,Open
7,Yuliya Popova,50,100,-110,110,110,60,62.5,65,65,100,-105,-105,100,275,52,F,Юлия Попова,1985,Single-ply,SBD,Open
8,Sofya Shtykova,51.65,105,-110,-110,105,50,52.5,55,55,110,115,-120,115,275,52,F,Софья Штыкова,1982,Single-ply,SBD,Open
9,Anna Tokareva,50.05,110,-120,120,120,40,-50,-55,40,105,110,-117.5,110,270,52,F,Анна Токарева,1984,Single-ply,SBD,Open
10,Margarita Buevich,51.4,-95,100,102.5,102.5,55,-60,60,60,97.5,102.5,105,105,267.5,52,F,Маргарита Буевич,1982,Single-ply,SBD,Open
11,Svetlana Sedova,51.5,95,105,-110,105,52.5,57.5,-60,57.5,95,102.5,-115,102.5,265,52,F,Светлана Седова,1982,Single-ply,SBD,Open
12,Natalya Zaletilo,52,95,100,105,105,45,47.5,-50,47.5,105,112.5,-115,112.5,265,52,F,Наталья Залетило,1983,Single-ply,SBD,Open
13,Aygul Salikova,52,85,95,-105,95,35,-40,-42.5,35,105,115,-135,115,245,52,F,Айгуль Саликова,1981,Single-ply,SBD,Open
DQ,Tatyana Kovalenko,52,120,-127.5,130,130,60,-65,65,65,-120,-120,-120,,,52,F,Татьяна Коваленко,1982,Single-ply,SBD,Open
DQ,Gulnara Yumasheva,52,110,122.5,-127.5,122.5,-80,-80,-80,,,,,,,52,F,Гульнара Юмашева,1977,Single-ply,SBD,Open
DQ,Marina Gaptugaleeva,50.8,-160,-160,-160,,,,,,,,,,,52,F,Марина Гаптугалеева,1981,Single-ply,SBD,Open
DQ,Marina Udodova,52,-115,-115,-115,,,,,,,,,,,52,F,Марина Удодова,1979,Single-ply,SBD,Open
DQ,Anna Lobanova,51.1,140,-150,150,150,-65,-65,-65,,,,,,,52,F,Анна Лобанова,1980,Single-ply,SBD,Open
G,Olga Puzanova,52,105,110,115,115,47.5,50,52.5,52.5,97.5,102.5,107.5,107.5,275,52,F,Ольга Пузанова,1977,Single-ply,SBD,Open
1,Yelena Perfilyeva,56,170,-177.5,177.5,177.5,85,-87.5,-87.5,85,160,165,170,170,432.5,56,F,Елена Перфильева,1978,Single-ply,SBD,Open
2,Veronika Kanutkina,55.1,155,162.5,170,170,80,82.5,85,85,150,157.5,-160,157.5,412.5,56,F,Вероника Кануткина,1979,Single-ply,SBD,Open
3,Viktoriya Petukhova,55.8,160,-175,-175,160,75,82.5,85,85,150,165,-170,165,410,56,F,Виктория Петухова,1977,Single-ply,SBD,Open
4,Galina Lyubeznaya,55.4,160,-170,-170,160,85,-90,-90,85,150,-155,-155,150,395,56,F,Галина Любезная,1980,Single-ply,SBD,Open
5,Evgeniya Tomilovskaya,56,145,152.5,-160,152.5,70,75,-77.5,75,142.5,150,153,153,380.5,56,F,Евгения Томиловская,1982,Single-ply,SBD,Open
6,Natalya Igosheva,56,135,145,152.5,152.5,80,85,-87.5,85,130,-140,-140,130,367.5,56,F,Наталья Игошева,1981,Single-ply,SBD,Open
7,Anastasiya Panferova,54.9,135,140,-145,140,60,-65,-65,60,132.5,140,-145,140,340,56,F,Анастасия Панферова,1980,Single-ply,SBD,Open
8,Tatyana Elistratova,55.9,135,-142.5,-142.5,135,75,-80,80,80,125,-135,,125,340,56,F,Татьяна Елистратова,1983,Single-ply,SBD,Open
9,Mayya Paligina,55.4,125,-135,135,135,65,67.5,-70,67.5,135,-140,,135,337.5,56,F,Майя Палигина,1979,Single-ply,SBD,Open
10,Tatyana Bezrukova,55.7,125,130,-140,130,55,-60,-62.5,55,125,135,-140,135,320,56,F,Татьяна Безрукова,1983,Single-ply,SBD,Open
11,Vera Anisimova,55.1,110,120,125,125,55,60,65,65,110,120,-125,120,310,56,F,Вера Анисимова,1982,Single-ply,SBD,Open
12,Rufina Ramazanova,55.4,120,130,-140,130,-45,-50,50,50,-105,105,115,115,295,56,F,Руфина Рамазанова,1984,Single-ply,SBD,Open
13,Irina Shalatonova,54.65,107.5,115,-120,115,42.5,45,-47.5,45,110,-120,-125,110,270,56,F,Ирина Шалатонова,1980,Single-ply,SBD,Open
14,Elena Suslova,54.45,80,-90,90,90,45,47.5,50,50,110,115,117.5,117.5,257.5,56,F,Елена Суслова,1980,Single-ply,SBD,Open
DQ,Aleksandra Ivanova,56,,,,,,,,,,,,,,56,F,Александра Иванова,1980,Single-ply,SBD,Open
DQ,Viktoriya Primenko,55.1,-120,-120,-120,,,,,,,,,,,56,F,Виктория Применко,1981,Single-ply,SBD,Open
DQ,Elena Nikulina,55.05,155,165,-170,165,72.5,77.5,-82.5,77.5,-152.5,-152.5,-152.5,,,56,F,Елена Никулина,1977,Single-ply,SBD,Open
1,Victoria Borodkina,59.4,165,175,182.5,182.5,75,-82.5,82.5,82.5,145,155,-162.5,155,420,60,F,Виктория Бородкина,1979,Single-ply,SBD,Open
2,Galina Melekhova,59.2,140,145,-150,145,80,82.5,85,85,140,145,-147.5,145,375,60,F,Галина Мелехова,1978,Single-ply,SBD,Open
3,Olga Pantina,58.6,140,147.5,150,150,70,75,-80,75,135,145,-147.5,145,370,60,F,Ольга Пантина,1979,Single-ply,SBD,Open
4,Svetlana Tsvetkova,59.3,135,-145,-145,135,55,60,-62.5,60,140,145,150,150,345,60,F,Светлана Цветкова,1980,Single-ply,SBD,Open
5,Irina Lebesheva,58.1,135,-140,-140,135,-65,65,70,70,125,135,-140,135,340,60,F,Ирина Лебешева,1983,Single-ply,SBD,Open
6,Margarita Sokolova,58.8,125,-132.5,132.5,132.5,65,-70,-70,65,140,-147.5,-147.5,140,337.5,60,F,Маргарита Соколова,1977,Single-ply,SBD,Open
7,Elena Startseva,59,115,120,125,125,70,-75,-75,70,130,-140,-140,130,325,60,F,Елена Старцева,1981,Single-ply,SBD,Open
8,Marina Kravchenko,59.7,120,127.5,135,135,57.5,62.5,-65,62.5,120,127.5,-132.5,127.5,325,60,F,Марина Кравченко,1981,Single-ply,SBD,Open
9,Marina Nikolaeva,59.2,115,122.5,125,125,62.5,67.5,70,70,115,125,-130,125,320,60,F,Марина Николаева,1983,Single-ply,SBD,Open
10,Anastasiya Bulkina,59.1,100,105,-107.5,105,-65,65,-70,65,125,135,-140,135,305,60,F,Анастасия Булкина,1978,Single-ply,SBD,Open
11,Svetlana Makashova,59.5,110,-115,-120,110,-65,65,-67.5,65,120,122.5,127.5,127.5,302.5,60,F,Светлана Макашова,1981,Single-ply,SBD,Open
12,Lyudmila Tsarkova,59.25,90,100,105,105,45,47.5,-50,47.5,110,117.5,120,120,272.5,60,F,Людмила Царькова,1981,Single-ply,SBD,Open
DQ,Yana Makhnis,58.6,135,140,142.5,142.5,-80,-80,-80,,,,,,,60,F,Яна Махнис,1982,Single-ply,SBD,Open
DQ,Oksana Prokofeva,59.9,-160,-160,-160,,,,,,,,,,,60,F,Оксана Прокофьева,1979,Single-ply,SBD,Open
DQ,Natalya Panteleeva,58.7,110,117.5,-125,117.5,-57.5,-62.5,-62.5,,,,,,,60,F,Наталья Пантелеева,1980,Single-ply,SBD,Open
1,Yulia Zaugolova,65.7,180,187.5,-192.5,187.5,85,90,95,95,170,180,-187.5,180,462.5,67.5,F,Юлия Зауголова,1981,Single-ply,SBD,Open
2,Yulia Chepushtanova,65.7,145,152.5,160,160,85,90,95,95,140,147.5,152.5,152.5,407.5,67.5,F,Юлия Чепуштанова,1980,Single-ply,SBD,Open
3,Albina Kireeva,67,135,142.5,-150,142.5,65,67.5,-70,67.5,120,130,-132.5,130,340,67.5,F,Альбина Киреева,1977,Single-ply,SBD,Open
4,Larisa Gavrilova,66.1,130,-137.5,140,140,52.5,57.5,60,60,130,-142.5,-142.5,130,330,67.5,F,Лариса Гаврилова,1980,Single-ply,SBD,Open
5,Mariya Babyakina,65.9,-120,120,-130,120,-65,-65,65,65,125,-140,-140,125,310,67.5,F,Мария Бабякина,1982,Single-ply,SBD,Open
6,Yuliya Epikhina,64.9,120,-130,-130,120,45,-50,50,50,130,-140,-140,130,300,67.5,F,Юлия Епихина,1978,Single-ply,SBD,Open
7,Anna Gavrilova,66.4,-90,95,100,100,45,50,-55,50,90,95,100,100,250,67.5,F,Анна Гаврилова,1979,Single-ply,SBD,Open
8,Tatyana Pugacheva,62.2,60,-70,-70,60,35,40,,40,80,90,-95,90,190,67.5,F,Татьяна Пугачева,1982,Single-ply,SBD,Open
DQ,Yuliya Matveeva,67,-130,-137.5,140,140,67.5,-70,-70,67.5,-132.5,-132.5,-132.5,,,67.5,F,Юлия Матвеева,1981,Single-ply,SBD,Open
1,Antonina Krivenko,74.85,140,155,162.5,162.5,-75,75,-85,75,-160,160,-170,160,397.5,75,F,Антонина Кривенко,1981,Single-ply,SBD,Open
2,Marina Ananieva,69,125,135,-145,135,75,-80,-80,75,175,-187.5,-187.5,175,385,75,F,Марина Ананьева,1981,Single-ply,SBD,Open
3,Alexandra Murashova,67.6,150,160,170,170,65,70,-75,70,130,140,-147.5,140,380,75,F,Александра Мурашова,1982,Single-ply,SBD,Open
4,Yuliya Zinchik,67.55,115,-125,125,125,55,-60,60,60,117.5,-122.5,-122.5,117.5,302.5,75,F,Юлия Зинчик,1981,Single-ply,SBD,Open
5,Veronika Nikulina,68.7,95,-105,105,105,-45,45,50,50,105,-110,115,115,270,75,F,Вероника Никулина,1980,Single-ply,SBD,Open
6,Ulyana Osinkina,68.7,70,80,-85,80,47.5,-50,,47.5,100,110,115,115,242.5,75,F,Ульяна Осинкина,1989,Single-ply,SBD,Open
7,Olga Zueva,68.9,80,-85,-85,80,37.5,40,-45,40,65,70,75,75,195,75,F,Ольга Зуева,1977,Single-ply,SBD,Open
1,Elena Yurik,77.7,190,200,210,210,110,120,130,130,190,200,210,210,550,82.5,F,Елена Юрик,1977,Single-ply,SBD,Open
2,Evgeniya Monogarova,75.8,150,-160,-160,150,70,75,-77.5,75,130,140,-150,140,365,82.5,F,Евгения Моногарова,1981,Single-ply,SBD,Open
3,Natalya Povydalo,75.6,125,-135,135,135,-60,-60,60,60,120,-130,,120,315,82.5,F,Наталья Повыдало,1982,Single-ply,SBD,Open
1,Yulia Kurina,88.7,210,220,232.5,232.5,85,95,100,100,170,185,195,195,527.5,90,F,Юлия Курина,1981,Single-ply,SBD,Open
2,Svetlana Tolmacheva,83.1,-120,-120,120,120,67.5,72.5,-75,72.5,125,135,-145,135,327.5,90,F,Светлана Толмачева,1977,Single-ply,SBD,Open
3,Yuliya Chernykh,82.8,120,127.5,-132.5,127.5,67.5,-72.5,-72.5,67.5,122.5,130,-140,130,325,90,F,Юлия Черных,1978,Single-ply,SBD,Open
4,Alexandra Rogova,84.6,100,105,110,110,-55,55,62.5,62.5,100,110,115,115,287.5,90,F,Александра Рогова,1984,Single-ply,SBD,Open
1,Elena Avilkina,103,-150,150,,150,90,100,110,110,175,190,,190,450,90+,F,Елена Авилкина,1977,Single-ply,SBD,Open
2,Natalya Isakova,90.7,60,70,75,75,35,40,-45,40,90,100,,100,215,90+,F,Наталья Исакова,1980,Single-ply,SBD,Open
