﻿                                            Bundesverband Deutscher Kraftdreikämpfer e.V.
                                                Deutschland-CUP RAW - Kraftdreikampf
                          Frauen


                                                                                               Kniebeuge             Bankdrücken                      Kreuzheben
NR       Name, Vorname      KG    Coef. Geb.                          Verein             1.        2.    3.        1.     2.     3.     SUB.     1.       2.     3.      TOT.    Wilk's
    Jugend A
    Klasse - 63 kg
  1 Scholz, Anne Jasmin   58,90    1,1310   25.05.1996 Powerlifting Lauchhammer e.V.    70,0     80,0    -85,0    45,0   50,0   -52,5   130,0   85,0     95,0    105,0   235,0   265,8    LR BB

    Juniorinnen
    Klasse - 72 kg
  1 Korbik, Lisa          68,35    1,0110   12.08.1993 SV Motor Eberswalde              90,0     95,0    -105,0   52,5   57,5   -65,0   152,5   95,0     105,0   120,0   272,5   275,5

    Aktive
    Klasse - 52 kg
  1 Ehrlicher, Esther     50,85    1,2673   25.02.1976 PSV Sonneberg e.V.               85,0     -90,0   90,0     47,5   50,0   -52,5   140,0   115,0    125,0   135,0   275,0   348,5

    Klasse - 63 kg
  1 Stütz, Silvia         62,60    1,0792   13.01.1978 Fitness Club Rhein-Main e.V.    -90,0     90,0    100,0    80,0   82,5   85,0    185,0   135,0    150,0   152,5   337,5   364,2    DR
  2 Röhricht, Andrea      61,50    1,0939   12.11.1978 PSV Schwedt                      80,0     90,0    100,0    65,0   72,5   -75,0   172,5   110,0    120,0     x     292,5   320,0

    Klasse - 72 kg
  1 Thomsen, Tamara       67,30    1,0228   24.09.1982 FSV Sarstedt                    137,5     145,0   150,0    70,0   77,5   -82,5   227,5   142,5    152,5   162,5   390,0   398,9    DR

    Klasse +84 kg
  1 Scheuer, Tina         90,75    0,8609   07.10.1979 KSV 1959 Langen e.V.            125,0     135,0   145,0    85,0   92,5   100,0   245,0   140,0    150,0   160,0   405,0   348,7

    AK I
    Klasse - 47 kg
  1 Resch, Catrin         46,05    1,3636   08.01.1965 Herrnburger AV 77 e.V.           75,0     85,0    90,0     57,5   62,5   -65,0   152,5   95,0     105,0   112,5   265,0   361,4

    AK II
    Klasse - 57 kg
  1 Normann, Beate        55,30    1,1883   17.03.1960 PSV Sonneberg e.V.               35,0     45,0    50,0     35,0   40,0   -42,5   90,0    70,0     80,0    92,5    182,5   216,9



Hauptkampfrichter                                                                      Seitenkampfrichter                                               Seitenkampfrichter
NAME: Matthias Simpig                                                                  NAME: Anita Thimm                                                NAME: Gunnar Volker
KR-Ausweisnummer:                                                                      KR-Ausweisnummer:                                                KR-Ausweisnummer:
                                              Bundesverband Deutscher Kraftdreikämpfer e.V.
                                                  Deutschland-CUP RAW - KDK/Bankdrücken
                            Masters KDK -59 - 93 kg
Männer

                                                                                                                Kniebeuge                 Bankdrücken                       Kreuzheben
NR       Name, Vorname        KG    Coef.    Geb.                             Verein                      1.        2.    3.        1.        2.      3.      SUB.     1.       2.     3.       TOT.    Wilk's
    AK I
    Klasse - 66 kg
  1 Schoennerstedt, Frank    65,6   0,7891     19.09.1966 Athletik-Fitnessverein Gräfenhainichen e.V.   145,0     155,0   -162,5   75,0      80,0    85,0     240,0   160,0    170,0   175,0    415,0   327,5

    Klasse - 83 kg
  1 Schünemann, Jens         80,7   0,6790     08.10.1966 SV Stahl Blankenburg                          165,0     175,0    185,0   130,0     140,0   -150,0   325,0   175,0    190,0   -200,0   515,0   349,7
  2 Berndt, Roy              76,1   0,7055     25.01.1966 SV Rotation Langenbach                        130,0     140,0   -145,0   142,5     152,5   -157,5   292,5   152,5    162,5   172,5    465,0   328,1

    Klasse - 93 kg
  1 Stöver, Jochen           92,0   0,6315     26.05.1965 SV 14/19 Westerholt e.V.                      180,0     192,5   202,5    130,0     137,5   140,0    342,5   230,0    250,0   -258,0   592,5   374,2

    AK II
    Klasse - 93 kg
  1 Meister, Horst           89,2   0,6413     11.10.1955 Powerlifting Duisburg                         175,0    185,0    190,0    160,0     165,0   170,0    360,0   215,0    225,0   230,0    590,0   378,4    DR
  2 Sulik, Henryk            93,0   0,6282     08.05.1959 PowerSport Braunschweig e.V.                  200,0    -210,0   210,0    130,0     140,0   145,0    355,0   210,0    225,0   -235,0   580,0   364,4



    AK III
    Klasse - 83 kg
  1 Runniger, Günter         82,1   0,6719     08.07.1952 Powerlifting Duisburg                         150,0     160,0   165,0    112,5     117,5   120,0    285,0   180,0    190,0     -      475,0   319,2    DR

    Klasse - 93 kg
  1 Schuricht, Lutz          90,8   0,6356     01.09.1951 VFV Cremlingen                                180,0     192,5    205,0   130,0     140,0   -145,0   345,0   180,0    195,0   -210,0   540,0   343,2    DR
  2 Stöffler, Achim          88,1   0,6455     14.10.1949 KSV 1959 Langen e.V.                          140,0     145,0   -150,0    75,0     -82,5    82,5    227,5   150,0    160,0   -175,0   387,5   250,1



Hauptkampfrichter                                                                                       Seitenkampfrichter                                                    Seitenkampfrichter
NAME: Michel Ehrlicher                                                                                  NAME: David Stuckatz                                                  NAME: Christa Lehmann
KR-Ausweisnummer:                                                                                       KR-Ausweisnummer:                                                     KR-Ausweisnummer:
                                          Bundesverband Deutscher Kraftdreikämpfer e.V.
                                              Deutschland-CUP RAW - KDK/Bankdrücken
                       Masters KDK -105 - +120kg


                                                                                             Kniebeuge             Bankdrücken                         Kreuzheben
NR     Name, Vorname     KG     Coef.    Geb.                            Verein        1.        2.    3.        1.     2.     3.        SUB.     1.       2.     3.      TOT.    Wilk's
   AK I
   Klasse - 105 kg
 1 Kunath, Frank         96,1   0,6188    11.10.1965 SaV Erfurt e.V.                 210,0     222,5   -230,0   130,0   137,5   -140,0   360,0   190,0    215,0   225,0   585,0   362,0

   AK II
   Klasse - 105 kg
 1 Hänsicke, Peer       101,4   0,6053    02.10.1961 SV Motor Eberswalde             235,0     250,0   -260,0   172,5   180,0   185,0    435,0   205,0    225,0   240,0   675,0   408,6    DR
 2 Verhoff, Martin      103,2   0,6013    17.10.1963 KSV Bochum 1898 e.V.            160,0     170,0    180,0   127,5   132,5   -135,0   312,5   200,0    220,0   230,0   542,5   326,2

   Klasse - 120 kg
 1 Paul, Harald         118,9   0,5762    15.10.1954 FSV Blau-Weiß Bergen e.V.       160,0     170,0   180,0    147,5   152,5   157,5    337,5   185,0    195,0   205,0   542,5   312,6

   Klasse + 120 kg
 1 Dörfert, Uwe         120,1   0,5748    07.09.1959 Powerlifting Duisburg           160,0     175,0   182,5    145,0   150,0   155,0    337,5   152,5    162,5   172,5   510,0   293,1
 2 Stoppa, Lutz         123,6   0,5712    04.03.1961 Powerlifting Lauchhammer e.V.   160,0     170,0   180,0    120,0   130,0   140,0    320,0   160,0    170,0   180,0   500,0   285,6

   AK III
   Klasse - 120 kg
 1 Katzula, Reiner      113,4   0,5833    07.02.1953 TAV Germania 04 Düsseldorf      210,0     215,0   -220,0   150,0   155,0   160,0    375,0   220,0    225,0   230,0   605,0   352,9    DR



Hauptkampfrichter                                                                    Seitenkampfrichter                                                  Seitenkampfrichter
NAME: Peter Lehnart                                                                  NAME: Lothar Koehl                                                  NAME: Gunnar Volker
KR-Ausweisnummer:                                                                    KR-Ausweisnummer:                                                   KR-Ausweisnummer:
                                           Bundesverband Deutscher Kraftdreikämpfer e.V.
                                               Deutschland-CUP RAW - KDK/Bankdrücken
                         Jugend KDK B und A


                                                                                              Kniebeuge             Bankdrücken                           Kreuzheben
NR     Name, Vorname       KG     Coef.     Geb.                      Verein            1.        2.    3.        1.     2.     3.         SUB.      1.       2.     3.       TOT.    Wilk's
   Jugend B
   Klasse - 53 kg
 1 Helbig, Leon           48,95   1,0460   12.03.1998 Powerlifting Lauchhammer e.V.    57,5     62,5    70,0     40,0    42,5     -45,0    112,5   92,5      97,5    102,5    215,0   224,9    LR BB

   Klasse - 59 kg
 1 Winkelmann, Marcel     57,40   0,8889   08.02.1997 Powerlifting Lauchhammer e.V.    70,0     77,5    -82,5    50,0    55,0     60,0     137,5   105,0     115,5   -117,5   253,0   224,9    LR BB

   Klasse - 74 kg
 1 Anipkin, Alexander     70,20   0,7478   09.04.1997 SV Quitt Ankum w.V.1919         95,0     107,5    115,0   82,5    90,0     95,0     210,0   155,0    167,5    -183,0   377,5   282,3
 2 Helbig, Eric           66,50   0,7804   14.04.1997 Powerlifting Lauchhammer e.V.   100,0     110,0    115,0   75,0    80,0     85,0     200,0   122,5    132,5    140,0    340,0   265,3
 3 Beckel, Rudolf         66,70   0,7785   05.06.1997 Powerlifting Lauchhammer e.V.    85,0      95,0   -100,0   65,0    70,0     72,5     167,5   -130,0   -130,0   130,0    297,5   231,6

   Klasse - 83 kg
 1 Wilhelm, Jan           79,45   0,6854   29.03.1997 SV Stahl Blankenburg            140,0     150,0   160,0    -80,0   80,0      92,5    252,5   140,0     160,0   -165,0   412,5   282,7
 2 Mendyka, André         79,90   0,6832   01.01.1998 KSV Weißensee                    80,0      90,0    95,0    60,0    70,0     -72,5    165,0    80,0      90,0   100,0    265,0   181,0

   Klasse - 93 kg
 1 Scholz, Martin         88,70   0,6432   25.09.1997 Powerlifting Lauchhammer e.V.   145,0     157,5   170,5    97,5    105,0    110,0    280,5   170,0     175,0   180,5    461,0   296,5    DR

   Jugend A
 1 Klasse - 74 kg
 2 Preine, Sebastian      69,10   0,7569   14.01.1995 Todtglüsinger SV                160,0    172,5    -185,0   100,0   -107,5    107,5   280,0   220,0    -237,5   -237,5   500,0   378,5    DR
 3 Kula, Emre             74,00   0,7193   30.09.1995 KTV Sparta Berlin               140,0    -155,0   -155,0   125,0    132,5   -137,5   272,5   180,0    195,0    -202,5   467,5   336,3    DR

   Klasse - 93 kg
 1 Mehl, Enrico           84,10   0,6624   06.02.1995 Powerlifting Lauchhammer e.V.   120,0     130,0   135,0    85,0    90,0     95,0     230,0   150,0     160,0   165,0    395,0   261,6

   Klasse + 120 kg
 1 Jurick, Tim-Michael   127,20   0,5679   09.08.1996 AC Lauchhammer e.V.             170,0     180,0   185,0    110,0   117,5    -120,0   302,5   -215,0    220,0   -225,0   522,5   296,7

Hauptkampfrichter                                                                     Seitenkampfrichter                                                    Seitenkampfrichter
NAME: Michel Ehrlicher                                                                NAME: Hans-Peter Falk                                                 NAME: Günter Runniger
KR-Ausweisnummer:                                                                     KR-Ausweisnummer:                                                     KR-Ausweisnummer:
                                             Bundesverband Deutscher Kraftdreikämpfer e.V.
                                                 Deutschland-CUP RAW - KDK/Bankdrücken
                           Junioren KDK


                                                                                                 Kniebeuge             Bankdrücken                          Kreuzheben
NR       Name, Vorname      KG     Coef.      Geb.                     Verein             1.         2.    3.        1.     2.     3.         SUB.     1.       2.     3.      TOT.    Wilk's
   Klasse - 59 kg
 1 Wiegand, Max            56,40   0,9041   11.12.1994 Powerlifting Lauchhammer e.V.     92,5      100,0   110,0    67,5    72,5     -77,5    182,5   120,0   130,0   140,0    322,5   291,6    LR BB

   Klasse - 66 kg
 1 Khounani, Alexander     60,70   0,8439 30.09.1992 KSV Renchtal e.V.                   150,0     157,5    162,5    90,0    100,0    107,5   270,0   175,0 185,0     192,5    462,5   390,3
 2 Blank, Steven           65,15   0,7932 00.00.1990 AC Heros Berlin                     120,0     130,0   -140,0   115,0   -122,5   -122,5   245,0   200,0 -205,0      x      445,0   353,0

     Klasse - 74 kg
 1   Füssel, Martin        73,05   0,7256   08.11.1990   SV 1919 Grimma                  160,0     170,0    180,0   112,5   117,5    -120,0   297,5   200,0 210,0 215,0        512,5   371,9
 2   Milla, Marius         73,00   0,7264   16.06.1993   KSV 1959 Langen e.V.            140,0     160,0    165,0   107,5   112,5    -115,0   277,5   200,0 220,0 -235,0       497,5   361,4
 3   Ommer, Tobias         73,50   0,7228   05.03.1992   KSO Silberrücken e.V.           150,0     165,0   -180,0   100,0   105,0    -110,0   270,0   210,0 -220,0 -245,0      480,0   346,9
 4   Menzel, Bryan         68,70   0,7603   14.02.1994   AC Lauchhammer e.V.             120,0     130,0    135,0    80,0    85,0     90,0    225,0   150,0 160,0 170,0        395,0   300,3

   Klasse - 83 kg
 1 Lehnart, Cornelius      74,10   0,7186   29.08.1994 Todtglüsinger SV                  160,0     180,0   -200,0   105,0   110,0    -115,0   290,0   220,0   235,0     x      525,0   377,3

   Klasse - 93 kg
 1 Dimmel, Artur           91,40   0,6335   27.01.1991 SV Quitt Ankum w.V.1919          215,0     227,5    240,0   162,5   170,5     175,5   415,5   265,0   280,5   -290,5   696,0   440,9    DR
 2 Stendebach, Sascha      86,50   0,6519   11.06.1991 KSV Mainz 08                      200,0     220,0   -227,5   155,0   165,0    -172,5   385,0   270,0   282,5   290,0    675,0   440,0    DR
 3 Mavrici, Giancarlo      89,10   0,6417   17.09.1992 KSV Bochum 1898 e.V.              180,0     190,0    195,0   127,5   135,0     140,0   335,0   225,0   240,0   -250,0   575,0   369,0

     Klasse - 105 kg
 1   Merten, Tobias        96,25   0,6183   12.11.1991   Athletenschmiede Heros Kassel   185,0     200,0   210,0    125,0   132,5    -137,5   342,5   227,5   245,0   255,0    597,5   369,4
 2   Beck, Sebastian       98,80   0,6116   20.09.1990   USV TU Dresden                  160,0     170,0   180,0    105,0   115,0     120,0   300,0   200,0   210,0   -220,0   510,0   311,9
 3   Maciuszczyk, Tony     95,90   0,6194   27.04.1990   Powerlifting Lauchhammer e.V.   100,0     110,0   120,0     75,0   -85,0     -85,0   195,0   140,0   160,0   167,5    362,5   224,5
 4   Lange, Daniel         94,00   0,6250   22.04.1992   KSV Weißensee                   110,0     120,0   125,0     80,0    85,0     -87,5   210,0   140,0   150,0   -157,5   360,0   225,0



Hauptkampfrichter                                                                        Seitenkampfrichter                                                   Seitenkampfrichter
NAME: Sylivia Wunderlich                                                                 NAME: Roland Asmus                                                   NAME: Gunnar Volker
KR-Ausweisnummer:                                                                        KR-Ausweisnummer:                                                    KR-Ausweisnummer:
                                          Bundesverband Deutscher Kraftdreikämpfer e.V.
                                              Deutschland-CUP RAW - KDK/Bankdrücken
                         Aktive KDK und Bankdrücken -66 - 83 kg


                                                                                               Kniebeuge              Bankdrücken                          Kreuzheben
NR       Name, Vorname     KG    Coef.    Geb.                       Verein              1.        2.    3.         1.     2.     3.         SUB.     1.       2.     3.      TOT.    Wilk's
     Klasse - 74 kg
 1   Jakob, Viktor        73,3   0,7242   06.11.1978   USV TU Dresden                  180,0     200,0   -210,0   120,0    130,0     135,0   335,0   200,0   210,0    220,0   555,0   401,9
 2   Bauer, Udo           73,0   0,7264   01.10.1965   Schwimmverein Würzburg 05       160,0     167,5    172,5    92,5     97,5     100,0   272,5   230,0   242,5    250,0   522,5   379,5
 3   Ehrlicher, Michel    73,5   0,7228   08.01.1985   PSV Sonneberg e.V.              180,0     190,0      x     105,0    107,5    -110,0   297,5   75,0    125,0    155,0   452,5   327,1
 4   Albrecht, Viktor     72,5   0,7300   06.01.1975   Athletenschmiede Heros Kassel   115,0     122,5    130,0    90,0     95,0    -100,0   225,0   135,0   142,5   -147,5   367,5   268,3

   Klasse - 83 kg
 1 Schmidt, Peter         80,0   0,6827   25.09.1974 HSV Weimar                        212,5     222,5   230,0    135,0    142,5    147,5    377,5   220,0   232,5   240,0    617,5   421,6
 2 Rackiewicz, Michael    82,3   0,6709   24.01.1986 KSV Bochum 1898 e.V.              140,0     150,0   157,5     80,0     90,0    100,0    257,5   165,0   180,0   190,0    447,5   300,2





Hauptkampfrichter                                                                      Seitenkampfrichter                                                    Seitenkampfrichter
NAME: Anita Thimm                                                                      NAME: Matthias Simpig                                                 NAME: Steffen Kloss
KR-Ausweisnummer:                                                                      KR-Ausweisnummer:                                                     KR-Ausweisnummer:
                                             Bundesverband Deutscher Kraftdreikämpfer e.V.
                                                 Deutschland-CUP RAW - KDK/Bankdrücken
                           Aktive KDK -93-+120 kg


                                                                                                   Kniebeuge             Bankdrücken                           Kreuzheben
NR       Name, Vorname       KG     Coef.    Geb.                     Verein                 1.        2.    3.        1.     2.     3.         SUB.      1.       2.     3.       TOT.    Wilk's
     Klasse - 93 kg

 1   Virzi, Francesco        92,7   0,6292   25.07.1983   VT Union Gr. Ilsede              237,5     252,5    260,0   170,0    180,0    185,0   445,0   230,0     260,0   -277,5   705,0   443,6    DR
 2   Amir Reza shokrzade     91,9   0,6318   16.09.1979   V.f.V Cremlingen von 1898 e.V.   217,5     232,5    240,0   157,5    167,5    175,0   415,0   215,0     227,5    235,0   650,0   410,7
 3   Vierig, Steven          92,6   0,6295   02.10.1985   KSV Bad Lausick                  215,0     220,0    225,0   130,0   -135,0      x     355,0   240,0     250,0   -260,0   605,0   380,8
 4   Stuckatz, David         84,9   0,6588   03.02.1975   SV Großräschen e.V.              180,0     190,0    205,0   130,0    135,0   -140,0   340,0   200,0    -215,0      x     540,0   355,8
 5   Schwarz, Robert         85,0   0,6583   16.01.1987   Grüm Weiss Lindow e.V.           140,0    -150,0   -155,0   127,5    132,5   -140,0   272,5   200,0     210,0    225,0   497,5   327,5
 7   Thomsen, Sven           83,6   0,6647   07.11.1976   FSV Sarstedt                     130,0     140,0    150,0   97,5     105,0   -110,0   255,0   170,0     180,0    190,0   445,0   295,8

   Klasse - 105 kg
 1 Loosen, Gregor           104,6   0,5984   06.06.1986 KSV Mannheim                       230,0     240,0   -242,5   152,5   162,5    -167,5   402,5    275,0    300,0   -305,0   702,5   420,4    DR
 2 Lehnhardt, Peter         103,5   0,6006   19.02.1981 AC Heros Berlin                    200,0     207,5      x     170,0   175,0    -180,0   382,5   -245,0    262,5    275,0   657,5   394,9

   Klasse - 120 kg
 1 Zamzow, Oliver           111,0   0,5869   21.02.1978 SV Großräschen e.V.                250,0    -260,0   -260,0   155,0   160,0    -165,0   410,0   285,0     300,0    305,0   715,0   419,6    DR
 2 Seefeld, Christoph       111,7   0,5858   29.11.1980 ESV München-Neuaubing              220,0    -235,0    235,0   152,5   160,0    -165,0   395,0   235,0     245,0   -250,0   640,0   374,9
 3 Marczkowski, Marcel      117,0   0,5785   21.08.1985 Powerlifting Duisburg              190,0     210,0   -230,0   165,0   172,5     177,5   387,5   200,0     230,0   -245,0   617,5   357,2

   Klasse + 120 kg
 1 Pielorz, Stefan          135,7   0,5615   11.07.1974 SV Einheit Wittenberg e.V.         280,0     295,0   -305,0   190,0   200,0    -207,5   495,0   287,5     297,5   305,5    800,5   449,5    DR




Hauptkampfrichter                                                                          Seitenkampfrichter                                                    Seitenkampfrichter
NAME: Thimm, Anita                                                                         NAME:                                                                 NAME:
KR-Ausweisnummer:                                                                          KR-Ausweisnummer:                                                     KR-Ausweisnummer:



                                           Bundesverband Deutscher Kraftdreikämpfer e.V.
                                               Deutschland-CUP RAW - Bankdrücken
                        Frauen


                                                                                         Kniebeuge         Bankdrücken                  Kreuzheben
NR      Name, Vorname    KG     Coef.     Geb.                    Verein            1.       2.    3.    1.     2.     3.      SUB.   1.    2.    3.   TOT.    Wilk's
   AK I
   Klasse - 72 kg
 1 Friese, Kerstin      66,00    1,0374    20.06.1966 SV Motor Eberswalde                               52,5   55,0    -60,0   55,0                    55,0    57,1

   Klasse - 84 kg
 1 Wunderlich, Sylvia   82,85    0,8977    10.09.1965 Sassouci GYM e.V. Potsdam                         72,5   77,5    -82,5   77,5                    77,5    69,6
 2 Gutjahr, Daniela     75,70    0,9452    10.01.1969 KSV Weißensee                                     55,0   -60,0   -60,0   55,0                    55,0    52,0



   AK III
   Klasse - 63 kg
 1 Cedel, Ingrid        57,50    1,1525    16.07.1947 SV Grieben 47 e.V.                                40,0   45,0    -47,5   45,0                    45,0    51,9




Hauptkampfrichter                                                                 Seitenkampfrichter                                     Seitenkampfrichter
NAME: Matthias Simpig                                                             NAME: Anita Thimm                                      NAME: Peter Lehnard
KR-Ausweisnummer:                                                                 KR-Ausweisnummer:                                      KR-Ausweisnummer:
                                           Bundesverband Deutscher Kraftdreikämpfer e.V.
                                               Deutschland-CUP RAW - KDK/Bankdrücken
                          Masters Bank -59 - 93 kg
						  Männer


                                                                                        Kniebeuge           Bankdrücken                      Kreuzheben
NR      Name, Vorname       KG    Coef.     Geb.      Verein                       1.       2.    3.      1.     2.     3.         SUB.    1.    2.    3.   TOT.    Wilk's
   AK I
   Klasse - 93 kg
 1 Ljaschenko, Wladimir    88,4   0,6444   13.02.1970 KSV-Lippe                                         130,0     140,0   145,0    145,0                    145,0   93,4
 2 Mazur, Arkady           87,2   0,6491   01.04.1966 SV Quitt Ankum w.V.1919s                          -135,0   -140,0   140,0    140,0                    140,0   90,9

   AK II
   Klasse - 59 kg
 1 Virzi, Carmelo          57,0   0,8949   20.03.1957 MTV Vater Jahn Peine                              85,0     90,0     -92,5    90,0                     90,0    80,5



   Klasse - 93 kg
 1 Escher, Egon            87,7   0,6471   21.05.1954 PSV Sonneberg e.V.                                105,0    112,5     115,0   115,0                    115,0   74,4
 2 Rothe, Harry            84,3   0,6615   03.09.1956 USV TU Dresden                                     92,5    100,0    -102,5   100,0                    100,0   66,2

   AK III
   Klasse - 74 kg
 1 Koehl, Lothar           73,1   0,7256   22.02.1947 USV TU Dresden                                    112,5    117,5    120,0    120,0                    120,0   87,1     DR
 2 Bartmann, Peter         71,9   0,7345   06.04.1951 TSV Eisenberg e.V.                                 87,5     92,5    95,0      95,0                     95,0   69,8

   Klasse - 93 kg
 1 Filarski, Christian     85,9   0,6545   23.12.1951 Grüm Weiss Lindow e.V.                            130,0     135,0   -140,0   135,0                    135,0   88,4
 2 Roye, Rolf              91,8   0,6321   30.09.1948 SG Chemie Wolfen                                  122,5    -127,5    127,5   127,5                    127,5   80,6
 3 Ernst, Achim            89,3   0,6410   25.07.1952 Grüm Weiss Lindow e.V.                             95,0     100,0   -107,5   100,0                    100,0   64,1

   AK IV
   Klasse - 74 kg
 1 Cedel, Gerd             67,5   0,7710   15.02.1942 SV Grieben 47 e.V.                                80,0     82,5     -85,0    82,5                     82,5    63,6



Hauptkampfrichter                                                                Seitenkampfrichter                                           Seitenkampfrichter
NAME: Michel Ehrlicher                                                           NAME: David Stuckatz                                         NAME: Christa Lehmann
KR-Ausweisnummer:                                                                KR-Ausweisnummer:                                            KR-Ausweisnummer:
                                             Bundesverband Deutscher Kraftdreikämpfer e.V.
                                                 Deutschland-CUP RAW - KDK/Bankdrücken
                         Masters Bank -105 - +120kg


                                                                                                Kniebeuge         Bankdrücken                     Kreuzheben
NR       Name, Vorname     KG     Coef.     Geb.                                Verein     1.       2.    3.    1.     2.     3.         SUB.    1.   2.    3.   TOT.     Wilk's
   AK I
   Klasse bis 105 kg
 1 Diek, Alex             100,5    0,6074    08.05.1972 KSV-Lippe                                              150,0   160,0    165,0    165,0                   165,0    100,2
 2 Mehnert, Heiko          93,7    0,6260    26.12.1968 Powerlifting Lauchhammer e.V.                          115,0   125,0    -130,0   125,0                   125,0     78,3

   Klasse bis 120 kg
 1 Tetzlaff, Martin       117,5    0,5778    10.05.1971 KSO Silberrücken e.V.                                  180,0   190,0    192,5    192,5                   192,5    111,2
 2 Vogel, Andree          116,5    0,5791    15.01.1966 USV TU Dresden                                         170,0   180,0    -190,0   180,0                   180,0    104,2
 3
   Klasse + 120 kg
 1 Rekittke, Jürgen       163,2    0,5466    11.02.1969 Powerlifting Duisburg                                  175,0   -200,0   -200,0   175,0                   175,0    95,7
 2
   AK II
   Klasse - 105 kg
 1 Georg, Manfred         100,0    0,6086    17.04.1955 AC Marburg e.V.                                        155,0   165,0    170,0    170,0                   170,0    103,5    DR
 2
   Klasse - 120 kg
 1 Pollmann, Jörg         116,8    0,5787    20.01.1959 Powerlifting Duisburg                                  175,0   182,5    185,0    185,0                   185,0    107,1    DR
 2 Hermann, Andrej        112,8    0,5841    26.06.1963 KSV-Lippe                                              160,0   170,0    -182,5   170,0                   170,0     99,3

   Klasse + 120 kg
 1 Kleinhans, Wolfgang    120,7    0,5742    28.12.1963 Powerlifting Duisburg                                  150,0   157,5    -160,0   157,5                   157,5    90,4
 2 Holstein, Alexander    124,1    0,5707    11.11.1962 KSV-Lippe                                              150,0   -155,0   -155,0   150,0                   150,0    85,6

     AK III
     Klasse - 105 kg
 1 Schramm, Manfred        96,0    0,6191      21.03.49 TSV Schwalbe Tündern                                   130,0   135,0    140,0    140,0                   140,0    86,7
 2 Kazimierz Forys         93,1    0,6279      03.09.45 KSV Langen                                             110,0   -120,0   125,0    125,0                   125,0    78,5

   Klasse - 120 kg
 1 Falk, Hans- Peter      111,9    0,5855    10.12.1951 Herrnburger AV 77 e.V.                                 160,0   170,0    175,0    175,0                   175,0    102,5    DR
 2 May, Karl- Heinz       105,8    0,5960    17.05.1953 PSV Sonneberg e.V.                                     115,0   125,0    -135,0   125,0                   125,0     74,5



Hauptkampfrichter                                                                        Seitenkampfrichter                                         Seitenkampfrichter
NAME: Peter Lehnart                                                                      NAME: Lothar Koehl                                         NAME: Gunnar Volker
KR-Ausweisnummer:                                                                        KR-Ausweisnummer:                                          KR-Ausweisnummer:
                                        Bundesverband Deutscher Kraftdreikämpfer e.V.
                                            Deutschland-CUP RAW - KDK/Bankdrücken
                       Jugend Bank B und A


                                                                                  Kniebeuge         Bankdrücken                    Kreuzheben
NR     Name, Vorname     KG    Coef.     Geb.                   Verein       1.       2.    3.    1.     2.     3.       SUB.    1.    2.    3.   TOT.    Wilk's
   Jugend A
   Klasse +120 kg
 1 Szopinski, Keno     153,9   0,5513   13.11.1996 Powerlifting Duisburg                         170,0   180,0   185,0   185,0                    185,0   102,0    DR




Hauptkampfrichter                                                          Seitenkampfrichter                                       Seitenkampfrichter
NAME:                                                                      NAME:                                                    NAME:
KR-Ausweisnummer:                                                          KR-Ausweisnummer:                                        KR-Ausweisnummer:
                                             Bundesverband Deutscher Kraftdreikämpfer e.V.
                                                 Deutschland-CUP RAW - KDK/Bankdrücken
                           Junioren KDK + Bankdrücken 59 - 83 kg


                                                                                              Kniebeuge         Bankdrücken                     Kreuzheben
NR     Name, Vorname         KG     Coef.     Geb.                     Verein            1.       2.    3.    1.     2.     3.        SUB.    1.     2.    3.   TOT.    Wilk's
   Klasse - 83 kg
 1 Gehrmann, Michael        79,00   0,6882   16.09.1990 Powerlifting Lauchhammer e.V.                        150,0   155,0   -162,5   155,0                     155,0   106,7    LR BB
 2 Bauer, Benjamin          80,80   0,6785   05.02.1992 TSV Eisenberg e.V.                                   100,0   105,0   -112,5   105,0                     105,0   71,2
 3 Engelhardt, Steffen      74,35   0,7166   26.08.1993 TSV Eisenberg e.V.                                   90,0     95,0   -100,0   95,0                      95,0    68,1

   Klasse - 105 kg
 1 Ritzrow, Lukas           96,70   0,6172   19.08.1992 KSO Silberrücken e.V.                                185,0   190,0   -192,5   190,0                     190,0   117,3    DR
 2 Hoffman, David           97,30   0,6155   09.12.1994 TSV Eisenberg e.V.                                   120,0   125,0    130,0   130,0                     130,0    80,0

   Klasse - 120 kg
 1 Thelemann, Mario        111,20   0,5866   13.08.1990 TSV Eisenberg e.V.                                   120,0   130,0   142,5    142,5                     142,5   83,6




Hauptkampfrichter                                                                       Seitenkampfrichter                                        Seitenkampfrichter
NAME: Sylivia Wunderlich                                                                NAME: Roland Asmus                                        NAME: Gunnar Volker
KR-Ausweisnummer:                                                                       KR-Ausweisnummer:                                         KR-Ausweisnummer:
                                          Bundesverband Deutscher Kraftdreikämpfer e.V.
                                              Deutschland-CUP RAW - KDK/Bankdrücken
                         Aktive KDK und Bankdrücken -66 - 83 kg


                                                                                               Kniebeuge              Bankdrücken                          Kreuzheben




   Bankdrücken
 1 Klasse - 74 kg
 2 Uttikal, René          67,1   0,7747   02.08.1988 SG Chemie Wolfen                                             -120,0   125,0    -130,0   125,0                            125,0   96,8

   Klasse - 83 kg
 1 Gaida, Thomas          80,9   0,6779   13.09.1988 SV 1919 Grimma                                               132,5    142,5     150,0   150,0                            150,0   101,7
 2 Winkelmann, Thomas     77,6   0,6963   22.08.1984 SV 1919 Grimma                                               132,5    137,5     142,5   142,5                            142,5    99,2
 3 Schramm, Andreas       77,5   0,6969   14.01.1987 TSV Schwalbe Tündern                                         130,0    -137,5   -137,5   130,0                            130,0    90,6




Hauptkampfrichter                                                                      Seitenkampfrichter                                                    Seitenkampfrichter
NAME: Anita Thimm                                                                      NAME: Matthias Simpig                                                 NAME: Steffen Kloss
KR-Ausweisnummer:                                                                      KR-Ausweisnummer:                                                     KR-Ausweisnummer:
                                             Bundesverband Deutscher Kraftdreikämpfer e.V.
                                                 Deutschland-CUP RAW - KDK/Bankdrücken
                          Aktive Bank -93-+120 kg


                                                                                               Kniebeuge         Bankdrücken                     Kreuzheben
NR       Name, Vorname       KG     Coef.     Geb.                   Verein               1.       2.    3.    1.     2.     3.         SUB.    1.   2.    3.   TOT.      Wilk's
     Klasse - 93 kg
 1   Hass, Andreas          82,85   0,6680   29.09.1987   SV Quitt Ankum w.V.1919s                            152,5    157,5    160,0   160,0                   160,0     106,9
 2   Berndt, Lennart        85,35   0,6566   30.03.1984   VT Union Gr. Ilsede                                 145,0    150,0    157,5   157,5                   157,5     103,4
 3   Dobrowolski, Elias     86,20   0,6532   07.06.1988   SV Quitt Ankum w.V.1919s                            125,0    132,5   -137,5   132,5                   132,5      86,5
 4   Giesa, Thomas          91,90   0,6318   18.03.1984   SV 1919 Grimma                                      125,0    132,5   -137,5   132,5                   132,5      83,7
 5   Henning, Buksch        83,45   0,6651   14.02.1980   SV Großräschen e.V.                                 115,0   -120,0    120,0   120,0                   120,0      79,8

   Klasse - 105 kg
 1 Schmutzler, Uwe          96,50   0,6177   03.11.1979 SG "Fortschritt" Eibau e.V.                           180,0   190,0    200,0    200,0                   200,0     123,5
 2 Nitschke, Frank          96,55   0,6174   13.08.1982 USV TU Dresden                                        145,0   150,0    155,0    155,0                   155,0      95,7

   Klasse - 120 kg
 1 Böttcher, Armin         107,40   0,5930   04.01.1987 Powerlifting Lauchhammer e.V.                         180,0   -187,5   -187,5   180,0                   180,0     106,7
 2 Ludwig, Patrick         110,65   0,5874   13.10.1977 SG "Fortschritt" Eibau e.V.                           170,0   -175,0   -175,0   170,0                   170,0      99,9
 3 Ronny Göbel             105,70   0,5962   07.11.1976 Powerlifting Lauchhammer e.V.                         155,0    162,5   -175,0   162,5                   162,5      96,9



   Klasse + 120 kg
 1 Ziegler, Nico           128,20   0,5670   25.01.1984 USV TU Dresden                                        160,0   180,0    -185,0   180,0                   180,0     102,1




Hauptkampfrichter                                                                       Seitenkampfrichter                                         Seitenkampfrichter
NAME: Thimm, Anita                                                                      NAME:                                                      NAME: Kloss, Steffen
KR-Ausweisnummer:                                                                       KR-Ausweisnummer:                                          KR-Ausweisnummer:
