Division,WeightClassKg,Place,Name,Team,BodyweightKg,Best3SquatKg,Best3BenchKg,Best3DeadliftKg,TotalKg,Equipment,Event,Sex
Boys,55.79,1,David Garcia,Pharr Valley View,51.94,145.15,88.45,172.37,405.97,Single-ply,SBD,M
Boys,51.71,2,Israel Macharro,Pharr Valley View,50.98,151.95,92.99,149.69,394.63,Single-ply,SBD,M
Boys,51.71,3,Angel Flores,Weslaco East,51.26,145.15,79.38,154.22,378.75,Single-ply,SBD,M
Boys,51.71,4,Victor Pedraza,PSJA Southwest,51.3,147.42,79.38,145.15,371.95,Single-ply,SBD,M
Boys,51.71,5,Rolando Gonzalez,PSJA Southwest,51.17,136.08,81.65,122.47,340.19,Single-ply,SBD,M
Boys,51.71,6,Kevin Sierra,PSJA Southwest,51.39,120.2,70.31,136.08,326.59,Single-ply,SBD,M
Boys,51.71,7,Brooks Guzman,Weslaco East,43.36,124.74,61.23,136.08,322.05,Single-ply,SBD,M
Boys,55.79,8,Rudy Garza,PSJA North,51.94,136.08,68.04,104.33,308.44,Single-ply,SBD,M
Boys,51.71,9,Carlos Jaimez,PSJA,51.71,106.59,58.97,129.27,294.84,Single-ply,SBD,M
Boys,51.71,10,Luis Ledesma,PSJA North,44.95,83.91,52.16,83.91,219.99,Single-ply,SBD,M
Boys,51.71,11,Jorge Tinajero,Brownsville Porter,50.35,68.04,45.36,102.06,215.46,Single-ply,SBD,M
Boys,55.79,1,Alejandro Flores,Weslaco East,53.34,165.56,83.91,163.29,412.77,Single-ply,SBD,M
Boys,55.79,2,Edgar Hernandez,Brownsville Rivera,52.25,129.27,74.84,142.88,347,Single-ply,SBD,M
Boys,55.79,3,Ben Guajardo,Mission Sharyland,54.43,122.47,79.38,140.61,342.46,Single-ply,SBD,M
Boys,55.79,4,Crisantos Casares,Brownsville Lopez,53.61,106.59,63.5,145.15,315.25,Single-ply,SBD,M
Boys,55.79,5,Eder Contreras,Hidalgo Early College,52.53,102.06,74.84,136.08,312.98,Single-ply,SBD,M
Boys,59.87,6,Roman Ibragimon,Brownsville Veterans Memorial,55.88,102.06,79.38,124.74,306.17,Single-ply,SBD,M
Boys,55.79,7,Omar Garcia,Brownsville Veterans Memorial,54.07,95.25,63.5,106.59,265.35,Single-ply,SBD,M
Boys,55.79,8,Danny Covarrubias,Brownsville Porter,53.25,45.36,43.09,108.86,197.31,Single-ply,SBD,M
Boys,55.79,DQ,Jose Ramirez,Hidalgo Early College,53.98,,,,,Single-ply,SBD,M
Boys,67.13,1,Jesus Garcia,Mission,60.06,195.04,99.79,188.24,483.08,Single-ply,SBD,M
Boys,59.87,2,Joshua Garcia,Weslaco,58.79,181.44,95.25,190.51,467.2,Single-ply,SBD,M
Boys,59.87,3,Victor Acosta,Pharr Valley View,59.42,176.9,99.79,167.83,444.52,Single-ply,SBD,M
Boys,59.87,4,Jorge Cantu,PSJA Southwest,59.51,167.83,106.59,158.76,433.18,Single-ply,SBD,M
Boys,59.87,5,Eric Gaona,PSJA Memorial,59.6,179.17,79.38,145.15,403.7,Single-ply,SBD,M
Boys,59.87,6,Anthony Gracia,Weslaco,58.6,142.88,81.65,176.9,401.43,Single-ply,SBD,M
Boys,59.87,7,Marcus Lopez,La Joya Palmview,58.69,120.2,86.18,161.03,367.41,Single-ply,SBD,M
Boys,59.87,8,Rafael Ledezma,Brownsville Porter,59.06,124.74,68.04,138.35,331.12,Single-ply,SBD,M
Boys,59.87,9,Robert Molina,Mercedes,57.61,102.06,83.91,102.06,288.03,Single-ply,SBD,M
Boys,59.87,DQ,Nathan Garcia,Brownsville Veterans Memorial,56.79,138.35,,,,Single-ply,SBD,M
Boys,67.13,1,Lorenzo Huerta,PSJA Southwest,65.18,210.92,120.2,190.51,521.63,Single-ply,SBD,M
Boys,67.13,2,Carlos Grimaldo,Brownsville Hanna,66.86,161.03,104.33,192.78,458.13,Single-ply,SBD,M
Boys,74.84,3,Andres Vasquez,Brownsville Rivera,67.31,142.88,129.27,183.7,455.86,Single-ply,SBD,M
Boys,67.13,4,Martin Saldana,PSJA Southwest,66.04,172.37,97.52,158.76,428.64,Single-ply,SBD,M
Boys,67.13,5,Andres Trinidad,Brownsville Pace,64.05,147.42,113.4,165.56,426.38,Single-ply,SBD,M
Boys,67.13,6,Jesse Navarro,PSJA,67.13,154.22,108.86,154.22,417.3,Single-ply,SBD,M
Boys,67.13,7,Isaac Vela,PSJA,67.13,158.76,102.06,154.22,415.04,Single-ply,SBD,M
Boys,67.13,8,Alex Garcia,Brownsville Lopez,64.77,147.42,95.25,170.1,412.77,Single-ply,SBD,M
Boys,67.13,9,David Garcia,Brownsville Veterans Memorial,60.69,147.42,92.99,165.56,405.97,Single-ply,SBD,M
Boys,74.84,10,Juan Castillo,Brownsville Lopez,67.22,151.95,99.79,145.15,396.89,Single-ply,SBD,M
Boys,67.13,11,Luis Marina,Mission Sharyland,64.86,129.27,95.25,163.29,387.82,Single-ply,SBD,M
Boys,67.13,12,Marco Ruiz,Brownsville Veterans Memorial,61.33,131.54,92.99,151.95,376.48,Single-ply,SBD,M
Boys,67.13,13,Alfonso Torres,Brownsville Rivera,65.77,142.88,99.79,124.74,367.41,Single-ply,SBD,M
Boys,74.84,14,Lane Jackson,Hidalgo Early College,67.22,92.99,70.31,113.4,276.69,Single-ply,SBD,M
Boys,67.13,15,David Reyneros,Brownsville Porter,63.32,88.45,61.23,111.13,260.82,Single-ply,SBD,M
Boys,74.84,1,Marcos Lopez,Donna,73.3,213.19,127.01,190.51,530.7,Single-ply,SBD,M
Boys,74.84,2,Ruben Davila,Rio Grande City,71.21,188.24,111.13,204.12,503.49,Single-ply,SBD,M
Boys,74.84,3,Adonis Juarez,Mission,70.22,181.44,104.33,181.44,467.2,Single-ply,SBD,M
Boys,74.84,4,Joey Fernandez,Brownsville Rivera,70.76,163.29,108.86,192.78,464.93,Single-ply,SBD,M
Boys,74.84,5,Oscar Flores,Brownsville Pace,72.94,195.04,95.25,174.63,464.93,Single-ply,SBD,M
Boys,74.84,6,Mike Munoz,PSJA North,73.48,181.44,92.99,170.1,444.52,Single-ply,SBD,M
Boys,74.84,7,Tony Villarreal,PSJA North,73.84,181.44,88.45,163.29,433.18,Single-ply,SBD,M
Boys,74.84,8,Lenny Villanueva,Mercedes,71.3,154.22,81.65,192.78,428.64,Single-ply,SBD,M
Boys,74.84,9,Cipriano Montez,La Joya,71.12,151.95,113.4,140.61,405.97,Single-ply,SBD,M
Boys,74.84,10,Freddy de la Garza,Brownsville Hanna,74.3,124.74,95.25,149.69,369.68,Single-ply,SBD,M
Boys,74.84,11,Andrew Leija,PSJA North,73.53,140.61,86.18,138.35,365.14,Single-ply,SBD,M
Boys,74.84,12,Jorge Rodriguez,La Joya,68.67,120.2,74.84,136.08,331.12,Single-ply,SBD,M
Boys,74.84,13,Jose Martinez,Brownsville Pace,70.85,102.06,83.91,117.93,303.91,Single-ply,SBD,M
Boys,74.84,DQ,Gilbert Guajardo,Pharr Valley View,73.57,151.95,,,,Single-ply,SBD,M
Boys,74.84,DQ,Franky Valle,Hidalgo Early College,73.3,192.78,,,,Single-ply,SBD,M
Boys,82.1,1,Armin Solis,Rio Grande City,81.65,260.82,151.95,208.65,621.42,Single-ply,SBD,M
Boys,82.1,2,Marco Villarreal,Mission Sharyland,81.56,222.26,154.22,226.8,603.28,Single-ply,SBD,M
Boys,82.1,3,Erasmo Canales,Rio Grande City,81.19,226.8,165.56,201.85,594.21,Single-ply,SBD,M
Boys,82.1,4,Rick Garza,Mercedes,81.37,226.8,145.15,215.46,587.4,Single-ply,SBD,M
Boys,82.1,5,Gilbert Trevino,Weslaco,79.56,219.99,113.4,206.38,539.77,Single-ply,SBD,M
Boys,82.1,6,Roger Tapia,Brownsville Veterans Memorial,81.92,195.04,129.27,190.51,514.83,Single-ply,SBD,M
Boys,82.1,7,Jorge Sanchez,PSJA Southwest,78.47,192.78,106.59,188.24,487.61,Single-ply,SBD,M
Boys,82.1,8,Karlo Dominguez,Brownsville Pace,80.65,185.97,122.47,170.1,478.54,Single-ply,SBD,M
Boys,82.1,9,Christian Segovia,Mission,81.56,181.44,106.59,190.51,478.54,Single-ply,SBD,M
Boys,82.1,10,Juan Barrientes,Brownsville Hanna,80.56,174.63,124.74,172.37,471.74,Single-ply,SBD,M
Boys,82.1,11,Austin Segura,Rio Grande City,75.3,204.12,90.72,172.37,467.2,Single-ply,SBD,M
Boys,82.1,12,Gabriel Alvarado,Brownsville Pace,79.11,154.22,106.59,197.31,458.13,Single-ply,SBD,M
Boys,82.1,13,Omar Lozano,PSJA Memorial,76.75,154.22,106.59,176.9,437.72,Single-ply,SBD,M
Boys,82.1,14,Alex Ritta,Brownsville Porter,78.11,136.08,90.72,195.04,421.84,Single-ply,SBD,M
Boys,82.1,15,Victor Solis,Mission,77.02,151.95,86.18,156.49,394.63,Single-ply,SBD,M
Boys,82.1,16,Hector Garcia,La Joya,78.65,140.61,111.13,142.88,394.63,Single-ply,SBD,M
Boys,82.1,17,Carlos Contreras,Hidalgo Early College,76.2,136.08,92.99,158.76,387.82,Single-ply,SBD,M
Boys,82.1,18,Victor Estrada,PSJA,75.39,122.47,79.38,142.88,344.73,Single-ply,SBD,M
Boys,82.1,DQ,Max Gonzalez,Weslaco,82.01,,,,,Single-ply,SBD,M
Boys,82.1,DQ,Ricardo Vela,Hidalgo Early College,76.48,158.76,,,,Single-ply,SBD,M
Boys,99.79,1,Joey Pintones,Pharr Valley View,89.9,285.76,142.88,265.35,694,Single-ply,SBD,M
Boys,89.81,2,Jerry DeLeon,Weslaco East,89.36,265.35,170.1,235.87,671.32,Single-ply,SBD,M
Boys,89.81,3,Geraldo Perez,Mercedes,88.72,260.82,138.35,229.06,628.23,Single-ply,SBD,M
Boys,89.81,4,Ryan Navarro,Weslaco East,85.09,238.14,127.01,233.6,598.74,Single-ply,SBD,M
Boys,89.81,5,Alex Melendez,Pharr Valley View,86.36,231.33,136.08,231.33,598.74,Single-ply,SBD,M
Boys,89.81,6,Christian Brown,Pharr Valley View,87.09,229.06,138.35,224.53,591.94,Single-ply,SBD,M
Boys,89.81,7,Ram Mendoza,Weslaco East,85.37,226.8,129.27,210.92,566.99,Single-ply,SBD,M
Boys,89.81,8,Jesús Torres,Weslaco,89.72,222.26,122.47,217.72,562.45,Single-ply,SBD,M
Boys,89.81,9,Luis Gamez,La Joya,88,208.65,145.15,199.58,553.38,Single-ply,SBD,M
Boys,89.81,10,Joseph Marquez,Hidalgo Early College,83.82,204.12,124.74,208.65,537.51,Single-ply,SBD,M
Boys,89.81,11,Edgar Fernandez,Mission Sharyland,83.19,199.58,115.67,199.58,514.83,Single-ply,SBD,M
Boys,89.81,12,Alex Hernandez,Hidalgo Early College,87.72,195.04,117.93,201.85,514.83,Single-ply,SBD,M
Boys,89.81,13,Juan Villarreal,Hidalgo Early College,86.36,192.78,127.01,192.78,512.56,Single-ply,SBD,M
Boys,89.81,14,Sabas Garcia,Mission,85.37,181.44,122.47,206.38,510.29,Single-ply,SBD,M
Boys,89.81,15,Andres Lucio,Brownsville Rivera,82.46,183.7,127.01,195.04,505.76,Single-ply,SBD,M
Boys,89.81,16,Eddie Garza,Rio Grande City,88,165.56,106.59,174.63,446.79,Single-ply,SBD,M
Boys,89.81,17,Pedro Ramos,Brownsville Pace,86.55,188.24,102.06,154.22,444.52,Single-ply,SBD,M
Boys,89.81,18,Eric Acuna,Brownsville Hanna,82.83,151.95,120.2,158.76,430.91,Single-ply,SBD,M
Boys,89.81,19,Armando Montez,La Joya,86.45,136.08,113.4,176.9,426.38,Single-ply,SBD,M
Boys,89.81,20,Chris Granja,Brownsville Hanna,83.28,142.88,90.72,172.37,405.97,Single-ply,SBD,M
Boys,89.81,DQ,Eddie Garcia,Brownsville Hanna,87.27,158.76,97.52,,,Single-ply,SBD,M
Boys,99.79,1,Jesus Morales,Weslaco East,96.98,290.3,156.49,251.74,698.53,Single-ply,SBD,M
Boys,99.79,2,Ej Ruiz,PSJA North,97.3,256.28,176.9,258.55,691.73,Single-ply,SBD,M
Boys,99.79,3,Ray Flores,Weslaco East,95.62,238.14,147.42,238.14,623.69,Single-ply,SBD,M
Boys,99.79,4,John Adame,Weslaco East,96.25,247.21,136.08,217.72,601.01,Single-ply,SBD,M
Boys,99.79,5,Jesse Coronado,Weslaco,93.53,231.33,147.42,201.85,580.6,Single-ply,SBD,M
Boys,99.79,6,Eli Escaname,Mission Sharyland,99.79,233.6,140.61,201.85,576.06,Single-ply,SBD,M
Boys,99.79,7,Faustino Saldana,PSJA Southwest,95.39,226.8,122.47,201.85,551.11,Single-ply,SBD,M
Boys,99.79,8,Angel Mercado,Donna,97.61,219.99,113.4,215.46,548.85,Single-ply,SBD,M
Boys,99.79,9,Travis Grienier,Brownsville Hanna,99.06,201.85,129.27,217.72,548.85,Single-ply,SBD,M
Boys,99.79,10,Michael Alvarez,Brownsville Pace,97.16,217.72,122.47,185.97,526.17,Single-ply,SBD,M
Boys,99.79,11,Joey Salas,PSJA,97.07,176.9,131.54,199.58,508.02,Single-ply,SBD,M
Boys,99.79,12,Tony Cerda,La Joya,93.08,188.24,124.74,179.17,492.15,Single-ply,SBD,M
Boys,99.79,13,Ralph Mendoza,Mission,93.71,181.44,127.01,181.44,489.88,Single-ply,SBD,M
Boys,99.79,14,John Alaniz,La Joya Palmview,95.71,183.7,127.01,170.1,480.81,Single-ply,SBD,M
Boys,99.79,15,Eddie Favata,PSJA North,98.66,181.44,122.47,176.9,480.81,Single-ply,SBD,M
Boys,99.79,16,Roger Benavidez,Rio Grande City,95.25,204.12,108.86,154.22,467.2,Single-ply,SBD,M
Boys,99.79,17,Brian Lawrence,Brownsville Veterans Memorial,96.16,183.7,108.86,172.37,464.93,Single-ply,SBD,M
Boys,99.79,18,Pedro Gonzalez,Brownsville Veterans Memorial,92.99,165.56,106.59,188.24,460.4,Single-ply,SBD,M
Boys,99.79,19,James Arredondo,PSJA Memorial,97.7,188.24,104.33,147.42,439.98,Single-ply,SBD,M
Boys,99.79,20,Felipe Ledezma,Brownsville Hanna,92.26,170.1,92.99,172.37,435.45,Single-ply,SBD,M
Boys,99.79,21,Jose Costantino,Mercedes,90.63,156.49,99.79,172.37,428.64,Single-ply,SBD,M
Boys,99.79,22,Andy Enriquez,PSJA,97.25,172.37,90.72,149.69,412.77,Single-ply,SBD,M
Boys,99.79,23,Mark Garcia,Brownsville Porter,92.35,158.76,74.84,161.03,394.63,Single-ply,SBD,M
Boys,99.79,24,Evan Pinon,La Joya Palmview,97.34,136.08,97.52,142.88,376.48,Single-ply,SBD,M
Boys,99.79,DQ,AJ Alvarez,Donna,96.34,258.55,140.61,,,Single-ply,SBD,M
Boys,99.79,DQ,Cesar Leal,Donna,99.25,188.24,,,,Single-ply,SBD,M
Boys,99.79,DQ,Edgar Ortegon,Brownsville Lopez,94.26,226.8,,,,Single-ply,SBD,M
Boys,99.79,DQ,George Trevino,PSJA Memorial,93.35,,,,,Single-ply,SBD,M
Boys,99.79,DQ,Joseph Michki,Mission Sharyland,92.8,154.22,,,,Single-ply,SBD,M
Boys,99.79,DQ,Fred Franco,Brownsville Veterans Memorial,96.98,,,,,Single-ply,SBD,M
Boys,99.79,DQ,Jacob Alaniz,Brownsville Veterans Memorial,98.43,240.4,,,,Single-ply,SBD,M
Boys,109.77,1,Patrick Longoria,Weslaco,108.23,278.96,167.83,247.21,694,Single-ply,SBD,M
Boys,109.77,2,Kevin Trevino,PSJA North,107.95,258.55,158.76,249.48,666.78,Single-ply,SBD,M
Boys,109.77,3,Jesus Martinez,Weslaco East,109.13,242.67,149.69,242.67,635.03,Single-ply,SBD,M
Boys,109.77,4,Jose Juarez,Weslaco,108.77,233.6,154.22,244.94,632.76,Single-ply,SBD,M
Boys,109.77,5,Noe Alonzo,PSJA Memorial,102.6,235.87,149.69,217.72,603.28,Single-ply,SBD,M
Boys,109.77,6,Augustus Hernandez,PSJA North,108.91,229.06,133.81,231.33,594.21,Single-ply,SBD,M
Boys,109.77,7,Andres Martinez,PSJA,108.86,192.78,131.54,183.7,508.02,Single-ply,SBD,M
Boys,109.77,8,Jesus Galaviz,Mission,101.88,163.29,142.88,195.04,501.22,Single-ply,SBD,M
Boys,124.74,9,Jose Gomez,Mercedes,109.86,201.85,102.06,176.9,480.81,Single-ply,SBD,M
Boys,109.77,10,Miguel Guzman,Mission,104.42,185.97,83.91,195.04,464.93,Single-ply,SBD,M
Boys,124.74,11,Gabrian Vela,PSJA North,110,170.1,111.13,181.44,462.66,Single-ply,SBD,M
Boys,109.77,12,Mathew Trinidad,Brownsville Hanna,101.33,142.88,111.13,165.56,419.57,Single-ply,SBD,M
Boys,109.77,DQ,Angel Gutierrez,La Joya Palmview,102.24,,,,,Single-ply,SBD,M
Boys,109.77,DQ,Orlando Nieto,PSJA Memorial,106.32,215.46,,,,Single-ply,SBD,M
Boys,124.74,1,Keith Mora,Mission Sharyland,121.93,299.37,133.81,217.72,650.91,Single-ply,SBD,M
Boys,124.74,2,Alejandro Brisenio,Brownsville Rivera,114.21,240.4,172.37,235.87,648.64,Single-ply,SBD,M
Boys,124.74,3,Rick Hinojosa,Mercedes,119.57,249.48,165.56,217.72,632.76,Single-ply,SBD,M
Boys,124.74,4,Christian Cardenas,Weslaco East,115.58,249.48,154.22,215.46,619.15,Single-ply,SBD,M
Boys,124.74,5,Javi Lara,PSJA North,115.21,215.46,129.27,192.78,537.51,Single-ply,SBD,M
Boys,124.74,6,Ruben Cisneros,Donna,116.66,213.19,111.13,213.19,537.51,Single-ply,SBD,M
Boys,124.74,7,Jesse Guzman,Brownsville Veterans Memorial,111.31,213.19,124.74,185.97,523.9,Single-ply,SBD,M
Boys,124.74,8,Rodolfo Balli,Brownsville Lopez,124.56,217.72,108.86,192.78,519.36,Single-ply,SBD,M
Boys,124.74,9,Josh Castillo,Brownsville Pace,113.4,190.51,129.27,170.1,489.88,Single-ply,SBD,M
Boys,124.74,10,Julian Rosalez,Rio Grande City,122.38,188.24,108.86,190.51,487.61,Single-ply,SBD,M
Boys,124.74,11,Diego Sanchez,Hidalgo Early College,112.76,192.78,108.86,183.7,485.34,Single-ply,SBD,M
Boys,124.74,12,Caleb Atkins,Brownsville Veterans Memorial,113.31,192.78,102.06,190.51,485.34,Single-ply,SBD,M
Boys,124.74,13,Robert Medina,Rio Grande City,116.85,183.7,106.59,192.78,483.08,Single-ply,SBD,M
Boys,124.74,DQ,Issac Escobedo,PSJA Memorial,123.65,263.08,,,,Single-ply,SBD,M
Boys,124.74,DQ,Jaime Moreno,Donna,112.31,,,,,Single-ply,SBD,M
Boys,124.74,DQ,Raul de la Cruz,Mission,120.93,,,,,Single-ply,SBD,M
Boys,124.74,DQ,Samuel Olivarez,La Joya Palmview,121.02,147.42,,,,Single-ply,SBD,M
Boys,124.74,DQ,Gilbert Galvan,PSJA Southwest,116.85,,,,,Single-ply,SBD,M
Boys,124.74,DQ,Johnathan Castillo,Hidalgo Early College,112.22,,,,,Single-ply,SBD,M
Boys,124.74+,1,Randy Fernandez,PSJA North,133.36,265.35,158.76,233.6,657.71,Single-ply,SBD,M
Boys,124.74+,2,Armando Castillo,Brownsville Lopez,126.46,219.99,127.01,213.19,560.19,Single-ply,SBD,M
Boys,124.74+,3,Rey Guajardo,PSJA,147.42,226.8,147.42,181.44,555.65,Single-ply,SBD,M
Boys,124.74+,4,Zeke Garza,La Joya,127.73,204.12,124.74,188.24,517.1,Single-ply,SBD,M
Boys,124.74+,5,Anthony Carillo,Brownsville Lopez,136.08,190.51,136.08,181.44,508.02,Single-ply,SBD,M
Boys,124.74+,6,Gage Rivas,Brownsville Veterans Memorial,127.37,181.44,138.35,176.9,496.68,Single-ply,SBD,M
Boys,124.74+,7,Daniel Solis,La Joya,126.19,188.24,106.59,174.63,469.47,Single-ply,SBD,M
Boys,124.74+,8,Martín Muñoz,La Joya Palmview,136.17,172.37,97.52,190.51,460.4,Single-ply,SBD,M
Boys,124.74+,9,Anselmo Rodriguez,Mission,146.42,154.22,90.72,158.76,403.7,Single-ply,SBD,M
Boys,124.74+,DQ,Jorge Garcia,Pharr Valley View,129.09,292.57,,,,Single-ply,SBD,M
