Division,WeightClassKg,Place,Name,Team,BodyweightKg,Best3SquatKg,Best3BenchKg,Best3DeadliftKg,TotalKg,Equipment,Event,Sex
Boys,51.71,1,Rudy Garay,Los Fresnos,50.35,201.85,102.06,188.24,492.15,Single-ply,SBD,M
Boys,55.79,2,Frankie Garza,Port Lavaca Calhoun,51.89,204.12,90.72,181.44,476.27,Single-ply,SBD,M
Boys,51.71,3,Robert Barajas,Laredo Martin,51.53,181.44,88.45,197.31,467.2,Single-ply,SBD,M
Boys,51.71,4,Haif Martinez,Lewisville The Colony,49.99,161.03,95.25,176.9,433.18,Single-ply,SBD,M
Boys,55.79,5,Calvin Ford,Burleson,51.89,163.29,88.45,179.17,430.91,Single-ply,SBD,M
Boys,55.79,6,Carlos Cadena,Waxahachie,51.8,151.95,92.99,179.17,424.11,Single-ply,SBD,M
Boys,55.79,7,David Vega,Freeport Brazosport,51.89,151.95,95.25,176.9,424.11,Single-ply,SBD,M
Boys,51.71,8,Joseph Dodds,Dickinson,51.44,170.1,83.91,167.83,421.84,Single-ply,SBD,M
Boys,51.71,9,Johnny Horta,Weslaco East,51.44,154.22,79.38,183.7,417.3,Single-ply,SBD,M
Boys,55.79,10,Daniel Chapa,Gregory-Portland,51.94,156.49,95.25,158.76,410.5,Single-ply,SBD,M
Boys,51.71,11,Rigo Pena,Pharr Valley View,51.26,151.95,95.25,158.76,405.97,Single-ply,SBD,M
Boys,51.71,12,Thomas Soto,Corpus Christi Calallen,51.26,147.42,72.57,185.97,405.97,Single-ply,SBD,M
Boys,51.71,13,Alex Wright,Killeen Harker Heights,51.44,151.95,88.45,156.49,396.89,Single-ply,SBD,M
Boys,55.79,14,Robert Chapa,Gregory-Portland,51.89,149.69,86.18,158.76,394.63,Single-ply,SBD,M
Boys,51.71,15,Dominique John,Mansfield Summit,51.53,145.15,70.31,165.56,381.02,Single-ply,SBD,M
Boys,51.71,16,Masih Zaman,Katy Mayde Creek,51.62,149.69,77.11,154.22,381.02,Single-ply,SBD,M
Boys,51.71,17,Kelly Tindall,Abilene Cooper,51.26,129.27,72.57,161.03,362.87,Single-ply,SBD,M
Boys,51.71,18,Clarence Smith,Abilene Cooper,51.44,136.08,77.11,147.42,360.61,Single-ply,SBD,M
Boys,51.71,19,Josue Leon,Sulphur Springs,50.17,140.61,63.5,151.95,356.07,Single-ply,SBD,M
Boys,59.87,1,Chris Smith,Katy Mayde Creek,56,217.72,117.93,272.16,607.81,Single-ply,SBD,M
Boys,55.79,2,Anibal Martinez,Los Fresnos,55.16,235.87,117.93,222.26,576.06,Single-ply,SBD,M
Boys,55.79,3,Eric Torres,Weslaco East,54.25,204.12,127.01,222.26,553.38,Single-ply,SBD,M
Boys,55.79,4,Rolando Borgas,Los Fresnos,54.79,199.58,102.06,199.58,501.22,Single-ply,SBD,M
Boys,55.79,5,Enrique Alvarez,Laredo Cigarroa,55.7,199.58,102.06,185.97,487.61,Single-ply,SBD,M
Boys,55.79,6,Alex Solis,Weslaco East,54.61,192.78,117.93,174.63,485.34,Single-ply,SBD,M
Boys,55.79,7,Jaime Salgado,Plainview,54.43,183.7,92.99,201.85,478.54,Single-ply,SBD,M
Boys,55.79,8,Zach Fain,Cedar Hill,55.16,195.04,104.33,179.17,478.54,Single-ply,SBD,M
Boys,55.79,9,Alex Sharp,Dickinson,55.7,190.51,102.06,179.17,471.74,Single-ply,SBD,M
Boys,59.87,10,Andrew Brooks,Houston Madison,55.88,192.78,97.52,181.44,471.74,Single-ply,SBD,M
Boys,59.87,11,Marcus Manley,Del Valle,55.97,199.58,90.72,172.37,462.66,Single-ply,SBD,M
Boys,55.79,12,Carlos Bravo,Lewisville The Colony,54.52,181.44,92.99,174.63,449.06,Single-ply,SBD,M
Boys,59.87,13,Josh Hill,Montgomery,55.97,181.44,95.25,167.83,444.52,Single-ply,SBD,M
Boys,55.79,14,Mario Leos,Seguin,55.61,154.22,97.52,181.44,433.18,Single-ply,SBD,M
Boys,55.79,15,Blake Mirowitz,Red Oak,55.7,163.29,90.72,174.63,428.64,Single-ply,SBD,M
Boys,55.79,16,Brandon Alford,Kyle Lehman,55.34,154.22,86.18,185.97,426.38,Single-ply,SBD,M
Boys,55.79,17,Dalton Webb,Conroe Oak Ridge,55.52,158.76,88.45,158.76,405.97,Single-ply,SBD,M
Boys,59.87,18,James Payton,Nacogdoches,56,154.22,72.57,154.22,381.02,Single-ply,SBD,M
Boys,55.79,DQ,Evan Valenzuela,Midland,53.89,174.63,,,,Single-ply,SBD,M
Boys,55.79,DQ,Enrique Gonzalez,Roma,55.7,151.95,99.79,,,Single-ply,SBD,M
Boys,59.87,1,Nick Laznovsky,Los Fresnos,59.42,254.01,122.47,244.94,621.42,Single-ply,SBD,M
Boys,59.87,2,Rolie Alaniz,Weslaco East,59.33,213.19,106.59,215.46,535.24,Single-ply,SBD,M
Boys,59.87,3,Richard Hernandez,Lewisville The Colony,59.42,219.99,122.47,192.78,535.24,Single-ply,SBD,M
Boys,59.87,4,Rodney Bigham,Channelview,59.6,192.78,129.27,210.92,532.97,Single-ply,SBD,M
Boys,59.87,5,Aj Dovalina,Laredo Alexander,59.33,201.85,104.33,219.99,526.17,Single-ply,SBD,M
Boys,59.87,6,Sonny Khokar,Frisco Wakeland,58.88,192.78,117.93,208.65,519.36,Single-ply,SBD,M
Boys,67.13,7,Edgar Martinez,Laredo Cigarroa,60,206.38,95.25,197.31,498.95,Single-ply,SBD,M
Boys,59.87,8,Larkin Alexander,Waxahachie,59.15,183.7,113.4,195.04,492.15,Single-ply,SBD,M
Boys,59.87,9,Jealious Ordinallo,Pflugerville Connally,59.6,179.17,102.06,204.12,485.34,Single-ply,SBD,M
Boys,59.87,10,Rolando Salazar,Belton,59.69,181.44,95.25,199.58,476.27,Single-ply,SBD,M
Boys,59.87,11,Miles Ochsner,Midland Lee,58.69,181.44,95.25,185.97,462.66,Single-ply,SBD,M
Boys,59.87,12,Jose Pineda,San Angelo Central,59.6,176.9,99.79,172.37,449.06,Single-ply,SBD,M
Boys,67.13,13,Max Baronaske,Tomball,59.96,170.1,104.33,172.37,446.79,Single-ply,SBD,M
Boys,59.87,DQ,Vincent Sellers,Midlothian,59.78,192.78,102.06,,,Single-ply,SBD,M
Boys,67.13,1,Isaac Nunez,Los Fresnos,65.23,281.23,170.1,215.46,666.78,Single-ply,SBD,M
Boys,67.13,2,Andrew Beckman,Lewisville The Colony,67.13,258.55,140.61,215.46,614.62,Single-ply,SBD,M
Boys,67.13,3,Tyler Copeland,Weatherford,67.04,249.48,147.42,206.38,603.28,Single-ply,SBD,M
Boys,67.13,4,Miguel Mata,Pharr Valley View,65.41,217.72,147.42,226.8,591.94,Single-ply,SBD,M
Boys,67.13,5,Chris Ford,Marshall,66.5,222.26,145.15,213.19,580.6,Single-ply,SBD,M
Boys,74.84,6,Kevin Atherton,Belton,67.31,208.65,138.35,215.46,562.45,Single-ply,SBD,M
Boys,67.13,7,Peter Webre,Comal Canyon,66.22,226.8,111.13,201.85,539.77,Single-ply,SBD,M
Boys,67.13,8,Ruben Salinas,Roma,66.59,222.26,124.74,192.78,539.77,Single-ply,SBD,M
Boys,67.13,9,Torey Miller,Tomball,66.59,190.51,124.74,213.19,528.44,Single-ply,SBD,M
Boys,67.13,10,Joe Gonzalez,Pharr Valley View,65.86,195.04,113.4,208.65,517.1,Single-ply,SBD,M
Boys,67.13,11,Danzel Granderson,Channelview,65.86,183.7,102.06,226.8,512.56,Single-ply,SBD,M
Boys,74.84,12,Ryan Baca,Canyon,67.36,179.17,127.01,192.78,498.95,Single-ply,SBD,M
Boys,67.13,DQ,Jazper Solis,Abilene,64.77,195.04,104.33,,,Single-ply,SBD,M
Boys,67.13,DQ,Andric Okra,Marshall,66.68,181.44,104.33,,,Single-ply,SBD,M
Boys,67.13,DQ,Kristian Cogdill,San Marcos,66.04,208.65,122.47,,,Single-ply,SBD,M
Boys,74.84,1,Dominique Hardaway,Lockhart,74.57,288.03,147.42,288.03,723.48,Single-ply,SBD,M
Boys,74.84,2,Zach Garza,Corpus Christi Calallen,74.75,283.5,149.69,249.48,682.66,Single-ply,SBD,M
Boys,74.84,3,Jaime Cortez,Mission Sharyland,73.48,263.08,138.35,254.01,655.44,Single-ply,SBD,M
Boys,74.84,4,Cory Sayler,Lewisville The Colony,74.3,274.42,147.42,233.6,655.44,Single-ply,SBD,M
Boys,74.84,5,Robert Johnson,Nederland,73.94,260.82,129.27,260.82,650.91,Single-ply,SBD,M
Boys,74.84,6,Daniel Dominguez,El Campo,73.75,265.35,145.15,222.26,632.76,Single-ply,SBD,M
Boys,74.84,7,Justin Hicks,Channelview,74.21,226.8,147.42,238.14,612.35,Single-ply,SBD,M
Boys,74.84,8,Cameron Prater,Crowley,74.21,244.94,122.47,226.8,594.21,Single-ply,SBD,M
Boys,82.1,9,John Monreal,Del Valle,74.93,240.4,131.54,215.46,587.4,Single-ply,SBD,M
Boys,82.1,10,Brandon Castillo,Corpus Christi Calallen,74.93,229.06,127.01,213.19,569.26,Single-ply,SBD,M
Boys,82.1,11,Ruben Fletcher,Everman,75,233.6,106.59,226.8,566.99,Single-ply,SBD,M
Boys,74.84,12,Aaron Mungia,Weslaco East,73.75,210.92,131.54,217.72,560.19,Single-ply,SBD,M
Boys,74.84,13,Justin Pichardo,Plainview,73.94,215.46,122.47,204.12,542.04,Single-ply,SBD,M
Boys,74.84,14,Ryan Kilgore,Hallsville,74.39,204.12,113.4,185.97,503.49,Single-ply,SBD,M
Boys,74.84,DQ,Mark Kollar,Midland Lee,73.84,,,,,Single-ply,SBD,M
Boys,74.84,DQ,Vuna Adams,Cedar Hill,74.12,208.65,,,,Single-ply,SBD,M
Boys,82.1,1,Zach Hohman,Conroe The Woodlands,76.66,294.84,174.63,226.8,696.26,Single-ply,SBD,M
Boys,82.1,2,Brandon Fisher,Round Rock,79.11,290.3,142.88,249.48,682.66,Single-ply,SBD,M
Boys,82.1,3,Gabriel Longoria,Corpus Christi Calallen,81.92,285.76,149.69,235.87,671.32,Single-ply,SBD,M
Boys,82.1,4,Theo Hollars,Burleson,78.47,247.21,138.35,272.16,657.71,Single-ply,SBD,M
Boys,82.1,5,Justin Garcia,Alice,80.47,272.16,140.61,226.8,639.57,Single-ply,SBD,M
Boys,82.1,6,Josh Wilson,Beaumont West Brook,80.47,281.23,129.27,226.8,637.3,Single-ply,SBD,M
Boys,82.1,7,Justin Murphy,Lewisville The Colony,80.74,272.16,136.08,226.8,635.03,Single-ply,SBD,M
Boys,82.1,8,James Perry,Manor,81.1,265.35,145.15,219.99,630.49,Single-ply,SBD,M
Boys,82.1,9,Genaro Trevino,Beeville Jones,81.01,260.82,154.22,210.92,625.96,Single-ply,SBD,M
Boys,82.1,10,Kevin Orellana,Katy Mayde Creek,80.38,242.67,136.08,238.14,616.89,Single-ply,SBD,M
Boys,82.1,11,Cj Goins,Killeen Harker Heights,81.65,244.94,136.08,235.87,616.89,Single-ply,SBD,M
Boys,82.1,12,Cody Platt,Santa Fe,81.74,249.48,138.35,226.8,614.62,Single-ply,SBD,M
Boys,82.1,13,Stephen Julian,Mount Pleasant,80.74,226.8,154.22,226.8,607.81,Single-ply,SBD,M
Boys,82.1,14,Cody Evans,Corsicana,81.28,238.14,124.74,238.14,601.01,Single-ply,SBD,M
Boys,82.1,15,Tim Ward,Katy Mayde Creek,80.74,249.48,113.4,233.6,596.47,Single-ply,SBD,M
Boys,82.1,16,Efrain Vasquez,Midland,80.29,231.33,117.93,224.53,573.79,Single-ply,SBD,M
Boys,82.1,DQ,Jc Haigwood,Marshall,79.83,222.26,,,,Single-ply,SBD,M
Boys,82.1,DQ,Jordan Glenn,Houston Bellaire,81.28,249.48,154.22,,,Single-ply,SBD,M
Boys,82.1,DQ,Nick Sweetland,Conroe The Woodlands,81.19,215.46,,,,Single-ply,SBD,M
Boys,82.1,DQ,Jacob Castillo,Alice,81.74,204.12,145.15,,,Single-ply,SBD,M
Boys,82.1,DQ,Cody Polk,Wichita Falls,80.47,285.76,149.69,,,Single-ply,SBD,M
Boys,82.1,DQ,Bryce Siecko,Tomball,80.47,272.16,142.88,,,Single-ply,SBD,M
Boys,89.81,1,Ian Bell,Comal Canyon,88.45,312.98,170.1,324.32,807.39,Single-ply,SBD,M
Boys,89.81,2,Xaviel Hinojosa,Weslaco East,88.63,294.84,181.44,258.55,734.82,Single-ply,SBD,M
Boys,89.81,3,Brandon Griffith,Port Lavaca Calhoun,88.27,265.35,176.9,238.14,680.39,Single-ply,SBD,M
Boys,89.81,4,Shawn Sanders,Everman,89.72,283.5,142.88,249.48,675.85,Single-ply,SBD,M
Boys,89.81,5,Ivan Gonzalez,Los Fresnos,89.18,276.69,151.95,244.94,673.58,Single-ply,SBD,M
Boys,89.81,6,Austin Price,Aledo,88.99,272.16,149.69,235.87,657.71,Single-ply,SBD,M
Boys,99.79,7,Troi Johnson,Clute Brazoswood,90,263.08,142.88,244.94,650.91,Single-ply,SBD,M
Boys,89.81,8,Jeff Stevens,Justin Northwest,88.18,244.94,158.76,244.94,648.64,Single-ply,SBD,M
Boys,89.81,9,Jonathon Fontenot,Orange Little Cypress-Mauriceville,87.27,249.48,156.49,240.4,646.37,Single-ply,SBD,M
Boys,89.81,10,Jose Saucedo,Port Lavaca Calhoun,88.09,263.08,163.29,213.19,639.57,Single-ply,SBD,M
Boys,89.81,11,Clint Ramirez,New Caney,87.18,226.8,167.83,240.4,635.03,Single-ply,SBD,M
Boys,89.81,12,Aaron Castillo,Los Fresnos,86.91,258.55,142.88,231.33,632.76,Single-ply,SBD,M
Boys,89.81,13,Andrew Kindred,Waxahachie,88.63,260.82,117.93,254.01,632.76,Single-ply,SBD,M
Boys,89.81,14,Kristian Blaylock,Clute Brazoswood,85.64,244.94,142.88,240.4,628.23,Single-ply,SBD,M
Boys,89.81,15,Dallas Glass,Elgin,88.36,238.14,156.49,233.6,628.23,Single-ply,SBD,M
Boys,89.81,16,Lazaro Smith,Beeville Jones,88.81,254.01,133.81,233.6,621.42,Single-ply,SBD,M
Boys,89.81,DQ,Josh Jones,Abilene,86.45,,,,,Single-ply,SBD,M
Boys,89.81,DQ,Chris Cesar,College Station A&M; Cons,86.55,242.67,,,,Single-ply,SBD,M
Boys,89.81,DQ,Demeon Timmons,Marshall,86.73,,,,,Single-ply,SBD,M
Boys,89.81,DQ,Abner Godoy,Midland,89.09,238.14,,,,Single-ply,SBD,M
Boys,99.79,1,Ricky Francis,Beaumont Ozen,99.06,258.55,158.76,326.59,743.89,Single-ply,SBD,M
Boys,99.79,2,Dequane Bennett,Beaumont West Brook,98.7,303.91,154.22,272.16,730.28,Single-ply,SBD,M
Boys,99.79,3,Reggie Wilcox,Frisco Wakeland,99.16,272.16,165.56,283.5,721.21,Single-ply,SBD,M
Boys,99.79,4,Jacob Hinojos,Plainview,94.26,310.71,136.08,272.16,718.94,Single-ply,SBD,M
Boys,99.79,5,Dillon Bramblitt,Mabank,97.07,290.3,181.44,244.94,716.68,Single-ply,SBD,M
Boys,99.79,6,David Garza,Kyle Lehman,96.43,278.96,176.9,258.55,714.41,Single-ply,SBD,M
Boys,99.79,7,Blake Lilly,Mansfield,96.25,294.84,154.22,263.08,712.14,Single-ply,SBD,M
Boys,99.79,8,Victor Ruiz,Weslaco East,97.43,285.76,172.37,244.94,703.07,Single-ply,SBD,M
Boys,99.79,9,Scotty Bailey,Clute Brazoswood,95.98,272.16,174.63,249.48,696.26,Single-ply,SBD,M
Boys,99.79,10,Dayrell Freeman,Crowley,98.79,294.84,149.69,249.48,694,Single-ply,SBD,M
Boys,99.79,11,Nathan Westbrook,Kingsville King,98.7,272.16,165.56,249.48,687.19,Single-ply,SBD,M
Boys,99.79,12,Andres Castellanos,Corpus Christi Tuloso-Midway,96.43,290.3,140.61,254.01,684.92,Single-ply,SBD,M
Boys,99.79,13,Tevin Jenkins,Everman,93.8,242.67,154.22,281.23,678.12,Single-ply,SBD,M
Boys,99.79,14,Jared Hallman,Round Rock McNeil,97.7,231.33,151.95,294.84,678.12,Single-ply,SBD,M
Boys,109.77,15,Matthew Bass,Alvin,99.97,247.21,156.49,269.89,673.58,Single-ply,SBD,M
Boys,99.79,16,Jason Granados,Magnolia West,97.43,272.16,156.49,238.14,666.78,Single-ply,SBD,M
Boys,99.79,17,Leroy Kelly,Wichita Falls,96.34,263.08,161.03,231.33,655.44,Single-ply,SBD,M
Boys,99.79,18,Keith Moore,Lindale,98.07,222.26,138.35,278.96,639.57,Single-ply,SBD,M
Boys,99.79,19,Rodney Hall,Angleton,97.98,256.28,142.88,238.14,637.3,Single-ply,SBD,M
Boys,99.79,20,Andre Evans,San Benito,97.16,258.55,120.2,249.48,628.23,Single-ply,SBD,M
Boys,99.79,DQ,Ivan Arrevalo,Pharr Valley View,96.71,240.4,,,,Single-ply,SBD,M
Boys,99.79,DQ,Derrick Anderson,Big Spring,96.89,,,,,Single-ply,SBD,M
Boys,99.79,DQ,Josh Gutierrez,Magnolia West,98.34,254.01,,,,Single-ply,SBD,M
Boys,99.79,DQ,Jesse Hernandez,Granbury,98.16,,,,,Single-ply,SBD,M
Boys,99.79,DQ,Jerry Nino,Laredo Martin,99.16,,,,,Single-ply,SBD,M
Boys,109.77,1,Preston Turner,Victoria Memorial,108.86,333.39,249.48,260.82,843.68,Single-ply,SBD,M
Boys,109.77,2,Aaron Ripkowski,Dayton,108.41,272.16,204.12,285.76,762.04,Single-ply,SBD,M
Boys,109.77,3,Josh Morrison,Lewisville The Colony,107.32,315.25,181.44,249.48,746.16,Single-ply,SBD,M
Boys,109.77,4,Freddy Chavarria,Laredo Martin,103.15,283.5,185.97,249.48,718.94,Single-ply,SBD,M
Boys,109.77,5,Andrew Bletsch,Santa Fe,109.59,260.82,174.63,272.16,707.6,Single-ply,SBD,M
Boys,109.77,6,Bridge Blount,Huntsville,107.14,272.16,158.76,263.08,694,Single-ply,SBD,M
Boys,124.74,7,Jose Torres,Freeport Brazosport,109.86,272.16,158.76,258.55,689.46,Single-ply,SBD,M
Boys,109.77,8,Richard Goodson,Texas City,108.32,272.16,151.95,263.08,687.19,Single-ply,SBD,M
Boys,109.77,9,James Revada,Pflugerville Connally,106.14,274.42,158.76,251.74,684.92,Single-ply,SBD,M
Boys,109.77,10,Henry Hoang,Midland,107.05,285.76,156.49,242.67,684.92,Single-ply,SBD,M
Boys,109.77,11,Stephon Williams,Houston Madison,102.33,265.35,154.22,254.01,673.58,Single-ply,SBD,M
Boys,109.77,12,Ricky Alvarez,Belton,103.15,272.16,156.49,240.4,669.05,Single-ply,SBD,M
Boys,109.77,13,James Miller,Crowley,107.59,244.94,158.76,258.55,662.24,Single-ply,SBD,M
Boys,109.77,DQ,Austin Vela,Frisco Wakeland,106.05,294.84,,,,Single-ply,SBD,M
Boys,109.77,DQ,Josh Robinson,Abilene Cooper,105.32,254.01,154.22,,,Single-ply,SBD,M
Boys,109.77,DQ,Nolan Duncan,Mabank,108.59,,,,,Single-ply,SBD,M
Boys,109.77,DQ,Andrew Burton,Sulphur Springs,109.41,265.35,,,,Single-ply,SBD,M
Boys,124.74,1,Daniel Cooley,Lake Dallas,123.74,306.17,256.28,265.35,827.81,Single-ply,SBD,M
Boys,124.74,2,Rishaad Wimbley,Forney,115.58,290.3,192.78,288.03,771.11,Single-ply,SBD,M
Boys,124.74,3,Frank Green,Dickinson,122.83,317.51,199.58,240.4,757.5,Single-ply,SBD,M
Boys,124.74,4,Carlos Cuellar,Weslaco East,118.57,301.64,199.58,249.48,750.7,Single-ply,SBD,M
Boys,124.74,5,Xavier Mitchell,Waco University,124.28,288.03,179.17,269.89,737.09,Single-ply,SBD,M
Boys,124.74,6,Easton Evans,Waco University,120.29,299.37,163.29,272.16,734.82,Single-ply,SBD,M
Boys,124.74,7,Ricky Gonzales,Cedar Hill,121.74,281.23,195.04,254.01,730.28,Single-ply,SBD,M
Boys,124.74,8,Albert Ureste,Port Lavaca Calhoun,124.56,285.76,183.7,240.4,709.87,Single-ply,SBD,M
Boys,124.74,9,Darius Anderson,Wichita Falls,123.83,294.84,185.97,219.99,700.8,Single-ply,SBD,M
Boys,124.74,10,Ed Holguin,Dumas,111.86,278.96,161.03,233.6,673.58,Single-ply,SBD,M
Boys,124.74,11,Justin Yanez,Big Spring,112.31,249.48,154.22,217.72,621.42,Single-ply,SBD,M
Boys,124.74,DQ,Jacob Alford,Lindale,121.11,324.32,161.03,,,Single-ply,SBD,M
Boys,124.74,DQ,Ray Gentry,Santa Fe,123.2,,,,,Single-ply,SBD,M
Boys,124.74+,1,Josh Burkham,Lewisville The Colony,140.43,319.78,197.31,272.16,789.25,Single-ply,SBD,M
Boys,124.74+,2,Rafael Gallo,Katy Mayde Creek,128.46,333.39,170.1,265.35,768.84,Single-ply,SBD,M
Boys,124.74+,3,Dominique Smith,Everman,140.52,317.51,190.51,260.82,768.84,Single-ply,SBD,M
Boys,124.74+,4,Ethan Perkins,Nacogdoches,132.09,294.84,188.24,267.62,750.7,Single-ply,SBD,M
Boys,124.74+,5,Xavier Johnson,Burleson,140.52,283.5,170.1,283.5,737.09,Single-ply,SBD,M
Boys,124.74+,6,Miguel Estrada,Rockport-Fulton,132.54,294.84,167.83,272.16,734.82,Single-ply,SBD,M
Boys,124.74+,7,DJ Willis,Lewisville The Colony,138.53,303.91,167.83,260.82,732.55,Single-ply,SBD,M
Boys,124.74+,8,Dion Turner,Lockhart,153.13,254.01,226.8,249.48,730.28,Single-ply,SBD,M
Boys,124.74+,9,Revis Davis,La Porte,141.61,265.35,199.58,260.82,725.75,Single-ply,SBD,M
Boys,124.74+,10,Mando Salazar,Donna,130.09,283.5,179.17,235.87,698.53,Single-ply,SBD,M
Boys,124.74+,DQ,Jonathan Molina,Big Spring,155.95,,,,,Single-ply,SBD,M
Boys,124.74+,DQ,Jalen Stephens,Mount Pleasant,133.63,,,,,Single-ply,SBD,M
Boys,124.74+,DQ,Tim Meza,San Angelo Central,131.9,,,,,Single-ply,SBD,M
Boys,,NS,John Chappa,San Angelo Central,,,,,,Single-ply,SBD,M
Boys,,NS,Dakota Anthony,Longview,,,,,,Single-ply,SBD,M
Boys,,NS,Alford Cooper,Abilene Cooper,,,,,,Single-ply,SBD,M
Boys,,NS,Clarington Lightfoot,Everman,,,,,,Single-ply,SBD,M
Boys,,NS,Austin Norden,Waco Midway,,,,,,Single-ply,SBD,M
