Division,WeightClassKg,Place,Name,Team,BodyweightKg,Best3SquatKg,Best3BenchKg,Best3DeadliftKg,TotalKg,Equipment,Event,Sex
Boys,51.71,1,Will Cross,Huntington,51.71,115.67,70.31,142.88,328.85,Single-ply,SBD,M
Boys,51.71,2,Cye Wilson,Huntington,49.99,99.79,52.16,115.67,267.62,Single-ply,SBD,M
Boys,51.71,DQ,Trevor Lewing,Livingston,51.44,,,,,Single-ply,SBD,M
Boys,55.79,1,Charles Dickerson,Huffman Hargrave,55.07,122.47,72.57,147.42,342.46,Single-ply,SBD,M
Boys,55.79,2,Josh Courvelle,Shepherd,54.16,113.4,65.77,138.35,317.51,Single-ply,SBD,M
Boys,55.79,3,Damon Grace,Livingston,55.07,102.06,72.57,138.35,312.98,Single-ply,SBD,M
Boys,55.79,4,Bj Wafer,Huntington,54.07,99.79,77.11,129.27,306.17,Single-ply,SBD,M
Boys,55.79,5,Zach Lee,Livingston,55.79,95.25,61.23,95.25,251.74,Single-ply,SBD,M
Boys,55.79,DQ,Harley Hnatek,Splendora,54.07,,,,,Single-ply,SBD,M
Boys,59.87,1,Beau Burleson,Woodville,57.15,167.83,108.86,170.1,446.79,Single-ply,SBD,M
Boys,59.87,2,Nate Jones,Shepherd,59.69,142.88,83.91,165.56,392.36,Single-ply,SBD,M
Boys,59.87,3,Victor Lara-Cortez,Corrigan-Camden,59.42,151.95,72.57,165.56,390.09,Single-ply,SBD,M
Boys,59.87,DQ,Josh Vasquez,Cleveland,59.24,167.83,79.38,,,Single-ply,SBD,M
Boys,59.87,DQ,Braden Taylor,Shepherd,59.51,,,,,Single-ply,SBD,M
Boys,67.13,DQ,James Bowen,Shepherd,59.96,117.93,,,,Single-ply,SBD,M
Boys,67.13,1,Thad Whigham,Woodville,65.86,195.04,104.33,208.65,508.02,Single-ply,SBD,M
Boys,74.84,2,Westley Potter,Livingston,67.31,188.24,113.4,163.29,464.93,Single-ply,SBD,M
Boys,67.13,3,Robert Sparks,Corrigan-Camden,64.23,163.29,104.33,174.63,442.25,Single-ply,SBD,M
Boys,67.13,4,Dwayne Colone,Beaumont Ozen,63.05,149.69,99.79,188.24,437.72,Single-ply,SBD,M
Boys,67.13,5,Cameron Camp,Splendora,66.5,147.42,99.79,163.29,410.5,Single-ply,SBD,M
Boys,67.13,6,Kain Kimberlin,Livingston,63.87,138.35,102.06,158.76,399.16,Single-ply,SBD,M
Boys,74.84,7,Josh Collins,Beaumont Ozen,67.31,147.42,88.45,163.29,399.16,Single-ply,SBD,M
Boys,67.13,8,Darrin Walker,Liberty,63.96,136.08,86.18,161.03,383.29,Single-ply,SBD,M
Boys,74.84,9,Tim Moye,Woodville,67.31,136.08,70.31,127.01,333.39,Single-ply,SBD,M
Boys,67.13,10,Anthony McMullins,Splendora,66.13,120.2,74.84,108.86,303.91,Single-ply,SBD,M
Boys,67.13,11,Joey Mottu,Livingston,67.04,106.59,72.57,124.74,303.91,Single-ply,SBD,M
Boys,67.13,12,Jason Williams,Huntington,65.23,97.52,61.23,124.74,283.5,Single-ply,SBD,M
Boys,67.13,13,Kalvin Doyle,Shepherd,65.23,63.5,38.56,68.04,170.1,Single-ply,SBD,M
Boys,74.84,DQ,David Muñoz,Shepherd,67.31,,,,,Single-ply,SBD,M
Boys,67.13,DQ,Jay Harris,Huntington,64.23,133.81,95.25,,,Single-ply,SBD,M
Boys,67.13,DQ,Lane Williams,Huntington,66.77,102.06,,,,Single-ply,SBD,M
Boys,74.84,1,David Saucedo,Shepherd,71.67,188.24,115.67,208.65,512.56,Single-ply,SBD,M
Boys,74.84,2,Kirby Nielsen,Livingston,71.58,195.04,113.4,163.29,471.74,Single-ply,SBD,M
Boys,74.84,3,Arthur Maxwell,Shepherd,71.94,188.24,90.72,190.51,469.47,Single-ply,SBD,M
Boys,74.84,4,Luis Guzman,Cleveland,72.67,181.44,102.06,183.7,467.2,Single-ply,SBD,M
Boys,74.84,5,Cameron Rhodman,Beaumont Ozen,70.67,181.44,83.91,183.7,449.06,Single-ply,SBD,M
Boys,74.84,6,Ty Higginbotham,Splendora,71.03,154.22,92.99,201.85,449.06,Single-ply,SBD,M
Boys,74.84,7,Jacob Cook,Splendora,73.3,163.29,104.33,163.29,430.91,Single-ply,SBD,M
Boys,74.84,8,Sammy Vaughn,Livingston,74.71,133.81,104.33,174.63,412.77,Single-ply,SBD,M
Boys,74.84,9,Phillip Noble,Woodville,68.31,151.95,70.31,147.42,369.68,Single-ply,SBD,M
Boys,74.84,10,Easton McClain,Livingston,70.22,161.03,86.18,108.86,356.07,Single-ply,SBD,M
Boys,74.84,11,Chris Fredregill,Huntington,69.22,108.86,77.11,140.61,326.59,Single-ply,SBD,M
Boys,74.84,12,Christopher Lewis,Beaumont Ozen,71.03,108.86,74.84,104.33,288.03,Single-ply,SBD,M
Boys,74.84,DQ,Kody Quibodeaux,Shepherd,72.39,95.25,56.7,113.4,,Single-ply,SBD,M
Boys,74.84,DQ,Xavier Mitchell,Beaumont Central,71.12,,,,,Single-ply,SBD,M
Boys,74.84,DQ,Monroe Earl,Beaumont Central,71.4,102.06,,,,Single-ply,SBD,M
Boys,74.84,DQ,Josh Packard,Huntington,73.94,145.15,,,,Single-ply,SBD,M
Boys,82.1,1,Christian Andrews,Beaumont Ozen,80.65,204.12,147.42,226.8,578.33,Single-ply,SBD,M
Boys,82.1,2,Blayne Elster,Livingston,81.96,233.6,108.86,215.46,557.92,Single-ply,SBD,M
Boys,82.1,3,Dustin Meadows,Cleveland,79.74,199.58,129.27,195.04,523.9,Single-ply,SBD,M
Boys,82.1,4,Jerricho Samuel,Newton,77.38,165.56,124.74,197.31,487.61,Single-ply,SBD,M
Boys,82.1,5,Corey Mitchell,Woodville,79.92,167.83,104.33,213.19,485.34,Single-ply,SBD,M
Boys,82.1,6,Blake Whitton,Cleveland,80.47,176.9,106.59,174.63,458.13,Single-ply,SBD,M
Boys,82.1,7,Jonathan Winfield,Liberty,79.65,158.76,102.06,188.24,449.06,Single-ply,SBD,M
Boys,82.1,8,Iaaron Lemelle,Beaumont Ozen,76.02,136.08,106.59,170.1,412.77,Single-ply,SBD,M
Boys,82.1,DQ,La'Sedric Williams,Newton,77.11,172.37,111.13,,,Single-ply,SBD,M
Boys,82.1,DQ,Janaro Orduna,Livingston,80.2,,,,,Single-ply,SBD,M
Boys,89.81,1,Trey Annonson,Cleveland,88.18,238.14,161.03,210.92,610.08,Single-ply,SBD,M
Boys,89.81,2,Matthew Glenn,Newton,83.28,215.46,149.69,242.67,607.81,Single-ply,SBD,M
Boys,89.81,3,Anthony Breed,Beaumont Ozen,88.99,181.44,147.42,238.14,566.99,Single-ply,SBD,M
Boys,89.81,4,Haden Armstrong,Corrigan-Camden,84.01,197.31,117.93,204.12,519.36,Single-ply,SBD,M
Boys,89.81,5,Chris Rue,Livingston,86.77,181.44,117.93,204.12,503.49,Single-ply,SBD,M
Boys,99.79,6,Garrett Derouren,Woodville,89.99,179.17,115.67,190.51,485.34,Single-ply,SBD,M
Boys,89.81,7,Adrian Lacy,Woodville,89.81,197.31,90.72,190.51,478.54,Single-ply,SBD,M
Boys,89.81,8,Caesar Felipe,Corrigan-Camden,87,192.78,83.91,176.9,453.59,Single-ply,SBD,M
Boys,89.81,9,Jacob Cartwright,Huntington,85.73,165.56,102.06,167.83,435.45,Single-ply,SBD,M
Boys,89.81,10,Chris Mann,Cleveland,84.19,170.1,79.38,181.44,430.91,Single-ply,SBD,M
Boys,99.79,DQ,Matthew Moore,Beaumont Central,89.9,190.51,,,,Single-ply,SBD,M
Boys,89.81,DQ,Felix Johnson,Woodville,86.27,,,,,Single-ply,SBD,M
Boys,109.77,1,Mark Armstrong,Corrigan-Camden,99.97,272.16,170.1,276.69,718.94,Single-ply,SBD,M
Boys,99.79,2,Darren Stewart,Splendora,97.89,294.84,167.83,254.01,716.68,Single-ply,SBD,M
Boys,99.79,3,Ryan McClain,Livingston,90.54,217.72,138.35,242.67,598.74,Single-ply,SBD,M
Boys,99.79,4,Nathan Brantner,Splendora,91.17,204.12,165.56,226.8,596.47,Single-ply,SBD,M
Boys,99.79,5,Chris Pegues,Newton,93.44,215.46,104.33,235.87,555.65,Single-ply,SBD,M
Boys,109.77,6,Austin Galloway,Livingston,99.88,210.92,136.08,206.38,553.38,Single-ply,SBD,M
Boys,99.79,7,Carlos Inguanzo,Corrigan-Camden,97.98,197.31,108.86,199.58,505.76,Single-ply,SBD,M
Boys,99.79,8,Luke Mangum,Liberty,90.26,204.12,102.06,190.51,496.68,Single-ply,SBD,M
Boys,99.79,9,Jerry Dinh,Beaumont Central,90.63,174.63,136.08,185.97,496.68,Single-ply,SBD,M
Boys,99.79,10,Will Capp,Huntington,98.34,174.63,104.33,174.63,453.59,Single-ply,SBD,M
Boys,99.79,11,Brett Attwood,Cleveland,94.89,181.44,104.33,163.29,449.06,Single-ply,SBD,M
Boys,99.79,12,J Tyler,Port Arthur Memorial,92.9,133.81,88.45,174.63,396.89,Single-ply,SBD,M
Boys,99.79,DQ,Devante Mays,Livingston,95.53,229.06,,,,Single-ply,SBD,M
Boys,99.79,DQ,Augus Roberts,Liberty,97.89,208.65,,,,Single-ply,SBD,M
Boys,109.77,1,Joaquin Trevino,Splendora,107.5,258.55,195.04,226.8,680.39,Single-ply,SBD,M
Boys,109.77,2,Allen Harris,Beaumont Central,102.15,226.8,149.69,254.01,630.49,Single-ply,SBD,M
Boys,109.77,3,Taylor Guidry,Newton,102.87,208.65,127.01,231.33,566.99,Single-ply,SBD,M
Boys,109.77,4,Randol Wiggins,Liberty,108.5,213.19,127.01,213.19,553.38,Single-ply,SBD,M
Boys,109.77,5,Devontae Burrell,Corrigan-Camden,107.32,190.51,113.4,215.46,519.36,Single-ply,SBD,M
Boys,109.77,6,S. Brown,Port Arthur Memorial,108.59,204.12,108.86,204.12,517.1,Single-ply,SBD,M
Boys,109.77,7,Coy Brown,Corrigan-Camden,109.13,210.92,106.59,181.44,498.95,Single-ply,SBD,M
Boys,109.77,8,Jacob Slaughter,Huntington,108.77,176.9,99.79,204.12,480.81,Single-ply,SBD,M
Boys,109.77,9,Jimmy Hernandez,Huffman Hargrave,106.87,156.49,102.06,142.88,401.43,Single-ply,SBD,M
Boys,109.77,10,Jacob Cates,Livingston,107.86,136.08,68.04,117.93,322.05,Single-ply,SBD,M
Boys,109.77,DQ,Blake Burman,Livingston,102.42,195.04,92.99,,,Single-ply,SBD,M
Boys,109.77,DQ,Devonte Green,Newton,108.41,,,,,Single-ply,SBD,M
Boys,109.77,DQ,Perry Stevens,Liberty,109.68,,,,,Single-ply,SBD,M
Boys,109.77,DQ,Luis Cruz,Shepherd,103.87,188.24,,,,Single-ply,SBD,M
Boys,124.74,1,Nick Quintanar,Splendora,117.39,242.67,131.54,226.8,601.01,Single-ply,SBD,M
Boys,124.74,2,Tyler Cromeens,Splendora,118.93,215.46,136.08,206.38,557.92,Single-ply,SBD,M
Boys,124.74,3,Miguel Banda,Cleveland,112.13,217.72,131.54,183.7,532.97,Single-ply,SBD,M
Boys,124.74,DQ,R Marks,Port Arthur Memorial,123.29,179.17,,,,Single-ply,SBD,M
Boys,124.74,DQ,Charlie Courvelle,Shepherd,122.47,,,,,Single-ply,SBD,M
Boys,124.74+,1,Travis Randall,Splendora,125.01,276.69,172.37,247.21,696.26,Single-ply,SBD,M
Boys,124.74+,2,Josh Sell,Liberty,149.69,272.16,185.97,238.14,696.26,Single-ply,SBD,M
Boys,124.74+,3,Dakerrian Wyatt,Livingston,127.73,244.94,145.15,276.69,666.78,Single-ply,SBD,M
Boys,124.74+,4,Dj Cratic,Corrigan-Camden,127.19,272.16,156.49,210.92,639.57,Single-ply,SBD,M
Boys,124.74+,5,Omar Tebo,Liberty,138.07,240.4,154.22,238.14,632.76,Single-ply,SBD,M
Boys,124.74+,6,Nashon Edwards,Beaumont Ozen,155.85,235.87,136.08,244.94,616.89,Single-ply,SBD,M
Boys,124.74+,7,Zach Kennedy,Corrigan-Camden,127.28,240.4,117.93,199.58,557.92,Single-ply,SBD,M
Boys,124.74+,8,Colton Placker,Livingston,131.72,199.58,129.27,192.78,521.63,Single-ply,SBD,M
Boys,124.74+,9,Abel Gonzalez,Livingston,140.61,197.31,102.06,183.7,483.08,Single-ply,SBD,M
Boys,124.74+,DQ,Cullen Burch,Cleveland,139.34,,,,,Single-ply,SBD,M
Boys,124.74+,DQ,J Ned,Port Arthur Memorial,130.91,183.7,106.59,,,Single-ply,SBD,M
