Division,WeightClassKg,Place,Name,Team,BodyweightKg,Best3SquatKg,Best3BenchKg,Best3DeadliftKg,TotalKg,Equipment,Event,Sex
Boys,51.71,1,Robert Gonzalez,Laredo Cigarroa,51.53,151.95,83.91,158.76,394.63,Single-ply,SBD,M
Boys,51.71,2,Danny Ruiz,Zapata,49.71,138.35,68.04,156.49,362.87,Single-ply,SBD,M
Boys,51.71,3,Oscar Martel,Laredo United South,47.99,122.47,83.91,136.08,342.46,Single-ply,SBD,M
Boys,51.71,4,Ramiro Trevino,Laredo Nixon,48.72,117.93,65.77,142.88,326.59,Single-ply,SBD,M
Boys,51.71,5,Robert VanNest,Zapata,49.8,90.72,70.31,113.4,274.42,Single-ply,SBD,M
Boys,51.71,6,Alex Gallegos,Carrizo Springs,51.71,86.18,54.43,108.86,249.48,Single-ply,SBD,M
Boys,51.71,7,Eddie Macias,Laredo Nixon,46.27,72.57,47.63,83.91,204.12,Single-ply,SBD,M
Boys,51.71,DQ,Aaron Fuentes,Zapata,50.08,127.01,65.77,,,Single-ply,SBD,M
Boys,55.79,1,Jesus Trevino,Zapata,54.43,170.1,97.52,188.24,455.86,Single-ply,SBD,M
Boys,55.79,2,David Lozano,Roma,52.89,136.08,68.04,136.08,340.19,Single-ply,SBD,M
Boys,55.79,3,Justin Brady,Carrizo Springs,55.07,106.59,68.04,147.42,322.05,Single-ply,SBD,M
Boys,59.87,1,Mac Gomez,Zapata,58.88,219.99,97.52,213.19,530.7,Single-ply,SBD,M
Boys,59.87,2,Mario Saldivar,Laredo Alexander,57.79,156.49,88.45,165.56,410.5,Single-ply,SBD,M
Boys,59.87,3,Jonathan Diaz,Laredo Martin,59.33,142.88,70.31,154.22,367.41,Single-ply,SBD,M
Boys,59.87,DQ,JC Gutierrez,Zapata,59.6,158.76,,,,Single-ply,SBD,M
Boys,67.13,1,Josue Tobias,Laredo Nixon,65.59,217.72,120.2,226.8,564.72,Single-ply,SBD,M
Boys,67.13,2,Oscar Galvan,Laredo United South,66.5,185.97,127.01,201.85,514.83,Single-ply,SBD,M
Boys,67.13,3,Luis Perales,Carrizo Springs,65.14,183.7,124.74,192.78,501.22,Single-ply,SBD,M
Boys,67.13,4,Bryan Garcia,Roma,65.86,170.1,99.79,163.29,433.18,Single-ply,SBD,M
Boys,67.13,5,Jeremy Jimenez,Laredo United South,61.87,142.88,79.38,179.17,401.43,Single-ply,SBD,M
Boys,67.13,6,Albert Betancourt,Laredo Johnson,64.23,142.88,74.84,170.1,387.82,Single-ply,SBD,M
Boys,67.13,7,Joseph Lozano,Laredo Nixon,66.59,142.88,77.11,163.29,383.29,Single-ply,SBD,M
Boys,67.13,8,Joel Leyva,Laredo United South,62.69,115.67,92.99,163.29,371.95,Single-ply,SBD,M
Boys,67.13,9,Rodney Garcia,Carrizo Springs,62.51,124.74,68.04,174.63,367.41,Single-ply,SBD,M
Boys,67.13,10,Felix Ruiz,Laredo Nixon,66.22,136.08,86.18,142.88,365.14,Single-ply,SBD,M
Boys,67.13,11,Sergio Ponce,Laredo Martin,64.23,147.42,74.84,133.81,356.07,Single-ply,SBD,M
Boys,67.13,12,Robert Garcia,Laredo Alexander,66.22,115.67,77.11,142.88,335.66,Single-ply,SBD,M
Boys,67.13,13,Albert Laurel,Laredo Alexander,62.41,95.25,68.04,108.86,272.16,Single-ply,SBD,M
Boys,67.13,14,Andrew Gonzalez,Laredo Alexander,64.59,95.25,49.9,113.4,258.55,Single-ply,SBD,M
Boys,67.13,14,Juan Guerrero,Laredo United South,66.95,122.47,74.84,147.42,344.73,Single-ply,SBD,M
Boys,74.84,1,Rene Cabrera,Laredo Cigarroa,73.03,226.8,108.86,172.37,508.02,Single-ply,SBD,M
Boys,74.84,2,Eddie Pedraza,Laredo United,68.04,138.35,111.13,181.44,430.91,Single-ply,SBD,M
Boys,74.84,3,Eric Gonzales #2,Carrizo Springs,71.94,136.08,90.72,183.7,410.5,Single-ply,SBD,M
Boys,74.84,4,Chris Casarez,Laredo United,69.94,142.88,102.06,161.03,405.97,Single-ply,SBD,M
Boys,74.84,5,Jose Moreno,Roma,69.67,147.42,86.18,165.56,399.16,Single-ply,SBD,M
Boys,74.84,6,Frederico Mendez,Laredo Martin,71.58,147.42,83.91,165.56,396.89,Single-ply,SBD,M
Boys,74.84,7,Zake Coss,Laredo Alexander,72.76,140.61,92.99,151.95,385.55,Single-ply,SBD,M
Boys,74.84,8,Albert Garcia,Laredo Johnson,70.13,151.95,88.45,138.35,378.75,Single-ply,SBD,M
Boys,74.84,9,Frankie Mendez,Carrizo Springs,69.49,129.27,88.45,151.95,369.68,Single-ply,SBD,M
Boys,74.84,10,Ricky Gomez,Laredo Nixon,70.13,131.54,72.57,156.49,360.61,Single-ply,SBD,M
Boys,74.84,11,Freddy Sepulveda,Laredo Cigarroa,72.12,133.81,79.38,142.88,356.07,Single-ply,SBD,M
Boys,74.84,12,Jacoby Torres,Laredo Alexander,71.58,131.54,81.65,140.61,353.8,Single-ply,SBD,M
Boys,74.84,13,Armando Villanueva,Laredo United,74.84,111.13,92.99,142.88,347,Single-ply,SBD,M
Boys,74.84,15,Pablo Ramirez,Laredo Alexander,74.12,115.67,72.57,133.81,322.05,Single-ply,SBD,M
Boys,74.84,16,Carlos Huerta,Laredo Alexander,69.76,83.91,65.77,106.59,256.28,Single-ply,SBD,M
Boys,82.1,1,Jordan Perez,Laredo United South,81.28,201.85,129.27,201.85,532.97,Single-ply,SBD,M
Boys,82.1,2,Emmanuel Garza,Laredo United,79.92,181.44,124.74,213.19,519.36,Single-ply,SBD,M
Boys,82.1,3,Victor Villarreal,Laredo Martin,80.1,197.31,92.99,204.12,494.42,Single-ply,SBD,M
Boys,82.1,4,Leo Benavides,Laredo Johnson,79.74,190.51,99.79,179.17,469.47,Single-ply,SBD,M
Boys,82.1,5,Joel Barrera,Roma,82.1,176.9,92.99,181.44,451.32,Single-ply,SBD,M
Boys,82.1,6,Luis Rodriguez,Laredo Nixon,79.83,170.1,92.99,181.44,444.52,Single-ply,SBD,M
Boys,82.1,7,Kim Ho,Laredo Martin,80.83,151.95,90.72,183.7,426.38,Single-ply,SBD,M
Boys,82.1,8,Raul Solis,Laredo Cigarroa,76.57,136.08,81.65,145.15,362.87,Single-ply,SBD,M
Boys,82.1,9,Joshua Rodriguez,Laredo Alexander,76.38,92.99,61.23,102.06,256.28,Single-ply,SBD,M
Boys,82.1,DQ,Jonathan Brooks,Laredo Martin,76.48,188.24,,,,Single-ply,SBD,M
Boys,89.81,1,David Luna,Laredo Johnson,88.45,249.48,124.74,226.8,601.01,Single-ply,SBD,M
Boys,89.81,2,Benny Cazares,Laredo United,86.45,201.85,147.42,217.72,566.99,Single-ply,SBD,M
Boys,89.81,3,Kevin Martinez,Laredo United South,83.82,199.58,129.27,192.78,521.63,Single-ply,SBD,M
Boys,89.81,4,Omar Galan,Laredo Alexander,88.72,176.9,129.27,199.58,505.76,Single-ply,SBD,M
Boys,89.81,5,Mario Mendoza,Carrizo Springs,85.73,176.9,120.2,185.97,483.08,Single-ply,SBD,M
Boys,89.81,6,Gregorio Sandoval,Laredo Martin,88.54,165.56,92.99,188.24,446.79,Single-ply,SBD,M
Boys,89.81,7,Christopher Nenque,Laredo Nixon,88.81,147.42,83.91,138.35,369.68,Single-ply,SBD,M
Boys,89.81,8,Santino Palzo,Laredo Alexander,87.36,133.81,92.99,136.08,362.87,Single-ply,SBD,M
Boys,99.79,1,Hugo Zamora,Laredo Cigarroa,95.07,244.94,154.22,217.72,616.89,Single-ply,SBD,M
Boys,99.79,2,Joseph Jimenez,Laredo United South,90.63,204.12,136.08,231.33,571.53,Single-ply,SBD,M
Boys,99.79,3,Victor Lozano,Laredo Nixon,91.72,206.38,111.13,195.04,512.56,Single-ply,SBD,M
Boys,99.79,4,Daniel Uribe,Laredo Johnson,98.07,165.56,86.18,206.38,458.13,Single-ply,SBD,M
Boys,99.79,5,Cruz Montez,Carrizo Springs,92.53,154.22,115.67,163.29,433.18,Single-ply,SBD,M
Boys,99.79,6,Ray Perez,Laredo Alexander,96.34,142.88,102.06,147.42,392.36,Single-ply,SBD,M
Boys,99.79,7,Alesando Saldana,Laredo Alexander,99.52,129.27,90.72,154.22,374.21,Single-ply,SBD,M
Boys,99.79,8,Kristian Korrodi,Laredo Alexander,96.62,129.27,92.99,142.88,365.14,Single-ply,SBD,M
Boys,99.79,9,Luis Canales,Laredo Alexander,94.35,131.54,90.72,129.27,351.53,Single-ply,SBD,M
Boys,109.77,1,Franco Arce,Zapata,102.97,272.16,122.47,254.01,648.64,Single-ply,SBD,M
Boys,109.77,2,Eddie Dominguez,Laredo United,101.79,226.8,117.93,226.8,571.53,Single-ply,SBD,M
Boys,109.77,3,Michael Almedina,Zapata,105.14,195.04,104.33,217.72,517.1,Single-ply,SBD,M
Boys,109.77,4,Abel Mendoza,Laredo Nixon,108.59,192.78,124.74,197.31,514.83,Single-ply,SBD,M
Boys,109.77,5,Julian Gonzalez,Laredo Johnson,107.86,188.24,108.86,215.46,512.56,Single-ply,SBD,M
Boys,109.77,6,Joseph Gomez,Laredo United,107.77,188.24,120.2,181.44,489.88,Single-ply,SBD,M
Boys,109.77,7,Adrian Casso,Laredo Johnson,105.78,197.31,74.84,190.51,462.66,Single-ply,SBD,M
Boys,109.77,8,Jason Gallegos,Carrizo Springs,109.23,161.03,115.67,172.37,449.06,Single-ply,SBD,M
Boys,109.77,9,Jesus Moreno,Laredo Alexander,100.7,151.95,104.33,176.9,433.18,Single-ply,SBD,M
Boys,109.77,10,Jesus Mercado,Roma,105.78,136.08,99.79,163.29,399.16,Single-ply,SBD,M
Boys,109.77,11,Matthew Vasquez,Laredo Alexander,107.05,136.08,79.38,172.37,387.82,Single-ply,SBD,M
Boys,109.77,12,Luis Gonzalez,Laredo Alexander,108.95,99.79,77.11,133.81,310.71,Single-ply,SBD,M
Boys,109.77,DQ,Frankie Galan,Roma,102.78,117.93,95.25,,,Single-ply,SBD,M
Boys,124.74,1,Erick Chapa,Zapata,119.02,249.48,142.88,222.26,614.62,Single-ply,SBD,M
Boys,124.74,2,Fransisco Torrecilla,Laredo Nixon,116.94,240.4,117.93,254.01,612.35,Single-ply,SBD,M
Boys,124.74,3,Oscar Zepeda,Zapata,115.76,217.72,147.42,208.65,573.79,Single-ply,SBD,M
Boys,124.74,4,Matthew Castro,Carrizo Springs,121.79,224.53,117.93,222.26,564.72,Single-ply,SBD,M
Boys,124.74,5,Jacob Reyna,Laredo Cigarroa,117.12,235.87,122.47,204.12,562.45,Single-ply,SBD,M
Boys,124.74,6,Reynaldo Martinez,Laredo Martin,114.4,208.65,106.59,215.46,530.7,Single-ply,SBD,M
Boys,124.74,7,Reynaldo Martinez,Laredo Johnson,123.2,206.38,113.4,210.92,530.7,Single-ply,SBD,M
Boys,124.74,8,Marcos Solis,Roma,117.12,217.72,120.2,190.51,528.44,Single-ply,SBD,M
Boys,124.74,9,Eddie Villanueva,Laredo Cigarroa,123.1,206.38,120.2,181.44,508.02,Single-ply,SBD,M
Boys,124.74,10,Jordan Lopez,Laredo United,111.67,181.44,131.54,183.7,496.68,Single-ply,SBD,M
Boys,124.74,11,Max Villarreal,Laredo United,116.48,195.04,74.84,195.04,464.93,Single-ply,SBD,M
Boys,124.74,12,Marco Pardo,Laredo Cigarroa,115.03,197.31,74.84,179.17,451.32,Single-ply,SBD,M
Boys,124.74,13,Adrian Fuentes,Laredo Cigarroa,116.75,183.7,97.52,170.1,451.32,Single-ply,SBD,M
Boys,124.74,14,Jorge Gutierrez,Laredo Cigarroa,112.4,156.49,79.38,204.12,439.98,Single-ply,SBD,M
Boys,124.74,DQ,Gabino Barrera,Roma,114.76,240.4,,,,Single-ply,SBD,M
Boys,124.74+,1,Carlos Sanchez,Laredo United South,127.37,340.19,145.15,294.84,780.18,Single-ply,SBD,M
Boys,124.74+,2,Hugo Martinez,Zapata,129.91,297.1,145.15,267.62,709.87,Single-ply,SBD,M
Boys,124.74+,3,Guadalupe Gonzalez,Laredo Martin,135.44,267.62,133.81,251.74,653.17,Single-ply,SBD,M
Boys,124.74+,4,Jose Salvador,Laredo United South,138.03,235.87,158.76,226.8,621.42,Single-ply,SBD,M
Boys,124.74+,5,Mario Chavez,Carrizo Springs,183.7,224.53,176.9,213.19,614.62,Single-ply,SBD,M
Boys,124.74+,6,Jose Beltran,Laredo Martin,133.17,229.06,147.42,206.38,582.87,Single-ply,SBD,M
Boys,124.74+,7,Juan Vieyra,Laredo Johnson,141.97,204.12,122.47,217.72,544.31,Single-ply,SBD,M
Boys,124.74+,8,Isaac Peredes,Laredo United South,153.86,201.85,142.88,181.44,526.17,Single-ply,SBD,M
Boys,124.74+,9,Luis Barron,Laredo Johnson,132.09,201.85,111.13,197.31,510.29,Single-ply,SBD,M
Boys,124.74+,10,Miguel Rubio,Laredo Alexander,138.35,142.88,92.99,151.95,387.82,Single-ply,SBD,M
Boys,124.74+,DQ,Simon Arenasas,Laredo Nixon,128.09,136.08,61.23,,,Single-ply,SBD,M
