Division,WeightClassKg,Place,Name,Team,BodyweightKg,Best3SquatKg,Best3BenchKg,Best3DeadliftKg,TotalKg,Equipment,Event,Sex
Boys,51.71,1,Charles Rogers,Crowley,51.71,138.35,83.91,147.42,369.68,Single-ply,SBD,M
Boys,51.71,2,Cesar Ledesma,Burleson,48.08,133.81,74.84,145.15,353.8,Single-ply,SBD,M
Boys,51.71,3,Josh Lambert,Burleson Centennial,49.9,108.86,56.7,122.47,288.03,Single-ply,SBD,M
Boys,51.71,4,Jd Davis,Joshua,49.9,108.86,65.77,108.86,283.5,Single-ply,SBD,M
Boys,55.79,1,Dylan Quintero,Burleson Centennial,54.88,145.15,79.38,158.76,383.29,Single-ply,SBD,M
Boys,55.79,2,David Cook,Burleson Centennial,54.88,131.54,86.18,156.49,374.21,Single-ply,SBD,M
Boys,55.79,3,Alex Renteria,Burleson,54.88,111.13,68.04,145.15,324.32,Single-ply,SBD,M
Boys,59.87,1,Jason Jones,Burleson,59.42,210.92,111.13,222.26,544.31,Single-ply,SBD,M
Boys,59.87,2,Jacob Moss,Burleson,59.87,151.95,95.25,185.97,433.18,Single-ply,SBD,M
Boys,67.13,1,Chandler Brown,Burleson,66.68,197.31,122.47,204.12,523.9,Single-ply,SBD,M
Boys,67.13,2,Ross Martinez,Midlothian,65.77,192.78,102.06,195.04,489.88,Single-ply,SBD,M
Boys,67.13,3,Jacob Hughes,Joshua,67.13,172.37,120.2,181.44,474,Single-ply,SBD,M
Boys,67.13,4,Jorden Robinson,Crowley,61.69,158.76,113.4,167.83,439.98,Single-ply,SBD,M
Boys,67.13,5,Isaac Brown,Midlothian,65.32,151.95,92.99,195.04,439.98,Single-ply,SBD,M
Boys,67.13,6,Jeff Kirvan,Burleson Centennial,66.68,163.29,102.06,161.03,426.38,Single-ply,SBD,M
Boys,67.13,7,Matthew Lacey,Cleburne,62.6,165.56,90.72,149.69,405.97,Single-ply,SBD,M
Boys,67.13,8,Joshua Oyewole,North Crowley,62.6,158.76,83.91,158.76,401.43,Single-ply,SBD,M
Boys,67.13,9,Logan Adams,Midlothian,65.77,113.4,79.38,154.22,347,Single-ply,SBD,M
Boys,67.13,10,James Fletcher,Burleson Centennial,62.6,136.08,58.97,131.54,326.59,Single-ply,SBD,M
Boys,67.13,DQ,Jayden Huse,Midlothian,61.23,151.95,,,,Single-ply,SBD,M
Boys,74.84,1,Tyrone Pettiford,North Crowley,72.12,183.7,90.72,235.87,510.29,Single-ply,SBD,M
Boys,74.84,2,Casey Jackson,Burleson,74.39,190.51,106.59,190.51,487.61,Single-ply,SBD,M
Boys,74.84,3,Zion Ababio,Burleson Centennial,69.85,163.29,83.91,172.37,419.57,Single-ply,SBD,M
Boys,74.84,DQ,Wesley Free,Cleburne,71.67,174.63,,,,Single-ply,SBD,M
Boys,82.1,1,Jayton DeLeon,Midlothian,78.93,226.8,129.27,222.26,578.33,Single-ply,SBD,M
Boys,82.1,2,Hunter Cunningham,Burleson,82.1,197.31,127.01,222.26,546.58,Single-ply,SBD,M
Boys,82.1,3,Jc Mueller,Burleson,81.19,195.04,117.93,197.31,510.29,Single-ply,SBD,M
Boys,82.1,4,Aaron Bodine,Joshua,81.19,158.76,127.01,183.7,469.47,Single-ply,SBD,M
Boys,82.1,5,Jakobe Tutt,North Crowley,78.02,151.95,92.99,199.58,444.52,Single-ply,SBD,M
Boys,82.1,6,Coleman Barney,Cleburne,81.19,142.88,70.31,163.29,376.48,Single-ply,SBD,M
Boys,82.1,7,Nathan McLain,Crowley,77.11,102.06,83.91,149.69,335.66,Single-ply,SBD,M
Boys,82.1,8,Dylan Meador,Crowley,78.02,68.04,61.23,102.06,231.33,Single-ply,SBD,M
Boys,82.1,DQ,Brennan Strebeck,Joshua,79.83,149.69,111.13,,,Single-ply,SBD,M
Boys,89.81,1,Brek Galbreath,Joshua,86.18,226.8,161.03,226.8,614.62,Single-ply,SBD,M
Boys,89.81,2,Eric Ortega,Burleson Centennial,89.81,201.85,120.2,204.12,526.17,Single-ply,SBD,M
Boys,89.81,3,Kenny Long,Burleson Centennial,83.46,213.19,108.86,199.58,521.63,Single-ply,SBD,M
Boys,89.81,4,Jared Johnson,Joshua,88.45,172.37,90.72,190.51,453.59,Single-ply,SBD,M
Boys,89.81,5,Cole Porter,Burleson Centennial,88.45,142.88,90.72,161.03,394.63,Single-ply,SBD,M
Boys,99.79,1,Dylan Hipsman,Midlothian,97.07,272.16,102.06,272.16,646.37,Single-ply,SBD,M
Boys,99.79,2,Michael Kornak,Burleson Centennial,98.43,222.26,120.2,231.33,573.79,Single-ply,SBD,M
Boys,99.79,3,Tyler Massingill,Burleson,99.79,229.06,111.13,215.46,555.65,Single-ply,SBD,M
Boys,99.79,4,Zach Scarbrough,Burleson Centennial,97.98,185.97,136.08,206.38,528.44,Single-ply,SBD,M
Boys,99.79,5,Chris Hillard,Burleson Centennial,97.98,204.12,120.2,197.31,521.63,Single-ply,SBD,M
Boys,99.79,6,Mykol Clark,Crowley,93.44,199.58,111.13,204.12,514.83,Single-ply,SBD,M
Boys,99.79,7,Reid Steele,Crowley,91.63,192.78,113.4,165.56,471.74,Single-ply,SBD,M
Boys,99.79,8,Mathu Blanton,Cleburne,97.07,190.51,106.59,170.1,467.2,Single-ply,SBD,M
Boys,99.79,9,Keairis Thompson,North Crowley,92.99,165.56,106.59,192.78,464.93,Single-ply,SBD,M
Boys,99.79,10,Hector Alvardo,Crowley,95.71,172.37,124.74,158.76,455.86,Single-ply,SBD,M
Boys,109.77,1,Jordan Mauntel,Burleson,109.32,242.67,154.22,258.55,655.44,Single-ply,SBD,M
Boys,109.77,2,Dj Frizzell,Midlothian,108.86,197.31,151.95,195.04,544.31,Single-ply,SBD,M
Boys,109.77,3,Chris Jones,North Crowley,109.77,204.12,102.06,197.31,503.49,Single-ply,SBD,M
Boys,109.77,4,Blake Jones,North Crowley,106.59,183.7,111.13,204.12,498.95,Single-ply,SBD,M
Boys,109.77,5,Ricky Villanueva,Cleburne,105.23,199.58,124.74,167.83,492.15,Single-ply,SBD,M
Boys,109.77,6,Corbin Bagby,Midlothian,106.59,165.56,111.13,181.44,458.13,Single-ply,SBD,M
Boys,109.77,7,Tracy Fields,Crowley,104.78,172.37,92.99,156.49,421.84,Single-ply,SBD,M
Boys,109.77,DQ,Blake Edgington,Joshua,107.95,263.08,156.49,,,Single-ply,SBD,M
Boys,109.77,DQ,Thomas Godi,Burleson Centennial,107.05,283.5,181.44,,,Single-ply,SBD,M
Boys,124.74,1,Talwinder Singh,North Crowley,119.29,258.55,142.88,242.67,644.1,Single-ply,SBD,M
Boys,124.74,2,Marquis Jones,North Crowley,117.48,206.38,115.67,179.17,501.22,Single-ply,SBD,M
Boys,124.74,DQ,Tyler Washington,North Crowley,113.4,183.7,,,,Single-ply,SBD,M
Boys,124.74,DQ,Colin Nikirk,North Crowley,121.11,161.03,,,,Single-ply,SBD,M
Boys,124.74,DQ,Nick Ingram,Crowley,115.67,115.67,,,,Single-ply,SBD,M
Boys,124.74,DQ,Jaterrius Pleasant,Burleson,122.02,,,,,Single-ply,SBD,M
Boys,124.74+,1,Richard Cuellar,Cleburne,132,308.44,172.37,201.85,682.66,Single-ply,SBD,M
Boys,124.74+,2,Duane Johnson,Midlothian,125.19,235.87,170.1,244.94,650.91,Single-ply,SBD,M
Boys,124.74+,3,Thomas Ray,Midlothian,147.42,197.31,117.93,195.04,510.29,Single-ply,SBD,M
Boys,124.74+,4,Clayton Mitchell,North Crowley,135.62,192.78,117.93,195.04,505.76,Single-ply,SBD,M
Boys,124.74+,DQ,Dylan Sykes,Crowley,132.45,,,,,Single-ply,SBD,M
Boys,124.74+,DQ,Nathan Perdue,Crowley,135.62,,,,,Single-ply,SBD,M
Boys,,NS,Nicholas LeBlanc,Crowley,,,,,,Single-ply,SBD,M
Boys,,NS,Jacob Witte,Cleburne,,,,,,Single-ply,SBD,M
Boys,,NS,Kody Arsenault,Cleburne,,,,,,Single-ply,SBD,M
Boys,,NS,Issac Smith,Cleburne,,,,,,Single-ply,SBD,M
Boys,,NS,Tristan Little,Midlothian,,,,,,Single-ply,SBD,M
