Division,WeightClassKg,Place,Name,Team,BodyweightKg,Best3SquatKg,Best3BenchKg,Best3DeadliftKg,TotalKg,Equipment,Event,Sex
Boys,51.71,1,Damian Gonzalez,Roma,51.48,167.83,95.25,181.44,444.52,Single-ply,SBD,M
Boys,51.71,2,Héctor Ramírez,Roma,51.03,129.27,77.11,142.88,349.27,Single-ply,SBD,M
Boys,51.71,3,Juan Sanchez,Laredo Cigarroa,51.71,127.01,86.18,124.74,337.93,Single-ply,SBD,M
Boys,51.71,4,Francisco Villarreal,Laredo Nixon,49.17,90.72,63.5,113.4,267.62,Single-ply,SBD,M
Boys,55.79,1,Everardo Garcia,Roma,53.71,195.04,97.52,185.97,478.54,Single-ply,SBD,M
Boys,55.79,2,Silverado Martinez,Roma,54.07,129.27,61.23,138.35,328.85,Single-ply,SBD,M
Boys,55.79,3,Alex Comparan,Laredo Nixon,53.52,127.01,63.5,111.13,301.64,Single-ply,SBD,M
Boys,55.79,4,Jesus De La Rosa,Laredo Nixon,54.34,97.52,47.63,92.99,238.14,Single-ply,SBD,M
Boys,59.87,1,Gabriel Rios,Roma,59.24,136.08,72.57,124.74,333.39,Single-ply,SBD,M
Boys,59.87,2,Jesus Garza,Laredo Cigarroa,58.79,115.67,65.77,124.74,306.17,Single-ply,SBD,M
Boys,67.13,1,Luis Guerra,Laredo Nixon,64.5,149.69,81.65,149.69,381.02,Single-ply,SBD,M
Boys,74.84,1,Joe Chick,Zapata,73.12,192.78,117.93,204.12,514.83,Single-ply,SBD,M
Boys,74.84,2,Perci Alvarez,Zapata,73.84,170.1,113.4,179.17,462.66,Single-ply,SBD,M
Boys,74.84,3,Joseph Ibarra,Laredo Nixon,70.31,149.69,97.52,172.37,419.57,Single-ply,SBD,M
Boys,74.84,4,Miguel Madrigal,Laredo Nixon,72.67,122.47,61.23,183.7,367.41,Single-ply,SBD,M
Boys,74.84,5,Adrian Garza,Zapata,74.84,149.69,72.57,140.61,362.87,Single-ply,SBD,M
Boys,74.84,6,Albert Aguirre,Laredo Cigarroa,71.12,138.35,77.11,138.35,353.8,Single-ply,SBD,M
Boys,82.1,1,Damian Gutierrez,Roma,82.1,213.19,151.95,222.26,587.4,Single-ply,SBD,M
Boys,82.1,2,David Saldana,Zapata,77.75,219.99,124.74,213.19,557.92,Single-ply,SBD,M
Boys,82.1,3,Roberto Rincon,Laredo Martin,82.1,195.04,122.47,183.7,501.22,Single-ply,SBD,M
Boys,82.1,4,Francisco Briones,Laredo United South,76.2,176.9,127.01,183.7,487.61,Single-ply,SBD,M
Boys,82.1,5,Baltazar Perez,Roma,78.29,176.9,102.06,176.9,455.86,Single-ply,SBD,M
Boys,82.1,6,Andrew Sosa,Laredo Nixon,80.92,161.03,95.25,185.97,442.25,Single-ply,SBD,M
Boys,82.1,7,Robey Reyes,Roma,75.93,149.69,90.72,172.37,412.77,Single-ply,SBD,M
Boys,82.1,8,Marcus Zavala,Laredo Martin,78.02,172.37,77.11,154.22,403.7,Single-ply,SBD,M
Boys,82.1,9,Mark Zapata,Laredo Martin,78.47,165.56,83.91,145.15,394.63,Single-ply,SBD,M
Boys,82.1,10,Eddie Garcia,Zapata,79.65,151.95,86.18,156.49,394.63,Single-ply,SBD,M
Boys,82.1,11,Ricardo Herrera,Laredo Alexander,80.29,120.2,61.23,147.42,328.85,Single-ply,SBD,M
Boys,89.81,1,Roel de los Santos,Zapata,88.22,222.26,113.4,222.26,557.92,Single-ply,SBD,M
Boys,89.81,2,Octavio Alcorta,Laredo Martin,89.36,204.12,99.79,188.24,492.15,Single-ply,SBD,M
Boys,89.81,3,Lauro Soto,Laredo Cigarroa,84.37,158.76,92.99,149.69,401.43,Single-ply,SBD,M
Boys,89.81,4,Oscar Arecola,Laredo Martin,85.64,165.56,68.04,167.83,401.43,Single-ply,SBD,M
Boys,89.81,5,Braulio Solis,Laredo Martin,85.91,156.49,70.31,167.83,394.63,Single-ply,SBD,M
Boys,89.81,6,George Dominguez,Laredo Nixon,87.82,154.22,79.38,158.76,392.36,Single-ply,SBD,M
Boys,99.79,1,Alejandro Ayala,Laredo United South,98.43,222.26,113.4,204.12,539.77,Single-ply,SBD,M
Boys,99.79,2,Leo Solis,Zapata,99.34,179.17,124.74,192.78,496.68,Single-ply,SBD,M
Boys,99.79,3,Jaime Garcia,Zapata,98.93,195.04,113.4,163.29,471.74,Single-ply,SBD,M
Boys,99.79,4,Josafat Vazquez,Laredo Alexander,95.62,142.88,88.45,147.42,378.75,Single-ply,SBD,M
Boys,99.79,5,Emilio Alvarez,Laredo Alexander,96.16,147.42,68.04,142.88,358.34,Single-ply,SBD,M
Boys,99.79,6,Gabriel Elizondo,Laredo Alexander,95.98,120.2,65.77,136.08,322.05,Single-ply,SBD,M
Boys,109.77,1,Robert Ramos,Roma,103.24,254.01,127.01,210.92,591.94,Single-ply,SBD,M
Boys,109.77,2,Laurencio Lopez,Roma,109.5,235.87,131.54,219.99,587.4,Single-ply,SBD,M
Boys,109.77,3,Khalid Santiago,Laredo United South,107.32,238.14,117.93,204.12,560.19,Single-ply,SBD,M
Boys,109.77,4,Carlos Garza,Roma,109.5,210.92,142.88,199.58,553.38,Single-ply,SBD,M
Boys,109.77,5,Mark Trujillp,Laredo United South,108.86,172.37,111.13,185.97,469.47,Single-ply,SBD,M
Boys,109.77,6,Kevin Molina,Laredo United South,106.14,147.42,120.2,195.04,462.66,Single-ply,SBD,M
Boys,109.77,7,Felipe Rodriguez,Laredo Cigarroa,102.87,174.63,99.79,176.9,451.32,Single-ply,SBD,M
Boys,109.77,8,Cesar Gutierrez,Laredo Cigarroa,108.86,167.83,104.33,174.63,446.79,Single-ply,SBD,M
Boys,109.77,9,Justin Segovia,Laredo United South,105.41,188.24,79.38,158.76,426.38,Single-ply,SBD,M
Boys,109.77,10,Miguel Gutierrez,Laredo United South,106.14,156.49,92.99,147.42,396.89,Single-ply,SBD,M
Boys,109.77,11,Ricardo Sanchez,Laredo Alexander,109.77,127.01,68.04,142.88,337.93,Single-ply,SBD,M
Boys,109.77,DQ,Juan Cerna,Laredo Cigarroa,104.87,154.22,,,,Single-ply,SBD,M
Boys,124.74,1,Jorge Garcia,Laredo United South,122.42,294.84,145.15,231.33,671.32,Single-ply,SBD,M
Boys,124.74,2,Martin Navarro,Zapata,118.39,265.35,149.69,215.46,630.49,Single-ply,SBD,M
Boys,124.74,3,Diego Montoya,Roma,111.13,235.87,140.61,199.58,576.06,Single-ply,SBD,M
Boys,124.74,4,Marcus Vara,Laredo Martin,117.93,201.85,97.52,170.1,469.47,Single-ply,SBD,M
Boys,124.74,5,Anthony Salas,Laredo Nixon,115.12,151.95,83.91,172.37,408.23,Single-ply,SBD,M
Boys,124.74+,1,Justin Trevino,Laredo Martin,139.98,299.37,142.88,224.53,666.78,Single-ply,SBD,M
Boys,124.74+,2,Juan Valadez,Laredo Martin,134.26,256.28,124.74,190.51,571.53,Single-ply,SBD,M
Boys,124.74+,3,Juan Guerra,Laredo Alexander,142.88,190.51,102.06,217.72,510.29,Single-ply,SBD,M
Boys,124.74+,4,Raymond Torres,Zapata,136.98,176.9,122.47,156.49,455.86,Single-ply,SBD,M
Boys,124.74+,5,Mike Ramon,Zapata,129.73,158.76,115.67,158.76,433.18,Single-ply,SBD,M
