Division,WeightClassKg,Place,Name,Team,BodyweightKg,Best3SquatKg,Best3BenchKg,Best3DeadliftKg,TotalKg,Equipment,Event,Sex
Boys,55.79,1,Harley Hnatek,Splendora,51.94,92.99,38.56,102.06,233.6,Single-ply,SBD,M
Boys,51.71,2,Garrett Young,Huffman Hargrave,47.63,52.16,38.56,68.04,158.76,Single-ply,SBD,M
Boys,59.87,1,Izzy Figueroa,New Caney,56.02,147.42,63.5,136.08,347,Single-ply,SBD,M
Boys,59.87,1,Josh Vasquez,Cleveland,57.52,149.69,61.23,161.03,371.95,Single-ply,SBD,M
Boys,59.87,2,Andrew Walker,Dayton,56.97,102.06,70.31,127.01,299.37,Single-ply,SBD,M
Boys,67.13,1,Cory Durbin,New Caney,66.5,172.37,108.86,145.15,426.38,Single-ply,SBD,M
Boys,74.84,2,Johnathon Clifton,New Caney,67.36,154.22,95.25,158.76,408.23,Single-ply,SBD,M
Boys,67.13,3,Tyler Fuselier,Dayton,63.96,129.27,81.65,163.29,374.21,Single-ply,SBD,M
Boys,74.84,4,Jared Flowers,Huffman Hargrave,67.22,131.54,90.72,145.15,367.41,Single-ply,SBD,M
Boys,67.13,5,Darrin Walker,Liberty,64.32,131.54,77.11,149.69,358.34,Single-ply,SBD,M
Boys,67.13,6,Marcus Pappillion,Liberty,65.59,140.61,74.84,136.08,351.53,Single-ply,SBD,M
Boys,67.13,7,Chase Patternson,Splendora,66.59,133.81,81.65,136.08,351.53,Single-ply,SBD,M
Boys,67.13,8,Dillon Blackburn,Liberty,62.23,117.93,72.57,136.08,326.59,Single-ply,SBD,M
Boys,67.13,9,Haston Brock,Dayton,62.51,124.74,77.11,120.2,322.05,Single-ply,SBD,M
Boys,67.13,10,Bj Van Meter,Huffman Hargrave,62.69,68.04,52.16,90.72,210.92,Single-ply,SBD,M
Boys,67.13,DQ,Ekikere Etokebe,New Caney,66.95,,,,,Single-ply,SBD,M
Boys,67.13,DQ,LaPaglia Jeremiah,New Caney,67.13,111.13,83.91,113.4,,Single-ply,SBD,M
Boys,74.84,1,Cesar Yepes,New Caney,74.48,151.95,113.4,183.7,449.06,Single-ply,SBD,M
Boys,74.84,2,Bobby Goss,Dayton,70.03,145.15,90.72,165.56,401.43,Single-ply,SBD,M
Boys,74.84,3,Nathan Ozen,Dayton,68.49,136.08,63.5,136.08,335.66,Single-ply,SBD,M
Boys,74.84,4,Hunter Clift,Splendora,74.21,208.65,,,208.65,Single-ply,S,M
Boys,82.1,DQ,Tony Robinson,Dayton,75.02,145.15,92.99,136.08,,Single-ply,SBD,M
Boys,82.1,1,Tyrell Franks,Cleveland,80.1,213.19,117.93,161.03,492.15,Single-ply,SBD,M
Boys,82.1,2,Jacob Little,Splendora,80.2,181.44,99.79,208.65,489.88,Single-ply,SBD,M
Boys,82.1,3,Matt Barton,Dayton,81.65,172.37,108.86,190.51,471.74,Single-ply,SBD,M
Boys,82.1,4,Dustin Meadows,Cleveland,80.1,183.7,108.86,170.1,462.66,Single-ply,SBD,M
Boys,82.1,5,Joe Jack,Crosby,81.65,165.56,92.99,199.58,458.13,Single-ply,SBD,M
Boys,82.1,6,Cory Rowlee,Crosby,78.38,117.93,102.06,167.83,387.82,Single-ply,SBD,M
Boys,82.1,7,Kevin Clements,Huffman Hargrave,81.28,61.23,104.33,165.56,331.12,Single-ply,SBD,M
Boys,82.1,DQ,Lorenzo Ruiz,Splendora,81.65,127.01,,,,Single-ply,SBD,M
Boys,89.81,1,Clint Ramirez,New Caney,84.37,235.87,149.69,247.21,632.76,Single-ply,SBD,M
Boys,89.81,2,Nathan Brantner,Splendora,88.9,190.51,158.76,208.65,557.92,Single-ply,SBD,M
Boys,89.81,3,Trey Annonson,Cleveland,86.64,199.58,136.08,208.65,544.31,Single-ply,SBD,M
Boys,99.79,4,Cameron Phillips,Huffman Hargrave,89.9,174.63,136.08,165.56,476.27,Single-ply,SBD,M
Boys,89.81,5,Micheal Swearingen,Cleveland,88.9,163.29,129.27,161.03,453.59,Single-ply,SBD,M
Boys,89.81,6,Aaron Cardenas,Huffman Hargrave,84.55,165.56,86.18,174.63,426.38,Single-ply,SBD,M
Boys,89.81,7,Zak Adams,Splendora,87.63,129.27,81.65,154.22,365.14,Single-ply,SBD,M
Boys,89.81,8,Brice Bean,Liberty,86,133.81,68.04,147.42,349.27,Single-ply,SBD,M
Boys,99.79,1,Darren Stewart,Splendora,92.17,251.74,145.15,235.87,632.76,Single-ply,SBD,M
Boys,99.79,2,Derrick Powell,Dayton,98.61,217.72,149.69,208.65,576.06,Single-ply,SBD,M
Boys,99.79,3,Alex Kendrick,Huffman Hargrave,94.48,215.46,129.27,217.72,562.45,Single-ply,SBD,M
Boys,99.79,4,Caleb Ethridge,New Caney,94.8,199.58,140.61,195.04,535.24,Single-ply,SBD,M
Boys,99.79,5,Travis Driver,Huffman Hargrave,97.57,165.56,92.99,201.85,460.4,Single-ply,SBD,M
Boys,99.79,6,Ray Mendez,Crosby,94.8,147.42,117.93,170.1,435.45,Single-ply,SBD,M
Boys,99.79,7,Jeese Blackburn,Crosby,94.8,151.95,106.59,170.1,428.64,Single-ply,SBD,M
Boys,99.79,DQ,Elvid Deleon,Dayton,91.81,165.56,115.67,179.17,,Single-ply,SBD,M
Boys,99.79,DQ,Tyler Williams,Dayton,96.89,183.7,,,,Single-ply,SBD,M
Boys,109.77,1,Kevin Crew,Splendora,104.24,251.74,170.1,235.87,657.71,Single-ply,SBD,M
Boys,109.77,2,Joaquin Trevino,Splendora,102.24,233.6,183.7,217.72,635.03,Single-ply,SBD,M
Boys,109.77,3,Bryan Kimmy,Dayton,109.77,272.16,147.42,213.19,632.76,Single-ply,SBD,M
Boys,109.77,4,Brian Morgan,Cleveland,100.33,215.46,113.4,188.24,517.1,Single-ply,SBD,M
Boys,109.77,5,Hall Tyler,Huffman Hargrave,104.05,183.7,111.13,199.58,494.42,Single-ply,SBD,M
Boys,109.77,6,Nathan Bang,Crosby,103.69,136.08,95.25,170.1,401.43,Single-ply,SBD,M
Boys,124.74,7,Denton Orand,Liberty,109.95,142.88,102.06,145.15,390.09,Single-ply,SBD,M
Boys,124.74,1,Darrian Wright,Dayton,122.83,249.48,149.69,249.48,648.64,Single-ply,SBD,M
Boys,124.74,2,Justin Smith,New Caney,124.28,247.21,188.24,188.24,623.69,Single-ply,SBD,M
Boys,124.74,3,Chance McCormack,Dayton,116.21,217.72,142.88,249.48,610.08,Single-ply,SBD,M
Boys,124.74,4,Levi Lunsford,Splendora,122.29,242.67,149.69,206.38,598.74,Single-ply,SBD,M
Boys,124.74,5,Miguel Banda,Cleveland,113.22,204.12,124.74,167.83,496.68,Single-ply,SBD,M
Boys,124.74,6,Clint Moronko,Huffman Hargrave,116.71,172.37,129.27,192.78,494.42,Single-ply,SBD,M
Boys,124.74,DQ,Raymond Hillhouse,Dayton,119.02,197.31,111.13,183.7,,Single-ply,SBD,M
Boys,124.74,DQ,Matt Oubre,Dayton,118.57,197.31,115.67,204.12,,Single-ply,SBD,M
Boys,124.74+,1,Josh Sell,Liberty,145.24,260.82,172.37,215.46,648.64,Single-ply,SBD,M
Boys,124.74+,2,Cullen Burch,Cleveland,135.44,254.01,181.44,176.9,612.35,Single-ply,SBD,M
Boys,124.74+,3,Omar Tebo,Liberty,137.44,215.46,129.27,197.31,542.04,Single-ply,SBD,M
