Division,WeightClassKg,Place,Name,Team,BodyweightKg,Best3SquatKg,Best3BenchKg,Best3DeadliftKg,TotalKg,Equipment,Event,Sex
Boys,51.71,1,Ezekiel Sosa,Big Lake Reagan County,49.44,88.45,61.23,108.86,258.55,Single-ply,SBD,M
Boys,51.71,DQ,Ed Hernandez,Eldorado,50.8,,,,,Single-ply,SBD,M
Boys,55.79,1,Tomas Vega,Alpine,55.34,158.76,83.91,172.37,415.04,Single-ply,SBD,M
Boys,55.79,2,Kevin Gonzalez,Fort Stockton,54.43,122.47,74.84,154.22,351.53,Single-ply,SBD,M
Boys,55.79,3,Kevin Buitron,Sonora,55.79,122.47,77.11,151.95,351.53,Single-ply,SBD,M
Boys,59.87,1,Keele Valenzuela,Kermit,59.87,176.9,104.33,165.56,446.79,Single-ply,SBD,M
Boys,59.87,2,Cole Hunt,Alpine,58.97,136.08,72.57,181.44,390.09,Single-ply,SBD,M
Boys,59.87,3,Daniel Valenzuela,Pecos,57.61,136.08,65.77,154.22,356.07,Single-ply,SBD,M
Boys,59.87,4,Gian Cruz,Monahans,58.51,129.27,68.04,133.81,331.12,Single-ply,SBD,M
Boys,59.87,5,Meeko Gonzalez,Sonora,59.42,111.13,81.65,131.54,324.32,Single-ply,SBD,M
Boys,59.87,6,Oscar Salgado,Alpine,58.51,108.86,74.84,136.08,319.78,Single-ply,SBD,M
Boys,59.87,7,Oscar Jimenez,Alpine,57.61,102.06,61.23,127.01,290.3,Single-ply,SBD,M
Boys,59.87,8,Isaiah Enriquez,Garden City,59.87,102.06,61.23,122.47,285.76,Single-ply,SBD,M
Boys,59.87,9,Noel Ybarra,Pecos,56.25,95.25,61.23,106.59,263.08,Single-ply,SBD,M
Boys,59.87,10,Isaac Enriquez,Garden City,57.15,83.91,52.16,124.74,260.82,Single-ply,SBD,M
Boys,59.87,DQ,Sergio Roa,Alpine,58.06,104.33,,,,Single-ply,SBD,M
Boys,67.13,1,Austin Martinez,Mertzon Irion County,60.78,188.24,102.06,183.7,474,Single-ply,SBD,M
Boys,67.13,2,Michael Vargas,Ozona,64.41,192.78,106.59,172.37,471.74,Single-ply,SBD,M
Boys,67.13,3,Abel Orona,Kermit,63.96,170.1,102.06,167.83,439.98,Single-ply,SBD,M
Boys,67.13,4,John Rodriguez,Rankin,66.22,163.29,90.72,172.37,426.38,Single-ply,SBD,M
Boys,67.13,5,Justin Workman,Pecos,62.6,147.42,95.25,172.37,415.04,Single-ply,SBD,M
Boys,67.13,6,Mario Manquero,Garden City,61.23,145.15,88.45,156.49,390.09,Single-ply,SBD,M
Boys,67.13,7,Juan Gonzalez,Fort Stockton,66.68,154.22,77.11,158.76,390.09,Single-ply,SBD,M
Boys,67.13,8,Ryan Kennedy,Ozona,63.5,136.08,81.65,165.56,383.29,Single-ply,SBD,M
Boys,67.13,9,Eric Garcia,Sonora,60.33,145.15,81.65,145.15,371.95,Single-ply,SBD,M
Boys,67.13,10,Juan Marquez,Big Lake Reagan County,64.41,145.15,74.84,136.08,356.07,Single-ply,SBD,M
Boys,67.13,11,Phillip Vargas,Ozona,65.32,136.08,74.84,136.08,347,Single-ply,SBD,M
Boys,67.13,12,Sam Weatherby,Big Lake Reagan County,63.5,115.67,79.38,149.69,344.73,Single-ply,SBD,M
Boys,67.13,13,Royce Cole,Monahans,61.69,108.86,68.04,108.86,285.76,Single-ply,SBD,M
Boys,74.84,1,Ben Rodriguez,Fort Stockton,74.84,179.17,99.79,201.85,480.81,Single-ply,SBD,M
Boys,74.84,2,Carlos Arreola,Kermit,74.84,170.1,115.67,192.78,478.54,Single-ply,SBD,M
Boys,74.84,3,Trent Gardner,Big Lake Reagan County,74.84,188.24,90.72,172.37,451.32,Single-ply,SBD,M
Boys,82.1,4,Brett Castillo,Sonora,75.07,158.76,88.45,192.78,439.98,Single-ply,SBD,M
Boys,74.84,5,Oscar Sanchez,Fort Stockton,71.67,172.37,97.52,158.76,428.64,Single-ply,SBD,M
Boys,74.84,6,John Jurado,Ozona,68.04,161.03,83.91,170.1,415.04,Single-ply,SBD,M
Boys,74.84,7,Michael Chavez,Sonora,73.03,156.49,83.91,163.29,403.7,Single-ply,SBD,M
Boys,74.84,8,Kobe Roberson,Big Lake Reagan County,69.85,154.22,81.65,142.88,378.75,Single-ply,SBD,M
Boys,74.84,9,Antonio Ramirez Jr,Garden City,73.94,136.08,81.65,161.03,378.75,Single-ply,SBD,M
Boys,74.84,10,Jonathan Gutierrez,Sonora,72.12,124.74,88.45,145.15,358.34,Single-ply,SBD,M
Boys,74.84,11,John Holguin,Monahans,69.4,104.33,72.57,120.2,297.1,Single-ply,SBD,M
Boys,74.84,12,Chris May,Monahans,68.95,106.59,63.5,124.74,294.84,Single-ply,SBD,M
Boys,74.84,13,Deonn Fuentes,Eldorado,73.94,124.74,52.16,102.06,278.96,Single-ply,SBD,M
Boys,74.84,DQ,Wyatt Chopelas,Alpine,71.67,158.76,,,,Single-ply,SBD,M
Boys,74.84,DQ,Ignacio Rodriguez,Pecos,74.84,142.88,,,,Single-ply,SBD,M
Boys,82.1,1,Justin Thornton,Pecos,80.29,206.38,120.2,222.26,548.85,Single-ply,SBD,M
Boys,82.1,2,Aaron Castillo,Rankin,77.56,183.7,131.54,188.24,503.49,Single-ply,SBD,M
Boys,82.1,3,Hector Ontiveros,Fort Stockton,78.93,174.63,106.59,213.19,494.42,Single-ply,SBD,M
Boys,82.1,4,Cris Stallings,Kermit,78.47,170.1,120.2,181.44,471.74,Single-ply,SBD,M
Boys,82.1,5,Cody Huelsberg,Alpine,78.02,181.44,95.25,174.63,451.32,Single-ply,SBD,M
Boys,82.1,6,Jake Strickland,Monahans,77.56,156.49,92.99,154.22,403.7,Single-ply,SBD,M
Boys,82.1,7,Justice Andrews,Monahans,75.75,149.69,99.79,140.61,390.09,Single-ply,SBD,M
Boys,82.1,8,Fabian Gomez,Eldorado,80.29,124.74,90.72,158.76,374.21,Single-ply,SBD,M
Boys,82.1,9,Cody Phillips,Rankin,82.1,136.08,83.91,154.22,374.21,Single-ply,SBD,M
Boys,82.1,10,Felix Guerra,Sonora,78.47,120.2,90.72,117.93,328.85,Single-ply,SBD,M
Boys,82.1,11,Cody Fuentes,Monahans,75.75,129.27,74.84,113.4,317.51,Single-ply,SBD,M
Boys,82.1,12,Jose Ojeda,Ozona,79.38,90.72,63.5,115.67,269.89,Single-ply,SBD,M
Boys,89.81,1,Angel Aguilera,Big Lake Reagan County,83.46,219.99,111.13,201.85,532.97,Single-ply,SBD,M
Boys,89.81,2,Shawn Walker,Garden City,89.81,183.7,131.54,190.51,505.76,Single-ply,SBD,M
Boys,89.81,3,Hector Reyes,Eldorado,86.64,181.44,99.79,192.78,474,Single-ply,SBD,M
Boys,89.81,4,Chance Arriaga,Fort Stockton,89.36,170.1,113.4,172.37,455.86,Single-ply,SBD,M
Boys,89.81,5,Joey Varela,Pecos,87.54,163.29,104.33,181.44,449.06,Single-ply,SBD,M
Boys,89.81,6,Daniel Cooper,Kermit,88.45,172.37,104.33,170.1,446.79,Single-ply,SBD,M
Boys,89.81,7,Nathan Tone,Monahans,83.91,163.29,95.25,181.44,439.98,Single-ply,SBD,M
Boys,89.81,8,Andres Acevedo,Sonora,88.9,158.76,90.72,183.7,433.18,Single-ply,SBD,M
Boys,89.81,9,Rigoberto Rodriguez,Ozona,89.36,174.63,90.72,163.29,428.64,Single-ply,SBD,M
Boys,89.81,10,Dominic Rubio,Alpine,87.09,129.27,113.4,181.44,424.11,Single-ply,SBD,M
Boys,89.81,11,Eric Andrade,Garden City,84.82,149.69,81.65,158.76,390.09,Single-ply,SBD,M
Boys,89.81,12,Robert Oliphant,Alpine,86.18,133.81,74.84,158.76,367.41,Single-ply,SBD,M
Boys,89.81,13,Jose Balleza,Garden City,87.54,142.88,79.38,131.54,353.8,Single-ply,SBD,M
Boys,89.81,14,Hugo Almanzan Jr,Garden City,89.36,129.27,70.31,136.08,335.66,Single-ply,SBD,M
Boys,89.81,15,Josh Caldwell,Monahans,84.82,145.15,61.23,115.67,322.05,Single-ply,SBD,M
Boys,89.81,16,Sammy Villareal,Alpine,89.81,102.06,72.57,129.27,303.91,Single-ply,SBD,M
Boys,89.81,DQ,Evan Moore,Alpine,87.54,,,,,Single-ply,SBD,M
Boys,99.79,1,Elijah Cross,Sonora,99.79,192.78,111.13,190.51,494.42,Single-ply,SBD,M
Boys,99.79,2,Abraham Flores,Pecos,92.99,167.83,122.47,181.44,471.74,Single-ply,SBD,M
Boys,99.79,3,Manny Rodriguez,Fort Stockton,98.43,167.83,106.59,176.9,451.32,Single-ply,SBD,M
Boys,99.79,4,Brandon Dominguez,Ozona,93.44,183.7,95.25,163.29,442.25,Single-ply,SBD,M
Boys,99.79,5,Cesar Gallegos,Alpine,92.99,158.76,90.72,179.17,428.64,Single-ply,SBD,M
Boys,99.79,6,Jalen Falcon,Fort Stockton,94.8,158.76,92.99,176.9,428.64,Single-ply,SBD,M
Boys,99.79,7,Ethan Patlan,Sonora,94.8,147.42,106.59,158.76,412.77,Single-ply,SBD,M
Boys,99.79,8,Damien Cura,Rankin,95.71,165.56,92.99,149.69,408.23,Single-ply,SBD,M
Boys,99.79,9,Ramon Flores,Crane,99.34,147.42,88.45,172.37,408.23,Single-ply,SBD,M
Boys,99.79,10,Alex Holguin,Monahans,98.88,147.42,83.91,167.83,399.16,Single-ply,SBD,M
Boys,99.79,11,Marco Mata,Alpine,99.79,158.76,81.65,145.15,385.55,Single-ply,SBD,M
Boys,99.79,12,Emilio Mendez,Ozona,99.79,129.27,81.65,124.74,335.66,Single-ply,SBD,M
Boys,99.79,13,James Phillips,Crane,95.25,113.4,81.65,117.93,312.98,Single-ply,SBD,M
Boys,109.77,1,Garrett Ford,Monahans,108.41,210.92,133.81,226.8,571.53,Single-ply,SBD,M
Boys,109.77,2,Juan Valenzuela,Kermit,101.15,147.42,97.52,156.49,401.43,Single-ply,SBD,M
Boys,109.77,3,Nathan Hill,Rankin,101.15,158.76,92.99,142.88,394.63,Single-ply,SBD,M
Boys,109.77,4,Justin Johnson,Pecos,100.24,158.76,95.25,120.2,374.21,Single-ply,SBD,M
Boys,109.77,5,Jaime Chancellor,Eldorado,107.95,154.22,72.57,145.15,371.95,Single-ply,SBD,M
Boys,109.77,DQ,Ben Madrid,Pecos,102.51,140.61,,,,Single-ply,SBD,M
Boys,109.77,DQ,Stephen Dominguez,Sonora,108.41,183.7,,,,Single-ply,SBD,M
Boys,124.74,1,Michael Powers,Fort Stockton,110.22,197.31,127.01,217.72,542.04,Single-ply,SBD,M
Boys,124.74,2,Kelton Bales,Eldorado,122.47,217.72,120.2,204.12,542.04,Single-ply,SBD,M
Boys,124.74,3,Tres Perez,Ozona,112.49,206.38,120.2,185.97,512.56,Single-ply,SBD,M
Boys,124.74,4,Cristian Aguirre,Fort Stockton,113.4,156.49,108.86,167.83,433.18,Single-ply,SBD,M
Boys,124.74,5,Domo Tavarez,Crane,114.31,151.95,90.72,111.13,353.8,Single-ply,SBD,M
Boys,124.74+,1,Nicolas Franco,Pecos,154.22,242.67,154.22,185.97,582.87,Single-ply,SBD,M
Boys,124.74+,2,Dimitri Pena,Monahans,157.4,210.92,124.74,185.97,521.63,Single-ply,SBD,M
Boys,124.74+,3,Braulio Vargas,Eldorado,126.1,181.44,113.4,163.29,458.13,Single-ply,SBD,M
Boys,124.74+,4,Aaron Salgado,Pecos,133.81,156.49,104.33,154.22,415.04,Single-ply,SBD,M
Boys,124.74+,5,Chris Iverson,Fort Stockton,137.89,117.93,70.31,127.01,315.25,Single-ply,SBD,M
