Division,WeightClassKg,Place,Name,Team,BodyweightKg,Best3SquatKg,Best3BenchKg,Best3DeadliftKg,TotalKg,Equipment,Event,Sex
Girls,44.23,1,Jade Buckley,Rusk,42.09,70.31,36.29,77.11,183.7,Single-ply,SBD,F
Girls,44.23,2,Kaelin Henry,Athens,43.91,70.31,29.48,83.91,183.7,Single-ply,SBD,F
Girls,44.23,3,Nikki Lira,Athens,39.64,68.04,34.02,68.04,170.1,Single-ply,SBD,F
Girls,44.23,DQ,Genesis Loredo,Brownsboro,39.55,54.43,,,,Single-ply,SBD,F
Girls,47.85,1,Kelsey Green,Bullard,47.17,117.93,56.7,111.13,285.76,Single-ply,SBD,F
Girls,51.94,1,Kayla Honea,Brownsboro,50.53,115.67,43.09,117.93,276.69,Single-ply,SBD,F
Girls,51.94,2,Rachel Green,Brownsboro,51.26,104.33,43.09,99.79,247.21,Single-ply,SBD,F
Girls,51.94,3,Maddie Sander,Palestine,50.71,102.06,34.02,92.99,229.06,Single-ply,SBD,F
Girls,51.94,4,Natalie Reither,Rusk,50.71,95.25,45.36,88.45,229.06,Single-ply,SBD,F
Girls,51.94,5,Libby Berry,Rusk,51.26,90.72,34.02,99.79,224.53,Single-ply,SBD,F
Girls,51.94,6,Marisol Ariciaga,Athens,49.17,79.38,40.82,102.06,222.26,Single-ply,SBD,F
Girls,51.94,7,Taylor Wehling,Palestine,50.8,72.57,36.29,95.25,204.12,Single-ply,SBD,F
Girls,51.94,8,Brittany Barriera,Palestine,51.26,61.23,34.02,70.31,165.56,Single-ply,SBD,F
Girls,56.02,1,Wendi Pacheco,Athens,55.34,102.06,56.7,108.86,267.62,Single-ply,SBD,F
Girls,56.02,2,Kadeja Jefferson,Rusk,55.79,106.59,49.9,111.13,267.62,Single-ply,SBD,F
Girls,56.02,3,Emily Millender,Brownsboro,55.25,113.4,36.29,108.86,258.55,Single-ply,SBD,F
Girls,56.02,4,Paula Castillo,Brownsboro,53.98,113.4,40.82,97.52,251.74,Single-ply,SBD,F
Girls,56.02,5,Amber Mills,Elkhart,55.34,99.79,47.63,104.33,251.74,Single-ply,SBD,F
Girls,56.02,6,Brianna Suell,Center,52.62,95.25,31.75,90.72,217.72,Single-ply,SBD,F
Girls,56.02,7,Stephanie Miranda,Athens,53.07,72.57,38.56,95.25,206.38,Single-ply,SBD,F
Girls,56.02,8,Esmerelda Perez,Rusk,54.34,83.91,36.29,83.91,204.12,Single-ply,SBD,F
Girls,56.02,9,Kelli Ellis,Bullard,55.43,83.91,31.75,83.91,199.58,Single-ply,SBD,F
Girls,56.02,10,Katie Reyes,Palestine,55.79,74.84,29.48,83.91,188.24,Single-ply,SBD,F
Girls,56.02,11,Flor Perez,Rusk,55.61,72.57,27.22,83.91,183.7,Single-ply,SBD,F
Girls,56.02,12,Megan Copeland,Fairfield,54.25,43.09,34.02,61.23,138.35,Single-ply,SBD,F
Girls,60.1,1,Mallorie Sander,Palestine,57.7,129.27,45.36,129.27,303.91,Single-ply,SBD,F
Girls,60.1,2,Skyler Rodgers,Elkhart,59.87,104.33,47.63,108.86,260.82,Single-ply,SBD,F
Girls,60.1,3,Claudia Young,Bullard,58.69,102.06,45.36,111.13,258.55,Single-ply,SBD,F
Girls,60.1,4,Madison Schick,Fairfield,58.69,108.86,43.09,102.06,254.01,Single-ply,SBD,F
Girls,60.1,5,Alexis Grimaldi,Diboll,58.24,72.57,29.48,90.72,192.78,Single-ply,SBD,F
Girls,60.1,6,Haylee Bulger,Fairfield,56.25,61.23,29.48,77.11,167.83,Single-ply,SBD,F
Girls,60.1,7,Mackie Grisham,Laird Hill Leveretts Chapel,59.33,52.16,24.95,61.23,138.35,Single-ply,SBD,F
Girls,67.36,1,Taylor Spiller,Bullard,65.68,163.29,63.5,145.15,371.95,Single-ply,SBD,F
Girls,67.36,2,Kennedy Key,Bullard,63.5,151.95,63.5,142.88,358.34,Single-ply,SBD,F
Girls,67.36,3,Ashley Hernandez,Brownsboro,64.77,142.88,68.04,115.67,326.59,Single-ply,SBD,F
Girls,67.36,4,TaDasia Anderson,Bullard,66.41,129.27,47.63,140.61,317.51,Single-ply,SBD,F
Girls,67.36,5,LeAndra Bevans,Brownsboro,66.68,136.08,56.7,120.2,312.98,Single-ply,SBD,F
Girls,67.36,6,Breanna Vasquez,Palestine,65.05,113.4,49.9,117.93,281.23,Single-ply,SBD,F
Girls,67.36,7,Justice Oates,Fairfield,63.14,124.74,49.9,102.06,276.69,Single-ply,SBD,F
Girls,67.36,8,Anette Marmolejo,New London West Rusk,64.23,113.4,43.09,102.06,258.55,Single-ply,SBD,F
Girls,67.36,9,Dewayna Johnson,New London West Rusk,63.14,106.59,43.09,102.06,251.74,Single-ply,SBD,F
Girls,67.36,10,Rylee Hudspeth,Center,65.41,83.91,49.9,117.93,251.74,Single-ply,SBD,F
Girls,67.36,11,Infiniti Morrow,Palestine,65.05,99.79,47.63,102.06,249.48,Single-ply,SBD,F
Girls,67.36,12,Lori Neil,Fairfield,65.86,99.79,49.9,92.99,242.67,Single-ply,SBD,F
Girls,67.36,13,Kali Butler,Fairfield,67.13,95.25,40.82,104.33,240.4,Single-ply,SBD,F
Girls,67.36,14,Nikki Rigsby,Rusk,65.86,81.65,43.09,108.86,233.6,Single-ply,SBD,F
Girls,67.36,15,Lacey Boney,Fairfield,65.32,86.18,40.82,95.25,222.26,Single-ply,SBD,F
Girls,67.36,16,Shardanae Rayson,Diboll,66.32,79.38,38.56,102.06,219.99,Single-ply,SBD,F
Girls,67.36,17,Kayla Trekel,Diboll,60.51,79.38,34.02,102.06,215.46,Single-ply,SBD,F
Girls,67.36,18,Rosa Castillo,Center,64.59,79.38,45.36,86.18,210.92,Single-ply,SBD,F
Girls,67.36,19,Shannon Warren,Athens,66.77,79.38,38.56,92.99,210.92,Single-ply,SBD,F
Girls,67.36,20,Cassie Weiss,Rusk,63.23,83.91,36.29,88.45,208.65,Single-ply,SBD,F
Girls,67.36,21,Kasey Scott,Laird Hill Leveretts Chapel,63.32,65.77,34.02,83.91,183.7,Single-ply,SBD,F
Girls,67.36,DQ,Lateasha Parrales,New London West Rusk,64.05,61.23,,,,Single-ply,SBD,F
Girls,75.07,1,Michaela McGeary,Fairfield,70.58,124.74,52.16,131.54,308.44,Single-ply,SBD,F
Girls,75.07,2,Chandler UpChurch,Pollok Central,73.12,102.06,56.7,138.35,297.1,Single-ply,SBD,F
Girls,75.07,3,Kerstin Humphries,Elkhart,69.4,104.33,52.16,111.13,267.62,Single-ply,SBD,F
Girls,75.07,4,Bree Thompson,Athens,71.12,102.06,52.16,111.13,265.35,Single-ply,SBD,F
Girls,75.07,5,Romie Castilleja,Diboll,70.94,102.06,43.09,113.4,258.55,Single-ply,SBD,F
Girls,75.07,6,Sabrina Garcia,Diboll,71.67,90.72,45.36,102.06,238.14,Single-ply,SBD,F
Girls,75.07,7,Megan Weimorts,Palestine,70.4,92.99,36.29,97.52,226.8,Single-ply,SBD,F
Girls,75.07,8,Anna Garcia,Athens,74.12,79.38,40.82,102.06,222.26,Single-ply,SBD,F
Girls,75.07,DQ,Liz Whitwell,Longview Spring Hill,74.75,102.06,,,,Single-ply,SBD,F
Girls,75.07,DQ,Eileen Bell,Rusk,74.12,,,,,Single-ply,SBD,F
Girls,82.33,1,Olivia Rodriguez,Bullard,81.01,163.29,68.04,140.61,371.95,Single-ply,SBD,F
Girls,82.33,2,Zariah Vinson,Diboll,80.92,111.13,49.9,122.47,283.5,Single-ply,SBD,F
Girls,82.33,3,Sidney Hurley,Diboll,75.57,117.93,52.16,111.13,281.23,Single-ply,SBD,F
Girls,82.33,4,Rachel Grubbs,Brownsboro,78.83,127.01,45.36,97.52,269.89,Single-ply,SBD,F
Girls,82.33,5,Meagan Galan,Pollok Central,78.24,92.99,45.36,111.13,249.48,Single-ply,SBD,F
Girls,82.33,6,Grace Ridgeway,Rusk,81.01,90.72,47.63,90.72,229.06,Single-ply,SBD,F
Girls,82.33,7,Esmeralda Amaro,Laird Hill Leveretts Chapel,78.24,74.84,34.02,61.23,170.1,Single-ply,SBD,F
Girls,90.04,1,Lacey Tillis,Palestine,87.54,147.42,70.31,147.42,365.14,Single-ply,SBD,F
Girls,90.04,2,Ingrid Castaneda,Athens,88.45,111.13,56.7,102.06,269.89,Single-ply,SBD,F
Girls,90.04,3,Ashlynn Stewart,Athens,86.55,90.72,52.16,90.72,233.6,Single-ply,SBD,F
Girls,90.04,4,Angel Causey,Athens,83.64,77.11,43.09,99.79,219.99,Single-ply,SBD,F
Girls,100.02,1,Jessica Hill,Fairfield,97.79,147.42,61.23,138.35,347,Single-ply,SBD,F
Girls,100.02,2,Rachel Andrews,Center,96.89,136.08,56.7,122.47,315.25,Single-ply,SBD,F
Girls,100.02,3,Brianna Bussey,Diboll,92.71,97.52,47.63,113.4,258.55,Single-ply,SBD,F
Girls,100.02,4,Karisty Hooper,Fairfield,92.08,65.77,52.16,61.23,179.17,Single-ply,SBD,F
Girls,100.02,5,Laura Rodriguez,Athens,93.98,68.04,38.56,68.04,174.63,Single-ply,SBD,F
Girls,100.02+,1,Raven Paul,Frankston,122.02,210.92,115.67,188.24,514.83,Single-ply,SBD,F
Girls,100.02+,2,Hailey Stanford,Rusk,100.24,181.44,63.5,136.08,381.02,Single-ply,SBD,F
Girls,100.02+,3,CeCe Monmouth,Athens,127.1,147.42,79.38,136.08,362.87,Single-ply,SBD,F
Girls,100.02+,4,Alize Lewis,Fairfield,127.91,136.08,79.38,120.2,335.66,Single-ply,SBD,F
Girls,100.02+,5,Jasmine Hunt,Elkhart,125.37,127.01,56.7,133.81,317.51,Single-ply,SBD,F
Girls,100.02+,6,ShaTerra Swint,Diboll,121.29,136.08,54.43,113.4,303.91,Single-ply,SBD,F
Girls,100.02+,7,Ashley Coleman,Diboll,102.87,122.47,43.09,122.47,288.03,Single-ply,SBD,F
Girls,100.02+,8,Savanna Wilson,Brownsboro,102.24,113.4,56.7,113.4,283.5,Single-ply,SBD,F
Girls,100.02+,9,Shelby Songer,Palestine,114.03,83.91,43.09,102.06,229.06,Single-ply,SBD,F
Girls,100.02+,10,Aileen Robles,Diboll,103.6,79.38,43.09,86.18,208.65,Single-ply,SBD,F
Girls,100.02+,DQ,Chelsea Lawerence,Center,144.97,,,,,Single-ply,SBD,F
