Division,WeightClassKg,Place,Name,Team,BodyweightKg,Best3SquatKg,Best3BenchKg,Best3DeadliftKg,TotalKg,Equipment,Event,Sex
Boys,51.71,1,Chance Paschal,Blooming Grove,50.8,129.27,77.11,136.08,342.46,Single-ply,SBD,M
Boys,51.71,2,Sebastian Urteaga,Eustace,49.9,136.08,52.16,124.74,312.98,Single-ply,SBD,M
Boys,51.71,3,Jason Boykin,Corsicana,49.71,117.93,58.97,133.81,310.71,Single-ply,SBD,M
Boys,51.71,4,Austin Michael,Palmer,50.89,90.72,58.97,104.33,254.01,Single-ply,SBD,M
Boys,51.71,5,Dillion Hopson,Dawson,48.26,92.99,56.7,83.91,233.6,Single-ply,SBD,M
Boys,51.71,6,David Bennett,Kerens,45.9,65.77,38.56,88.45,192.78,Single-ply,SBD,M
Boys,51.71,7,Hagan Webster,Blooming Grove,50.35,77.11,34.02,70.31,181.44,Single-ply,SBD,M
Boys,55.79,1,Chandler Prnka,Malakoff,51.8,158.76,83.91,170.1,412.77,Single-ply,SBD,M
Boys,55.79,2,Chase Paschal,Blooming Grove,52.16,138.35,68.04,136.08,342.46,Single-ply,SBD,M
Boys,59.87,1,Zaahid Abdullah,Waxahachie Life,59.78,170.1,106.59,170.1,446.79,Single-ply,SBD,M
Boys,59.87,2,Joe Velasquez,Blooming Grove,56.7,170.1,81.65,163.29,415.04,Single-ply,SBD,M
Boys,59.87,3,Nick Lopez,Palmer,58.6,124.74,72.57,136.08,333.39,Single-ply,SBD,M
Boys,59.87,4,Jakob Jankowski,Dawson,59.51,122.47,61.23,124.74,308.44,Single-ply,SBD,M
Boys,59.87,5,Izik Smith,Kerens,59.69,106.59,61.23,129.27,297.1,Single-ply,SBD,M
Boys,59.87,6,Antonio McAdams,Kerens,56.97,102.06,43.09,129.27,274.42,Single-ply,SBD,M
Boys,59.87,DQ,Michael Adkins,Blooming Grove,58.97,,,,,Single-ply,SBD,M
Boys,59.87,DQ,Macon Hurford,Blooming Grove,56.84,104.33,65.77,,,Single-ply,SBD,M
Boys,67.13,1,Deandre Brown,Corsicana,66.86,217.72,113.4,192.78,523.9,Single-ply,SBD,M
Boys,67.13,2,Lucas Zepeda,Waxahachie Life,66.77,192.78,92.99,183.7,469.47,Single-ply,SBD,M
Boys,67.13,3,Hayden Braswell,Corsicana,66.5,156.49,102.06,170.1,428.64,Single-ply,SBD,M
Boys,67.13,4,Zander Crittenden,Kerens,66.32,147.42,106.59,170.1,424.11,Single-ply,SBD,M
Boys,67.13,5,Matthew Beacum,Blooming Grove,61.23,158.76,102.06,158.76,419.57,Single-ply,SBD,M
Boys,67.13,6,Juan Galindo,Rice,64.05,136.08,77.11,122.47,335.66,Single-ply,SBD,M
Boys,67.13,DQ,Corey Gaige,Palmer,66.86,170.1,92.99,,,Single-ply,SBD,M
Boys,74.84,1,Daniel Fernandez,Kerens,74.12,204.12,129.27,167.83,501.22,Single-ply,SBD,M
Boys,74.84,2,Dakota Lewis,Blooming Grove,68.49,181.44,111.13,192.78,485.34,Single-ply,SBD,M
Boys,74.84,3,Da'Mariyea Hamilton,Dawson,71.67,181.44,99.79,195.04,476.27,Single-ply,SBD,M
Boys,74.84,4,Ashton Williams,Waxahachie Life,74.21,190.51,81.65,192.78,464.93,Single-ply,SBD,M
Boys,74.84,5,Levi Elkins,Dawson,73.3,195.04,97.52,165.56,458.13,Single-ply,SBD,M
Boys,74.84,6,Chrisopher Acevedo,Dallas Life Oak Cliff,74.84,167.83,117.93,170.1,455.86,Single-ply,SBD,M
Boys,74.84,7,Daylan Slade,Hubbard,71.67,136.08,117.93,183.7,437.72,Single-ply,SBD,M
Boys,74.84,8,Anders Sundquist,Kerens,74.21,165.56,97.52,158.76,421.84,Single-ply,SBD,M
Boys,74.84,9,Arturo Gonzales,Palmer,71.67,147.42,92.99,167.83,408.23,Single-ply,SBD,M
Boys,74.84,10,Kelton Carlson,Fairfield,73.03,183.7,81.65,142.88,408.23,Single-ply,SBD,M
Boys,74.84,11,Hunter Boatright,Dawson,74.21,147.42,95.25,151.95,394.63,Single-ply,SBD,M
Boys,74.84,12,Trey Atkeisson,Corsicana Mildred,71.3,138.35,90.72,163.29,392.36,Single-ply,SBD,M
Boys,74.84,13,Daniel Cleveland,Rice,72.21,113.4,74.84,151.95,340.19,Single-ply,SBD,M
Boys,74.84,14,William Lyndecker,Hubbard,71.49,92.99,58.97,95.25,247.21,Single-ply,SBD,M
Boys,74.84,15,Riley High,Hubbard,69.4,79.38,52.16,113.4,244.94,Single-ply,SBD,M
Boys,82.1,1,Eric Dickson,Corsicana,79.56,240.4,129.27,233.6,603.28,Single-ply,SBD,M
Boys,82.1,2,Zane Anderson,Fairfield,76.93,238.14,111.13,195.04,544.31,Single-ply,SBD,M
Boys,82.1,3,Koby Phelps,Kerens,81.47,192.78,120.2,192.78,505.76,Single-ply,SBD,M
Boys,82.1,4,Alonzo Moffitt,Fairfield,75.84,197.31,88.45,192.78,478.54,Single-ply,SBD,M
Boys,82.1,5,Tommy Bernal,Rice,75.02,170.1,108.86,161.03,439.98,Single-ply,SBD,M
Boys,82.1,6,Caleb Hayes,Corsicana Mildred,77.29,151.95,77.11,197.31,426.38,Single-ply,SBD,M
Boys,82.1,7,Justin Henson,Eustace,77.56,145.15,95.25,149.69,390.09,Single-ply,SBD,M
Boys,82.1,8,Adrian Santoyo,Rice,78.93,138.35,95.25,136.08,369.68,Single-ply,SBD,M
Boys,89.81,1,Bryan Harwell,Waxahachie Life,88.99,249.48,136.08,249.48,635.03,Single-ply,SBD,M
Boys,89.81,2,JaShaughn Hatcher,Fairfield,89.18,249.48,113.4,272.16,635.03,Single-ply,SBD,M
Boys,89.81,3,Kenya Glasco,Blooming Grove,88,226.8,136.08,235.87,598.74,Single-ply,SBD,M
Boys,89.81,4,Jerry Montgomery,Rice,89.81,233.6,151.95,183.7,569.26,Single-ply,SBD,M
Boys,89.81,5,Tyler Stroud,Maypearl,87,199.58,111.13,210.92,521.63,Single-ply,SBD,M
Boys,89.81,6,Carson Rucks,Blooming Grove,84.37,190.51,136.08,185.97,512.56,Single-ply,SBD,M
Boys,89.81,7,TaKeenan Langley,Malakoff,88.54,192.78,99.79,183.7,476.27,Single-ply,SBD,M
Boys,89.81,8,Keevie Rose,Malakoff,84.1,172.37,79.38,199.58,451.32,Single-ply,SBD,M
Boys,89.81,9,Cameron Englehart,Eustace,85.46,154.22,108.86,181.44,444.52,Single-ply,SBD,M
Boys,89.81,10,Abraham Valdez,Dallas Life Oak Cliff,86.45,102.06,61.23,120.2,283.5,Single-ply,SBD,M
Boys,99.79,1,Logan Blake,Waxahachie Life,99.79,285.76,181.44,249.48,716.68,Single-ply,SBD,M
Boys,99.79,2,Da'Michael Harvey,Kerens,91.53,272.16,158.76,260.82,691.73,Single-ply,SBD,M
Boys,99.79,3,Harry Waltis,Corsicana,93.98,226.8,124.74,238.14,589.67,Single-ply,SBD,M
Boys,99.79,4,Marc Zayala,Palmer,90.36,199.58,124.74,210.92,535.24,Single-ply,SBD,M
Boys,99.79,5,David Mirafuentes,Blooming Grove,90.72,201.85,106.59,176.9,485.34,Single-ply,SBD,M
Boys,99.79,6,Kannon Hurd,Malakoff,94.35,188.24,99.79,188.24,476.27,Single-ply,SBD,M
Boys,99.79,7,Grant Harrison,Corsicana,95.16,183.7,99.79,181.44,464.93,Single-ply,SBD,M
Boys,99.79,8,Carter Davis,Fairfield,91.44,185.97,111.13,165.56,462.66,Single-ply,SBD,M
Boys,99.79,9,Logan Hancock,Corsicana Mildred,95.89,151.95,90.72,192.78,435.45,Single-ply,SBD,M
Boys,99.79,10,Jaden Kistler,Corsicana Mildred,91.44,156.49,97.52,167.83,421.84,Single-ply,SBD,M
Boys,99.79,11,Cody Byrd,Eustace,94.89,147.42,77.11,163.29,387.82,Single-ply,SBD,M
Boys,99.79,12,Justace Starkey,Dawson,92.44,142.88,79.38,163.29,385.55,Single-ply,SBD,M
Boys,99.79,13,Clay Brown,Rice,98.07,142.88,83.91,158.76,385.55,Single-ply,SBD,M
Boys,99.79,14,Victor Hernandez,Dallas A+,92.26,127.01,70.31,124.74,322.05,Single-ply,SBD,M
Boys,99.79,15,Juan DelaRosa,Dallas A+,92.53,95.25,58.97,147.42,301.64,Single-ply,SBD,M
Boys,99.79,DQ,Aj Molina,Wortham,90.81,192.78,81.65,165.56,,Single-ply,SBD,M
Boys,99.79,DQ,Russell Woolover,Dallas A+,98.61,102.06,,,,Single-ply,SBD,M
Boys,109.77,1,Saul Diaz,Rice,108.41,272.16,163.29,249.48,684.92,Single-ply,SBD,M
Boys,109.77,2,Ben Lancone,Palmer,107.5,208.65,140.61,233.6,582.87,Single-ply,SBD,M
Boys,109.77,3,Tyler Johnson,Dallas Life Oak Cliff,108.68,197.31,133.81,183.7,514.83,Single-ply,SBD,M
Boys,109.77,4,Kitt Wilder,Waxahachie Life,106.32,208.65,92.99,185.97,487.61,Single-ply,SBD,M
Boys,109.77,5,Trevor Jarvis,Malakoff,99.97,181.44,95.25,181.44,458.13,Single-ply,SBD,M
Boys,109.77,6,Cameon Spain,Dawson,104.42,170.1,104.33,181.44,455.86,Single-ply,SBD,M
Boys,109.77,7,Zion Barnes,Hubbard,108.86,174.63,117.93,163.29,455.86,Single-ply,SBD,M
Boys,109.77,8,Tanner Drain,Blooming Grove,108.86,158.76,120.2,174.63,453.59,Single-ply,SBD,M
Boys,109.77,9,Kenneth Mosely,Maypearl,105.05,158.76,108.86,151.95,419.57,Single-ply,SBD,M
Boys,109.77,10,Alex Ramirez,Dallas Life Oak Cliff,103.33,122.47,63.5,136.08,322.05,Single-ply,SBD,M
Boys,109.77,11,Edder Garica,Dallas A+,102.87,97.52,61.23,124.74,283.5,Single-ply,SBD,M
Boys,124.74,1,Shelby Wilder,Waxahachie Life,117.12,244.94,158.76,233.6,637.3,Single-ply,SBD,M
Boys,124.74,2,Angel Banda,Rice,110.86,249.48,158.76,222.26,630.49,Single-ply,SBD,M
Boys,124.74,3,Kenny Castro,Corsicana,119.57,231.33,147.42,238.14,616.89,Single-ply,SBD,M
Boys,124.74,4,Luis Garcia,Eustace,119.39,260.82,142.88,210.92,614.62,Single-ply,SBD,M
Boys,124.74,5,Sam Duran,Waxahachie Life,115.03,208.65,124.74,226.8,560.19,Single-ply,SBD,M
Boys,124.74,6,Justin Cooper,Fairfield,112.49,222.26,117.93,163.29,503.49,Single-ply,SBD,M
Boys,124.74,7,Landon Routh,Maypearl,116.3,192.78,95.25,199.58,487.61,Single-ply,SBD,M
Boys,124.74,8,Kaleb Ferguson,Blooming Grove,115.67,165.56,127.01,190.51,483.08,Single-ply,SBD,M
Boys,124.74,9,Elden McKinney,Dallas Life Oak Cliff,117.21,165.56,99.79,204.12,469.47,Single-ply,SBD,M
Boys,124.74,10,Noel Martinez,Dallas A+,118.48,120.2,68.04,142.88,331.12,Single-ply,SBD,M
Boys,124.74,DQ,Seth Eastwood,Maypearl,122.74,244.94,136.08,,,Single-ply,SBD,M
Boys,124.74+,1,Eddie Zuniga,Waxahachie Life,140.25,294.84,161.03,235.87,691.73,Single-ply,SBD,M
Boys,124.74+,2,Chandler Noble,Fairfield,136.53,306.17,127.01,226.8,659.98,Single-ply,SBD,M
Boys,124.74+,3,Chad Fancher,Eustace,132.72,249.48,163.29,217.72,630.49,Single-ply,SBD,M
Boys,124.74+,4,Lincoln Rogers,Malakoff,125.37,240.4,170.1,217.72,628.23,Single-ply,SBD,M
Boys,124.74+,5,Colton Deal,Waxahachie Life,140.52,244.94,136.08,233.6,614.62,Single-ply,SBD,M
Boys,124.74+,6,Quinton Wright,Maypearl,130.54,226.8,127.01,215.46,569.26,Single-ply,SBD,M
Boys,124.74+,7,Anthony Barnes,Waxahachie Life,141.97,226.8,104.33,195.04,526.17,Single-ply,SBD,M
Boys,124.74+,8,Logan Walker,Fairfield,142.88,181.44,102.06,170.1,453.59,Single-ply,SBD,M
Boys,124.74+,9,Angel Arellano,Dallas A+,143.61,145.15,81.65,147.42,374.21,Single-ply,SBD,M
Boys,124.74+,10,Max Arevalo,Dallas A+,154.04,97.52,61.23,136.08,294.84,Single-ply,SBD,M
