Division,WeightClassKg,Place,Name,Team,BodyweightKg,Best3SquatKg,Best3BenchKg,Best3DeadliftKg,TotalKg,Equipment,Event,Sex
Boys,55.79,1,Johney Phelps,Palestine Westwood,51.94,149.69,83.91,140.61,374.21,Single-ply,SBD,M
Boys,51.71,2,Blake Mackey,Frankston,44.45,74.84,,,74.84,Single-ply,S,M
Boys,55.79,1,Mason Jones,Buffalo,54.79,102.06,52.16,108.86,263.08,Single-ply,SBD,M
Boys,59.87,1,Dalton Kassaw,Elkhart,58.6,138.35,68.04,151.95,358.34,Single-ply,SBD,M
Boys,59.87,2,Leo Rosales,Rusk,59.24,136.08,83.91,138.35,358.34,Single-ply,SBD,M
Boys,67.13,3,Steven Dorsey,Rusk,60.1,129.27,68.04,120.2,317.51,Single-ply,SBD,M
Boys,59.87,4,Brian Stanford,Rusk,59.24,111.13,52.16,117.93,281.23,Single-ply,SBD,M
Boys,67.13,1,Brice Harrington,Frankston,63.87,158.76,68.04,151.95,378.75,Single-ply,SBD,M
Boys,67.13,2,Cameron Varner,Buffalo,67.13,158.76,68.04,136.08,362.87,Single-ply,SBD,M
Boys,67.13,3,Jake Fussell,Palestine,64.14,136.08,79.38,145.15,360.61,Single-ply,SBD,M
Boys,67.13,4,Eli Trim,Elkhart,65.54,140.61,68.04,127.01,335.66,Single-ply,SBD,M
Boys,74.84,1,Chris Box,Elkhart,73.21,181.44,117.93,192.78,492.15,Single-ply,SBD,M
Boys,74.84,2,Humberto Chavez,Frankston,67.49,185.97,97.52,188.24,471.74,Single-ply,SBD,M
Boys,74.84,3,Sir Thompson,Palestine,70.76,183.7,104.33,183.7,471.74,Single-ply,SBD,M
Boys,74.84,4,Cole Lawson,Rusk,70.76,174.63,95.25,183.7,453.59,Single-ply,SBD,M
Boys,74.84,5,Brant Cox,Cayuga,70.49,136.08,74.84,127.01,337.93,Single-ply,SBD,M
Boys,74.84,6,Sammy Cervantes,Buffalo,68.72,136.08,61.23,136.08,333.39,Single-ply,SBD,M
Boys,74.84,7,Will Barnett,Oakwood,70.31,95.25,61.23,117.93,274.42,Single-ply,SBD,M
Boys,74.84,DQ,Josh Dollarhid,Frankston,69.17,,,,,Single-ply,SBD,M
Boys,82.1,1,Jeremy Turner,Rusk,79.47,233.6,133.81,229.06,596.47,Single-ply,SBD,M
Boys,82.1,2,Kaigan Baker,Palestine Westwood,78.47,222.26,104.33,206.38,532.97,Single-ply,SBD,M
Boys,82.1,3,Zack Gray,Elkhart,78.38,204.12,117.93,190.51,512.56,Single-ply,SBD,M
Boys,82.1,4,Garrett Flanagan,Elkhart,77.47,181.44,113.4,199.58,494.42,Single-ply,SBD,M
Boys,89.81,1,Louis Collins,Oakwood,86.18,199.58,142.88,197.31,539.77,Single-ply,SBD,M
Boys,89.81,2,Tyler Wilbanks,Rusk,87.91,197.31,108.86,170.1,476.27,Single-ply,SBD,M
Boys,89.81,3,Brett Workman,Frankston,89.72,183.7,92.99,185.97,462.66,Single-ply,SBD,M
Boys,89.81,4,Caesar Lopez,Buffalo,82.92,172.37,99.79,174.63,446.79,Single-ply,SBD,M
Boys,89.81,5,Andre Agan,Elkhart,82.46,165.56,102.06,172.37,439.98,Single-ply,SBD,M
Boys,89.81,6,Lorenzo Orozco,Frankston,86.86,149.69,97.52,165.56,412.77,Single-ply,SBD,M
Boys,89.81,7,Cameron Litchfield,Oakwood,85.28,154.22,95.25,158.76,408.23,Single-ply,SBD,M
Boys,89.81,8,Preston Shaver,Elkhart,83.69,113.4,90.72,156.49,360.61,Single-ply,SBD,M
Boys,99.79,1,Drew Dorsey,Rusk,90.9,199.58,113.4,183.7,496.68,Single-ply,SBD,M
Boys,99.79,2,Will Dehart,Elkhart,98.97,185.97,106.59,167.83,460.4,Single-ply,SBD,M
Boys,99.79,3,Steven Slater,Cayuga,96.71,181.44,90.72,172.37,444.52,Single-ply,SBD,M
Boys,99.79,4,Seth Fulsom,Buffalo,95.71,170.1,95.25,170.1,435.45,Single-ply,SBD,M
Boys,99.79,5,Maurice Emanuel,Oakwood,96.62,145.15,90.72,149.69,385.55,Single-ply,SBD,M
Boys,109.77,1,Johnt'A Maxey,Palestine,106.14,226.8,131.54,192.78,551.11,Single-ply,SBD,M
Boys,109.77,2,Ty Swindle,Palestine,100.79,195.04,108.86,204.12,508.02,Single-ply,SBD,M
Boys,109.77,3,Justin Caldwell,Frankston,103.15,183.7,102.06,174.63,460.4,Single-ply,SBD,M
Boys,109.77,4,Colton Frazier,Elkhart,103.33,167.83,104.33,181.44,453.59,Single-ply,SBD,M
Boys,109.77,5,Jace Harris,Cayuga,103.51,158.76,95.25,161.03,415.04,Single-ply,SBD,M
Boys,109.77,6,Clint Guyton,Buffalo,107.27,161.03,92.99,158.76,412.77,Single-ply,SBD,M
Boys,124.74,1,Zach Swearingen,Rusk,113.49,238.14,127.01,206.38,571.53,Single-ply,SBD,M
Boys,124.74,2,Patrick Cross,Palestine,121.02,238.14,124.74,208.65,571.53,Single-ply,SBD,M
Boys,124.74,3,Josh Tillis,Palestine,121.11,183.7,158.76,181.44,523.9,Single-ply,SBD,M
Boys,124.74,4,Bryce Hoffman,Rusk,113.49,179.17,122.47,165.56,467.2,Single-ply,SBD,M
Boys,124.74,5,John Ross,Frankston,111.49,170.1,102.06,165.56,437.72,Single-ply,SBD,M
Boys,124.74,6,Chris Thompson,Frankston,118.84,163.29,97.52,174.63,435.45,Single-ply,SBD,M
Boys,124.74,7,Sir Rhodes,Palestine,117.93,154.22,90.72,156.49,401.43,Single-ply,SBD,M
Boys,124.74+,1,Manuel Solis,Palestine,152.32,199.58,124.74,210.92,535.24,Single-ply,SBD,M
