Name,Sex,WeightClassKg,BodyweightKg,Best3SquatKg,Best3BenchKg,Best3DeadliftKg,TotalKg,Event,Equipment,Division,Place
Sara-Maree Francis,M,67.5,67.35,125,65,120,310,SBD,Single-ply,Open,1
G. Phillips,M,110,107.8,255,137.5,285,677.5,SBD,Single-ply,Open,1
Gary Roberts,M,125,115.5,302.5,160,255,717.5,SBD,Single-ply,Open,1
Graham Thomson,M,125,119.6,240,180,270,690,SBD,Single-ply,Open,2
