Place,Sex,Name,Event,Division,WeightClassKg,Equipment,BirthYear,Team,State,BodyweightKg,Squat1Kg,Squat2Kg,Squat3Kg,Best3SquatKg,Bench1Kg,Bench2Kg,Bench3Kg,Best3BenchKg,Deadlift1Kg,Deadlift2Kg,Deadlift3Kg,Best3DeadliftKg,TotalKg,BirthDate
13,M,Brayden Londerville,SBD,M-HS,52,Single-ply,2002,Neenah,WI,49.58,117.5,125,132.5,132.5,45,50,55,55,127.5,137.5,145,145,332.5,
2,M,Bryce Londerville,SBD,M-HS,56,Single-ply,1998,Neenah,WI,53.84,-135,140,145,145,62.5,67.5,72.5,72.5,155,165,172.5,172.5,390,
3,M,Rodolfo Serna,SBD,M-HS,56,Single-ply,2000,Cudahy,WI,54.5,142.5,150,-152.5,150,70,75,-77.5,75,142.5,155,165,165,390,
4,M,Brent Miller,SBD,M-HS,56,Single-ply,2001,Germantown,WI,54.4,145,157.5,-165,157.5,67.5,75,77.5,77.5,130,140,145,145,380,
5,M,Nicholas Johnson #1,SBD,M-HS,56,Single-ply,2001,Neenah,WI,54.43,132.5,-142.5,150,150,57.5,62.5,65,65,150,-162.5,-162.5,150,365,
6,M,Xavier Ollarzabal,SBD,M-HS,56,Single-ply,2000,Necedah,WI,55.88,132.5,140,-147.5,140,60,62.5,67.5,67.5,142.5,-152.5,157.5,157.5,365,
8,M,Thomas Schell,SBD,M-HS,56,Single-ply,2001,,WI,54.25,142.5,-150,-150,142.5,70,75,-80,75,145,-157.5,-157.5,145,362.5,
11,M,Holden Manhart,SBD,M-HS,56,Single-ply,2001,Necedah,WI,55.11,132.5,137.5,145,145,57.5,62.5,-67.5,62.5,130,132.5,137.5,137.5,345,
14,M,Justin Rife,SBD,M-HS,56,Single-ply,2000,,WI,56,102.5,-110,-115,102.5,55,57.5,60,60,130,137.5,147.5,147.5,310,
15,M,Mason Hansen,SBD,M-HS,56,Single-ply,2001,Neenah,WI,54.52,110,-115,-120,110,50,55,57.5,57.5,130,140,-147.5,140,307.5,
DQ,M,Jordan Branske,SBD,M-HS,56,Single-ply,2000,,WI,55.3,-132.5,-145,-145,,-82.5,82.5,-87.5,82.5,137.5,152.5,-155,152.5,,
3,M,Jamie Gunderson,SBD,M-HS,60,Single-ply,1998,,WI,60,-180,180,192.5,192.5,87.5,92.5,95,95,187.5,197.5,-205,197.5,485,
1,M,Miles Priefer,SBD,M-HS,60,Single-ply,1999,Waterford,WI,58.7,157.5,165,180,180,85,90,92.5,92.5,157.5,-175,-175,157.5,430,
7,M,Tanner Underberg,SBD,M-HS,60,Single-ply,1999,,WI,59.87,132.5,-160,-162.5,132.5,87.5,97.5,-102.5,97.5,172.5,182.5,-202.5,182.5,412.5,
8,M,Jordan Paquin,SBD,M-HS,60,Single-ply,1998,Cudahy,WI,59.4,142.5,-147.5,-147.5,142.5,77.5,82.5,-85,82.5,155,-162.5,-162.5,155,380,
9,M,Jerric Blair,SBD,M-HS,60,Single-ply,2000,,WI,59.15,132.5,-140,140,140,62.5,67.5,-70,67.5,147.5,157.5,162.5,162.5,370,
7,M,Adrian Herbst,SBD,M-HS,60,Single-ply,2000,,WI,59,-140,140,-152.5,140,62.5,-70,70,70,132.5,145,155,155,365,
9,M,Jose Jimenez,SBD,M-HS,60,Single-ply,2002,Cudahy,WI,58.7,-142.5,-142.5,142.5,142.5,70,-75,-75,70,-142.5,147.5,-162.5,147.5,360,
10,M,David Ward,SBD,M-HS,60,Single-ply,2000,,WI,58.3,-127.5,132.5,-137.5,132.5,67.5,70,-75,70,130,137.5,150,150,352.5,
12,M,Jonathan McManus,SBD,M-HS,60,Single-ply,1999,Cudahy,WI,58.65,115,125,-137.5,125,-67.5,-67.5,67.5,67.5,142.5,-152.5,-160,142.5,335,
4,M,Mitchell Gibson,SBD,M-HS,67.5,Single-ply,1999,,WI,66.6,240,-252.5,-252.5,240,87.5,97.5,-102.5,97.5,215,222.5,227.5,227.5,565,
1,M,Ellizer Clune,SBD,M-HS,67.5,Single-ply,1999,,WI,65,215,225,-232.5,225,102.5,112.5,-127.5,112.5,200,210,217.5,217.5,555,
5,M,Brady Stroik,SBD,M-HS,67.5,Single-ply,1998,Germantown,WI,66.25,222.5,230,-232.5,230,102.5,107.5,110,110,200,210,215,215,555,
2,M,Spencer Butke,SBD,M-HS,67.5,Single-ply,2000,Neenah,WI,65.95,180,-192.5,202.5,202.5,85,90,95,95,200,212.5,220,220,517.5,
9,M,Patrick Arbanas,SBD,M-HS,67.5,Single-ply,1999,Necedah,WI,67.45,177.5,185,195,195,105,-110,-112.5,105,182.5,190,195,195,495,
16,M,Seth Morrison,SBD,M-HS,67.5,Single-ply,1998,Neenah,WI,66.25,167.5,177.5,-187.5,177.5,85,92.5,-97.5,92.5,167.5,180,-195,180,450,
4,M,Dominic Johnson,SBD,M-HS,67.5,Single-ply,1999,Germantown,WI,64.35,145,152.5,160,160,95,-100,-100,95,165,175,-180,175,430,
5,M,Peter Piparo,SBD,M-HS,67.5,Single-ply,2000,Cudahy,WI,64.75,165,172.5,-182.5,172.5,65,70,72.5,72.5,182.5,-192.5,-192.5,182.5,427.5,
6,M,Nathaniel Ramsey,SBD,M-HS,67.5,Single-ply,2000,,WI,65.8,165,-172.5,-172.5,165,70,77.5,-82.5,77.5,172.5,182.5,-190,182.5,425,
1,M,Sam Bassan,SBD,M-HS,75,Single-ply,2001,,WI,73.3,240,-252.5,-252.5,240,95,100,102.5,102.5,227.5,237.5,242.5,242.5,585,
2,M,William Gogolla,SBD,M-HS,75,Single-ply,1998,,WI,73.85,-220,220,-230,220,102.5,110,-120,110,225,237.5,245,245,575,
3,M,Dawson Stroik,SBD,M-HS,75,Single-ply,2001,Germantown,WI,72.35,-232.5,232.5,-242.5,232.5,100,107.5,112.5,112.5,210,220,227.5,227.5,572.5,
6,M,Seth Butler,SBD,M-HS,75,Single-ply,1999,,WI,73.95,215,-225,-227.5,215,105,110,-115,110,220,-230,-240,220,545,
7,M,Lachlan Schaaf,SBD,M-HS,75,Single-ply,1999,,WI,73.65,190,197.5,202.5,202.5,102.5,107.5,112.5,112.5,205,215,-220,215,530,
8,M,George Friberg,SBD,M-HS,75,Single-ply,1999,,WI,74.1,195,207.5,217.5,217.5,90,95,97.5,97.5,207.5,-220,-220,207.5,522.5,
8,M,Nathan Berg,SBD,M-HS,75,Single-ply,1999,,WI,71.5,175,185,-200,185,77.5,82.5,-87.5,82.5,205,225,240,240,507.5,
9,M,Austin Dressel,SBD,M-HS,75,Single-ply,1999,,WI,74.2,165,187.5,-192.5,187.5,95,100,102.5,102.5,192.5,-217.5,-217.5,192.5,482.5,
10,M,Case Riehl,SBD,M-HS,75,Single-ply,2000,,WI,74.25,177.5,190,200,200,82.5,87.5,92.5,92.5,177.5,187.5,-200,187.5,480,
10,M,Brandon Johnson,SBD,M-HS,75,Single-ply,2000,,WI,71.45,185,197.5,207.5,207.5,75,80,-85,80,187.5,-210,-210,187.5,475,
11,M,Ian Pfaff,SBD,M-HS,75,Single-ply,2000,,WI,74.1,165,172.5,175,175,90,-95,95,95,197.5,-205,-205,197.5,467.5,
11,M,Rodrigo De la Pena,SBD,M-HS,75,Single-ply,1999,Germantown,WI,72.6,180,-190,-190,180,85,-90,90,90,-197.5,197.5,-210,197.5,467.5,
12,M,Jacob Kundert,SBD,M-HS,75,Single-ply,1999,,WI,73.95,-165,165,177.5,177.5,87.5,92.5,97.5,97.5,190,-205,-215,190,465,
13,M,Adam Clayton,SBD,M-HS,75,Single-ply,1999,,WI,72.1,-162.5,162.5,-167.5,162.5,102.5,-105,-105,102.5,195,-200,-200,195,460,
14,M,Alex Pope,SBD,M-HS,75,Single-ply,2000,,WI,72.75,170,-175,-175,170,92.5,95,100,100,180,187.5,-192.5,187.5,457.5,
15,M,Levi Bishop,SBD,M-HS,75,Single-ply,1999,,WI,73.25,165,180,185,185,97.5,105,-107.5,105,167.5,-187.5,-200,167.5,457.5,
DQ,M,Raul Marin,SBD,M-HS,75,Single-ply,1999,,WI,70.55,-192.5,-192.5,-192.5,,92.5,97.5,100,100,-197.5,,,,,
DQ,M,Afzaluddin Sirajuddin,SBD,M-HS,75,Single-ply,1999,Cudahy,WI,72.8,-185,185,-197.5,185,-97.5,-97.5,-97.5,,192.5,-200,-200,192.5,,
1,M,Zaven Ouzounian,SBD,M-HS,82.5,Single-ply,1999,,WI,80.95,247.5,260,270,270,112.5,120,125,125,237.5,242.5,245,245,640,
2,M,Ryan Sanders,SBD,M-HS,82.5,Single-ply,1999,,WI,79.5,225,-235,-235,225,125,130,132.5,132.5,-257.5,-265,265,265,622.5,
3,M,Noah Johnson,SBD,M-HS,82.5,Single-ply,2000,,WI,79.6,-240,240,245,245,110,117.5,122.5,122.5,242.5,-250,250,250,617.5,
4,M,Austin Paul,SBD,M-HS,82.5,Single-ply,1999,Germantown,WI,81.6,232.5,245,-255,245,100,107.5,110,110,232.5,245,255,255,610,
5,M,Shane Kierstyn,SBD,M-HS,82.5,Single-ply,2001,,WI,81.5,217.5,-232.5,232.5,232.5,112.5,120,125,125,240,250,-267.5,250,607.5,
6,M,Austin Payne,SBD,M-HS,82.5,Single-ply,2000,,WI,81.15,207.5,217.5,-227.5,217.5,82.5,87.5,90,90,212.5,-227.5,227.5,227.5,535,
7,M,Sam Nelson,SBD,M-HS,82.5,Single-ply,2000,,WI,79.7,-220,-220,220,220,102.5,-107.5,-107.5,102.5,205,-210,-210,205,527.5,
1,M,Bryce Kasper,SBD,M-HS,90,Single-ply,2000,,WI,89.2,220,230,237.5,237.5,112.5,120,-125,120,242.5,252.5,-272.5,252.5,610,
2,M,Jacob Czaplewski,SBD,M-HS,90,Single-ply,1999,Waterford,WI,85.3,217.5,230,-237.5,230,130,135,137.5,137.5,217.5,227.5,237.5,237.5,605,
3,M,Isaac Jerde,SBD,M-HS,90,Single-ply,1998,,WI,90,245,-257.5,-262.5,245,122.5,-127.5,-127.5,122.5,235,-245,-247.5,235,602.5,
4,M,Trey Wilson,SBD,M-HS,90,Single-ply,1999,Germantown,WI,84.95,215,227.5,-235,227.5,107.5,112.5,117.5,117.5,210,220,227.5,227.5,572.5,
5,M,Khalil Cousins,SBD,M-HS,90,Single-ply,1999,,WI,87.2,205,215,-227.5,215,107.5,115,120,120,222.5,230,237.5,237.5,572.5,
6,M,Zachary Tesch,SBD,M-HS,90,Single-ply,2000,,WI,87.4,225,237.5,-247.5,237.5,112.5,117.5,120,120,200,-207.5,215,215,572.5,
7,M,Luke Brinkman,SBD,M-HS,90,Single-ply,1999,,WI,85,192.5,210,217.5,217.5,97.5,102.5,-110,102.5,205,227.5,-232.5,227.5,547.5,
8,M,Michael Kazy-Garey,SBD,M-HS,90,Single-ply,1999,,WI,88,200,-212.5,-212.5,200,110,120,-125,120,165,217.5,-235,217.5,537.5,
9,M,Franklin Hartzheim,SBD,M-HS,90,Single-ply,1999,Germantown,WI,88,-205,-205,205,205,95,100,102.5,102.5,220,230,-237.5,230,537.5,
DQ,M,Austin Collins-Martin,SBD,M-HS,90,Single-ply,1999,,WI,86.5,-210,210,-220,210,-92.5,92.5,95,95,-212.5,-212.5,-212.5,,,
DQ,M,Cade Quillin,SBD,M-HS,90,Single-ply,1998,,WI,88.4,227.5,240,-247.5,240,-140,-140,-140,,242.5,-252.5,-252.5,242.5,,
DQ,M,Cooper Riehl,SBD,M-HS,90,Single-ply,1999,,WI,89.55,-245,-257.5,-267.5,,105,110,115,115,240,255,-277.5,255,,
1,M,Andre Dusek,SBD,M-HS,100,Single-ply,1998,,WI,99,-277.5,277.5,290,290,110,117.5,122.5,122.5,242.5,257.5,-260,257.5,670,
2,M,Charlie Chalchoff,SBD,M-HS,100,Single-ply,1998,,WI,98.6,227.5,-250,-250,227.5,120,125,130,130,227.5,257.5,-267.5,257.5,615,
3,M,Hunter Burlingame,SBD,M-HS,100,Single-ply,2000,,WI,98.7,225,237.5,245,245,117.5,122.5,-130,122.5,240,-247.5,-247.5,240,607.5,
5,M,Collin Ciombor,SBD,M-HS,100,Single-ply,1998,,WI,97.4,227.5,-235,235,235,120,125,-127.5,125,227.5,235,-240,235,595,
7,M,James Bird,SBD,M-HS,100,Single-ply,1998,,WI,98.2,235,-247.5,-255,235,97.5,-105,105,105,237.5,252.5,-267.5,252.5,592.5,
10,M,Dalton Staller,SBD,M-HS,100,Single-ply,1998,Necedah,WI,96.6,227.5,232.5,237.5,237.5,110,115,122.5,122.5,195,205,-215,205,565,
2,M,Marshall Messmer,SBD,M-HS,110,Single-ply,1999,,WI,106.3,247.5,260,282.5,282.5,125,130,-137.5,130,275,297.5,-317.5,297.5,710,
3,M,Jordan Stokes,SBD,M-HS,110,Single-ply,2001,,WI,105.6,272.5,282.5,-292.5,282.5,112.5,122.5,-127.5,122.5,242.5,255,-280,255,660,
4,M,Olinh Craig,SBD,M-HS,110,Single-ply,1999,,WI,101.1,220,240,250,250,105,112.5,-117.5,112.5,217.5,240,-255,240,602.5,
6,M,Daniel Colvin,SBD,M-HS,110,Single-ply,1998,Germantown,WI,103.7,232.5,-245,-255,232.5,105,112.5,117.5,117.5,232.5,245,-255,245,595,
8,M,Joshua Schickert,SBD,M-HS,110,Single-ply,2000,Germantown,WI,102.8,-237.5,237.5,-247.5,237.5,122.5,127.5,-130,127.5,202.5,212.5,220,220,585,
9,M,Jaycee Mozdzen,SBD,M-HS,110,Single-ply,2002,Germantown,WI,104.6,225,235,-237.5,235,110,115,-117.5,115,217.5,227.5,-237.5,227.5,577.5,
9,M,Alex Ochs,SBD,M-HS,110,Single-ply,2001,Waterford,WI,109.8,207.5,217.5,225,225,117.5,122.5,125,125,192.5,202.5,212.5,212.5,562.5,
11,M,Michael Young,SBD,M-HS,110,Single-ply,2000,,WI,106,210,220,225,225,97.5,102.5,107.5,107.5,210,220,-230,220,552.5,
12,M,Mike Misorski,SBD,M-HS,110,Single-ply,1999,,WI,110,227.5,-237.5,-245,227.5,97.5,102.5,-107.5,102.5,207.5,-215,-227.5,207.5,537.5,
13,M,Marcos Chavez Jr,SBD,M-HS,110,Single-ply,1999,,WI,107.5,205,210,215,215,95,-97.5,97.5,97.5,210,-220,-220,210,522.5,
1,M,Eddie Uden,SBD,M-HS,125,Single-ply,1998,,WI,118.2,-300,300,340,340,150,165,-175,165,-282.5,282.5,292.5,292.5,797.5,
4,M,Ethan Walters,SBD,M-HS,125,Single-ply,1999,Germantown,WI,114.4,265,-282.5,-282.5,265,130,137.5,-142.5,137.5,220,230,232.5,232.5,635,
5,M,Eric Armbruster,SBD,M-HS,125,Single-ply,1998,,WI,119.8,227.5,242.5,-247.5,242.5,145,152.5,-162.5,152.5,235,240,-245,240,635,
6,M,Daniel Carpenter,SBD,M-HS,125,Single-ply,1999,,WI,114,240,255,-262.5,255,135,-142.5,-142.5,135,205,-230,-230,205,595,
7,M,Zachery Schaeve,SBD,M-HS,125,Single-ply,1999,Germantown,WI,115,237.5,-252.5,-252.5,237.5,110,115,117.5,117.5,207.5,220,225,225,580,
9,M,Jared Thomas,SBD,M-HS,125,Single-ply,1998,Necedah,WI,121.1,240,247.5,-257.5,247.5,95,105,115,115,185,200,207.5,207.5,570,
8,M,Nicholas Coca,SBD,M-HS,125,Single-ply,2000,,WI,116.7,230,-237.5,-237.5,230,105,110,112.5,112.5,215,225,-227.5,225,567.5,
10,M,Shan Bloomer,SBD,M-HS,125,Single-ply,1999,Necedah,WI,112.5,-255,255,-267.5,255,85,97.5,-105,97.5,182.5,202.5,-215,202.5,555,
DQ,M,Zade Johnson,SBD,M-HS,125,Single-ply,1999,,WI,121.2,-217.5,-217.5,-217.5,,125,135,145,145,157.5,172.5,187.5,187.5,,
1,M,Raymond Arns,SBD,M-HS,125+,Single-ply,1998,,WI,139.3,250,265,277.5,277.5,167.5,177.5,-187.5,177.5,217.5,-227.5,-227.5,217.5,672.5,
2,M,Owen Rozumalski,SBD,M-HS,125+,Single-ply,2000,,WI,126,250,262.5,272.5,272.5,142.5,150,-155,150,227.5,-237.5,237.5,237.5,660,
3,M,Kawehekaia Gaison,SBD,M-HS,125+,Single-ply,1999,,WI,160.6,260,280,-300,280,142.5,152.5,162.5,162.5,200,215,-227.5,215,657.5,
4,M,Nathan Zak,SBD,M-HS,125+,Single-ply,2001,Germantown,WI,129.2,-272.5,272.5,287.5,287.5,110,115,117.5,117.5,205,217.5,227.5,227.5,632.5,
5,M,Collin Neubauer,SBD,M-HS,125+,Single-ply,1999,,WI,151.4,252.5,265,272.5,272.5,115,120,-122.5,120,215,-227.5,-227.5,215,607.5,
6,M,Oscalito Arroyo,SBD,M-HS,125+,Single-ply,1999,Cudahy,WI,142,-272.5,272.5,-300,272.5,120,125,-130,125,195,205,-210,205,602.5,
7,M,Spencer Herrick,SBD,M-HS,125+,Single-ply,2000,,WI,132.2,-212.5,-212.5,212.5,212.5,100,105,107.5,107.5,252.5,272.5,-285,272.5,592.5,
8,M,Tyler David,SBD,M-HS,125+,Single-ply,1999,Necedah,WI,125.5,-252.5,252.5,260,260,120,125,-130,125,195,200,-202.5,200,585,
DQ,M,Maxwell Proctor,SBD,M-HS,125+,Single-ply,1998,,WI,136.8,-217.5,-227.5,-227.5,,132.5,-140,-140,132.5,242.5,-247.5,-247.5,242.5,,
1,M,Brandon Haag,SBD,MR-G,82.5,Raw,1999,,WI,82.5,165,175,-185,175,-97.5,100,105,105,242.5,252.5,260,260,540,
14,M,Maxwell Masog,SBD,MR-HS,52,Raw,2002,,WI,50.85,65,75,-82.5,75,45,47.5,50,50,82.5,92.5,97.5,97.5,222.5,
15,M,Travis Laube,SBD,MR-HS,52,Raw,2000,,WI,52,62.5,-70,-82.5,62.5,37.5,42.5,-47.5,42.5,85,102.5,110,110,215,
2,M,Cole Birch,SBD,MR-HS,56,Raw,1999,,WI,53.8,107.5,112.5,115,115,60,65,67.5,67.5,152.5,157.5,160,160,342.5,
5,M,Plai Vang,SBD,MR-HS,56,Raw,1999,,WI,54.95,102.5,-110,110,110,67.5,72.5,75,75,115,130,132.5,132.5,317.5,
6,M,Aidan Miers,SBD,MR-HS,56,Raw,2000,,WI,54.5,92.5,100,102.5,102.5,45,47.5,50,50,137.5,145,155,155,307.5,
8,M,Brogan Glennon,SBD,MR-HS,56,Raw,2001,,WI,54.2,-92.5,-92.5,95,95,52.5,55,57.5,57.5,102.5,115,125,125,277.5,
9,M,Forest Thoreson,SBD,MR-HS,56,Raw,2001,,WI,54.7,75,82.5,87.5,87.5,55,60,62.5,62.5,102.5,110,115,115,265,2001-04-10
10,M,Broderick Jessesski,SBD,MR-HS,56,Raw,2001,,WI,55.6,92.5,102.5,105,105,55,62.5,-65,62.5,92.5,97.5,-102.5,97.5,265,
11,M,Alex Sackett,SBD,MR-HS,56,Raw,2002,,WI,54.8,85,92.5,95,95,52.5,57.5,-62.5,57.5,95,102.5,110,110,262.5,
12,M,Declan Gubrud,SBD,MR-HS,56,Raw,2001,,WI,54.65,80,85,-90,85,55,57.5,-62.5,57.5,102.5,107.5,-112.5,107.5,250,
13,M,Elvis Cormican,SBD,MR-HS,56,Raw,2000,,WI,55.2,-70,-70,70,70,52.5,57.5,60,60,92.5,102.5,117.5,117.5,247.5,
DQ,M,Dylan Hanson,SBD,MR-HS,56,Raw,2001,,WI,55.02,82.5,-87.5,-90,82.5,47.5,50,-52.5,50,-125,-125,-125,,,
DQ,M,Ricardo Moreno,SBD,MR-HS,56,Raw,1999,,WI,55.1,-117.5,-117.5,-117.5,,,,,,,,,,,
1,M,Gabe Glennon,SBD,MR-HS,60,Raw,1999,,WI,59.15,142.5,162.5,-175,162.5,70,85,-87.5,85,142.5,162.5,167.5,167.5,415,
2,M,Lucas Ebratt,SBD,MR-HS,60,Raw,2000,,WI,59.15,132.5,137.5,-140,137.5,97.5,-102.5,-102.5,97.5,160,167.5,175,175,410,
4,M,Cole Kaiser,SBD,MR-HS,60,Raw,1998,,WI,59.65,120,137.5,142.5,142.5,65,70,75,75,162.5,170,-195,170,387.5,
1,M,Jonas Kasten,SBD,MR-HS,60,Raw,2000,Neenah,WI,58.74,102.5,110,-115,110,80,-85,85,85,140,150,162.5,162.5,357.5,
8,M,Zachary Norman,SBD,MR-HS,60,Raw,1998,,WI,59.4,110,115,-117.5,115,70,72.5,77.5,77.5,140,145,152.5,152.5,345,
3,M,Mason Hurless,SBD,MR-HS,60,Raw,2001,,WI,58.7,97.5,110,117.5,117.5,67.5,72.5,75,75,137.5,147.5,-152.5,147.5,340,
4,M,Sergio Jimenez,SBD,MR-HS,60,Raw,2001,,WI,58.6,125,-130,-130,125,67.5,70,-75,70,125,130,137.5,137.5,332.5,
9,M,Moy Medina,SBD,MR-HS,60,Raw,2002,,WI,60,-102.5,107.5,112.5,112.5,70,77.5,-82.5,77.5,125,132.5,142.5,142.5,332.5,
10,M,Cayden Hartung,SBD,MR-HS,60,Raw,2001,,WI,59.6,90,95,102.5,102.5,70,72.5,77.5,77.5,137.5,142.5,147.5,147.5,327.5,
11,M,Kolton Fiedler,SBD,MR-HS,60,Raw,1999,,WI,59.1,102.5,107.5,-110,107.5,67.5,72.5,75,75,127.5,-142.5,142.5,142.5,325,
12,M,Jacob Bloede,SBD,MR-HS,60,Raw,1998,,WI,59.3,102.5,105,107.5,107.5,70,75,-77.5,75,132.5,142.5,-160,142.5,325,
13,M,Benjamin Moe,SBD,MR-HS,60,Raw,1997,,WI,59.78,107.5,112.5,-120,112.5,60,62.5,65,65,125,130,137.5,137.5,315,
7,M,Grant Geiger,SBD,MR-HS,60,Raw,1998,,WI,58.8,70,-90,92.5,92.5,62.5,67.5,72.5,72.5,102.5,-137.5,137.5,137.5,302.5,
2,M,Brian Miller,SBD,MR-HS,67.5,Raw,1998,,WI,66.5,157.5,167.5,-175,167.5,95,100,102.5,102.5,-205,205,207.5,207.5,477.5,
3,M,Cho Yang,SBD,MR-HS,67.5,Raw,1999,,WI,66.55,160,170,177.5,177.5,92.5,97.5,102.5,102.5,182.5,192.5,197.5,197.5,477.5,
7,M,Adam Drees,SBD,MR-HS,67.5,Raw,1998,,WI,66.95,157.5,-167.5,-167.5,157.5,100,105,-107.5,105,165,172.5,180,180,442.5,
8,M,Vincent Bui,SBD,MR-HS,67.5,Raw,1995,,WI,66.1,132.5,145,-157.5,145,85,95,-97.5,95,170,185,197.5,197.5,437.5,
3,M,Nash Coombs,SBD,MR-HS,67.5,Raw,2000,,WI,63.9,145,-155,-155,145,90,97.5,-102.5,97.5,147.5,160,165,165,407.5,
5,M,Alex Ottinger,SBD,MR-HS,67.5,Raw,1999,,WI,63.2,110,120,130,130,75,80,82.5,82.5,155,165,175,175,387.5,
6,M,Alex Harmston,SBD,MR-HS,67.5,Raw,2000,,WI,64.7,115,127.5,132.5,132.5,80,90,-95,90,155,165,-172.5,165,387.5,
7,M,Jacob Campbell,SBD,MR-HS,67.5,Raw,2000,,WI,64.25,107.5,117.5,132.5,132.5,72.5,-80,-80,72.5,160,170,-185,170,375,
14,M,Colton Steyer,SBD,MR-HS,67.5,Raw,2001,,WI,66.5,122.5,130,-135,130,87.5,97.5,-102.5,97.5,142.5,-157.5,-157.5,142.5,370,
15,M,Cody Broeckel,SBD,MR-HS,67.5,Raw,2000,Cudahy,WI,66.4,127.5,-137.5,-137.5,127.5,80,85,87.5,87.5,142.5,152.5,-160,152.5,367.5,
7,M,Hunter Gagner,SBD,MR-HS,75,Raw,1999,,WI,74.6,165,175,185,185,107.5,112.5,117.5,117.5,192.5,202.5,-205,202.5,505,
1,M,Jasiah Scott,SBD,MR-HS,75,Raw,1999,,WI,69.45,175,182.5,-190,182.5,102.5,-107.5,-107.5,102.5,192.5,200,205,205,490,
4,M,Austin Owens,SBD,MR-HS,75,Raw,1998,,WI,73.9,165,175,-185,175,105,-110,-110,105,182.5,192.5,-200,192.5,472.5,
5,M,Nicholas Greenlaw,SBD,MR-HS,75,Raw,1999,,WI,72.1,150,167.5,177.5,177.5,80,-87.5,-87.5,80,192.5,210,-220,210,467.5,
6,M,Zachary Wendt,SBD,MR-HS,75,Raw,2000,,WI,73.8,142.5,155,167.5,167.5,85,90,92.5,92.5,165,177.5,185,185,445,
9,M,Anthony Melby,SBD,MR-HS,75,Raw,1998,,WI,73.5,135,145,-155,145,87.5,92.5,97.5,97.5,177.5,187.5,-202.5,187.5,430,
10,M,Thomas Van Eperen,SBD,MR-HS,75,Raw,2001,,WI,72.6,145,155,-160,155,80,82.5,85,85,160,172.5,177.5,177.5,417.5,
21,M,Logan Clark,SBD,MR-HS,75,Raw,2000,,WI,74.9,115,130,135,135,82.5,87.5,-90,87.5,175,187.5,-197.5,187.5,410,
11,M,Quinn Parker,SBD,MR-HS,75,Raw,2002,Neenah,WI,73.35,132.5,147.5,-155,147.5,72.5,77.5,82.5,82.5,165,177.5,-190,177.5,407.5,
12,M,Benjamin Ritter,SBD,MR-HS,75,Raw,1999,,WI,73.6,125,137.5,-145,137.5,82.5,87.5,-92.5,87.5,-175,175,-185,175,400,
13,M,Joshua Rieck,SBD,MR-HS,75,Raw,2001,,WI,73.9,110,135,145,145,85,-105,-105,85,150,160,170,170,400,
1,M,Queto Weber,SBD,MR-HS,82.5,Raw,1999,,WI,81.3,212.5,220,227.5,227.5,112.5,117.5,-122.5,117.5,212.5,220,227.5,227.5,572.5,
2,M,Darren Svihovec,SBD,MR-HS,82.5,Raw,1998,,WI,80.3,195,207.5,212.5,212.5,120,127.5,-130,127.5,197.5,-207.5,210,210,550,
3,M,Cameron Severin,SBD,MR-HS,82.5,Raw,1999,,WI,81.2,160,170,180,180,110,115,117.5,117.5,227.5,240,250,250,547.5,
4,M,Joseph Reinicke,SBD,MR-HS,82.5,Raw,1998,,WI,80.6,175,190,200,200,-117.5,122.5,-125,122.5,210,222.5,-227.5,222.5,545,
5,M,Tyler Sahm,SBD,MR-HS,82.5,Raw,1999,,WI,80.4,195,205,-210,205,107.5,-112.5,-112.5,107.5,215,225,-237.5,225,537.5,
6,M,Noah Nordness,SBD,MR-HS,82.5,Raw,1998,,WI,80.6,190,202.5,-207.5,202.5,105,110,115,115,182.5,200,-207.5,200,517.5,
8,M,Carter Schlee,SBD,MR-HS,82.5,Raw,1998,,WI,80.8,155,165,-175,165,122.5,-135,-135,122.5,200,210,217.5,217.5,505,
9,M,Ross Kolodzik,SBD,MR-HS,82.5,Raw,1998,,WI,81.4,160,177.5,185,185,92.5,-100,-100,92.5,215,227.5,-232.5,227.5,505,
10,M,Hunter Engelhardt,SBD,MR-HS,82.5,Raw,1998,,WI,82.3,180,187.5,192.5,192.5,102.5,112.5,-117.5,112.5,-175,-185,185,185,490,
12,M,Ryan Tautges,SBD,MR-HS,82.5,Raw,1999,,WI,80.2,-182.5,182.5,-197.5,182.5,102.5,107.5,-112.5,107.5,160,185,192.5,192.5,482.5,
13,M,Joshua Edwards,SBD,MR-HS,82.5,Raw,2000,,WI,80.4,-165,165,175,175,97.5,102.5,105,105,182.5,190,-202.5,190,470,
14,M,Nicholas Grewe,SBD,MR-HS,82.5,Raw,2000,,WI,81.2,165,172.5,-182.5,172.5,100,112.5,117.5,117.5,-180,180,,180,470,
15,M,Taevin Friedauer,SBD,MR-HS,82.5,Raw,1999,,WI,79.35,165,167.5,-170,167.5,102.5,107.5,115,115,,170,185,185,467.5,
16,M,Seth Polaski,SBD,MR-HS,82.5,Raw,2001,,WI,79.6,-175,175,-180,175,107.5,-110,-110,107.5,-185,185,-190,185,467.5,
17,M,Daniel Domenech,SBD,MR-HS,82.5,Raw,2000,,WI,81.85,135,147.5,150,150,85,90,92.5,92.5,195,207.5,220,220,462.5,
18,M,Ryan Taitano,SBD,MR-HS,82.5,Raw,1999,,WI,82.1,-142.5,142.5,-157.5,142.5,92.5,97.5,-100,97.5,185,200,210,210,450,
19,M,Connor Risberg,SBD,MR-HS,82.5,Raw,2000,,WI,80.95,142.5,155,-167.5,155,107.5,115,-117.5,115,157.5,170,177.5,177.5,447.5,
20,M,Sam Dehring,SBD,MR-HS,82.5,Raw,1999,,WI,79.85,150,157.5,162.5,162.5,107.5,-115,-115,107.5,160,165,175,175,445,
1,M,Torrin Owney,SBD,MR-HS,90,Raw,1999,,WI,88.2,190,195,200,200,155,157.5,-162.5,157.5,185,195,220,220,577.5,
2,M,Christopher Thomas,SBD,MR-HS,90,Raw,1998,,WI,89.5,142.5,185,210,210,115,-142.5,-142.5,115,250,-272.5,-272.5,250,575,
3,M,Carson Manning,SBD,MR-HS,90,Raw,1998,,WI,86.3,185,195,200,200,120,132.5,142.5,142.5,200,-220,-220,200,542.5,
4,M,Drake Biolo,SBD,MR-HS,90,Raw,1999,,WI,85.45,190,-205,205,205,110,117.5,125,125,175,182.5,190,190,520,
5,M,Benjamin Meyer,SBD,MR-HS,90,Raw,1998,,WI,89,-172.5,177.5,-185,177.5,112.5,117.5,120,120,207.5,-220,-220,207.5,505,
7,M,Jeremy Berndt,SBD,MR-HS,90,Raw,1998,,WI,86.05,-177.5,182.5,-192.5,182.5,112.5,-117.5,117.5,117.5,185,190,-200,190,490,
11,M,Tanner Carver,SBD,MR-HS,90,Raw,2000,,WI,82.8,150,160,165,165,90,95,97.5,97.5,207.5,217.5,227.5,227.5,490,
9,M,Travis Messer,SBD,MR-HS,90,Raw,2000,,WI,88.2,147.5,160,-165,160,105,110,-112.5,110,182.5,195,197.5,197.5,467.5,
10,M,Trevor Cross,SBD,MR-HS,90,Raw,1999,,WI,89,142.5,152.5,-167.5,152.5,102.5,107.5,-112.5,107.5,182.5,202.5,207.5,207.5,467.5,
11,M,Aric Jensen,SBD,MR-HS,90,Raw,1999,,WI,86.9,170,175,-182.5,175,107.5,115,-120,115,175,-182.5,-182.5,175,465,
12,M,Thomas Vanderwyst,SBD,MR-HS,90,Raw,1999,,WI,88.5,132.5,162.5,175,175,-92.5,100,105,105,185,-205,-205,185,465,
13,M,Chase Wedwick,SBD,MR-HS,90,Raw,1998,,WI,88.9,-162.5,162.5,-167.5,162.5,105,110,112.5,112.5,177.5,-185,-185,177.5,452.5,
DQ,M,Tyler Brantner,SBD,MR-HS,90,Raw,2000,,WI,84.2,167.5,-172.5,-180,167.5,95,-102.5,-102.5,95,-202.5,-202.5,-202.5,,,
DQ,M,Will Van Ye,SBD,MR-HS,90,Raw,1999,,WI,87.4,210,220,-222.5,220,102.5,107.5,110,110,-237.5,-237.5,-237.5,,,
2,M,Isaac Karpenske,SBD,MR-HS,100,Raw,1998,,WI,98.2,197.5,205,-210,205,112.5,117.5,-122.5,117.5,230,235,245,245,567.5,
4,M,Andrew Benson,SBD,MR-HS,100,Raw,2000,,WI,93.5,195,-202.5,202.5,202.5,107.5,112.5,115,115,-225,225,-227.5,225,542.5,
5,M,Colton Gruse,SBD,MR-HS,100,Raw,2000,,WI,95.9,182.5,195,-210,195,102.5,115,120,120,185,210,-212.5,210,525,
6,M,Johnathan Little,SBD,MR-HS,100,Raw,1998,Waterford,WI,96.4,165,187.5,195,195,112.5,127.5,-132.5,127.5,170,190,200,200,522.5,
7,M,James Splittgerber,SBD,MR-HS,100,Raw,1999,,WI,94.45,-180,180,185,185,-102.5,102.5,105,105,207.5,215,222.5,222.5,512.5,
6,M,Samuel Malewicki,SBD,MR-HS,100,Raw,1998,,WI,90.7,172.5,182.5,187.5,187.5,95,102.5,-110,102.5,182.5,200,215,215,505,
8,M,Caleb Cihlar,SBD,MR-HS,100,Raw,2000,,WI,96.5,185,192.5,-205,192.5,102.5,107.5,-112.5,107.5,185,205,-207.5,205,505,
9,M,Thomas McKinney,SBD,MR-HS,100,Raw,1998,,WI,98.55,165,172.5,-182.5,172.5,110,115,120,120,192.5,197.5,205,205,497.5,
12,M,Reid Dosch,SBD,MR-HS,100,Raw,1999,,WI,97.9,165,-175,-175,165,102.5,107.5,-110,107.5,197.5,205,212.5,212.5,485,
13,M,Ernie Gutierrez,SBD,MR-HS,100,Raw,1999,,WI,99.3,165,177.5,-185,177.5,100,-102.5,102.5,102.5,182.5,197.5,-220,197.5,477.5,
8,M,Ethan Hundt,SBD,MR-HS,100,Raw,2000,,WI,91.9,180,185,-192.5,185,100,105,107.5,107.5,175,180,-185,180,472.5,
DQ,M,Austin Krause,SBD,MR-HS,100,Raw,2000,,WI,96.1,-180,-180,-180,,-110,-110,110,110,192.5,195,200,200,,
DQ,M,Alexander Wallin,SBD,MR-HS,100,Raw,2001,,WI,96.55,175,-180,180,180,102.5,-105,105,105,-182.5,-182.5,,,,
DQ,M,Jordan Geiger,SBD,MR-HS,100,Raw,1998,,WI,90.25,-185,-185,-185,,102.5,107.5,110,110,207.5,-212.5,-212.5,207.5,,
DQ,M,Christian Stenberg,SBD,MR-HS,100,Raw,2000,,WI,97,-235,-245,-245,,140,155,-165,155,205,215,225,225,,
DQ,M,Zakery Schmidt,SBD,MR-HS,100,Raw,1998,,WI,97.45,-175,-175,-175,,100,105,-107.5,105,175,180,185,185,,
1,M,Austin Dunlap,SBD,MR-HS,110,Raw,1999,,WI,102.6,217.5,227.5,235,235,142.5,147.5,152.5,152.5,225,235,-247.5,235,622.5,
2,M,Luc Leszczynski,SBD,MR-HS,110,Raw,2000,,WI,108.7,182.5,192.5,200,200,140,152.5,-155,152.5,215,225,237.5,237.5,590,
3,M,Trent Wilson,SBD,MR-HS,110,Raw,2000,,WI,104.5,207.5,-215,-215,207.5,105,110,-115,110,222.5,235,250,250,567.5,
6,M,Andrew Tompkins,SBD,MR-HS,110,Raw,2000,,WI,106.9,195,215,222.5,222.5,102.5,107.5,110,110,220,-227.5,-227.5,220,552.5,
7,M,Mitchell Pisinger,SBD,MR-HS,110,Raw,2000,,WI,105.3,185,190,195,195,102.5,107.5,-112.5,107.5,212.5,217.5,225,225,527.5,
8,M,Logan Narance,SBD,MR-HS,110,Raw,1999,,WI,106.5,187.5,195,205,205,127.5,-132.5,-137.5,127.5,185,195,-205,195,527.5,
12,M,Elijah Froemming,SBD,MR-HS,110,Raw,2000,,WI,106.4,172.5,190,-200,190,102.5,107.5,-112.5,107.5,-205,205,-232.5,205,502.5,
13,M,Eric Peterson,SBD,MR-HS,110,Raw,1999,,WI,106.8,175,182.5,187.5,187.5,92.5,102.5,105,105,185,197.5,207.5,207.5,500,
10,M,Brandon Ruvalcaba,SBD,MR-HS,110,Raw,2001,,WI,102.2,170,-185,190,190,112.5,120,122.5,122.5,182.5,-197.5,-205,182.5,495,
15,M,Noah Mesa,SBD,MR-HS,110,Raw,2000,,WI,107.1,175,-180,180,180,110,115,-120,115,182.5,195,-207.5,195,490,
11,M,Michael Bidwell,SBD,MR-HS,110,Raw,2001,,WI,103.8,167.5,-175,-175,167.5,92.5,100,105,105,-215,215,-247.5,215,487.5,
17,M,Nathan LeRoy,SBD,MR-HS,110,Raw,2000,,WI,109,170,-182.5,-182.5,170,97.5,105,-110,105,182.5,195,-202.5,195,470,
19,M,John Estrada,SBD,MR-HS,110,Raw,1999,,WI,108.4,142.5,157.5,-165,157.5,82.5,92.5,-97.5,92.5,170,185,190,190,440,
1,M,Alex Boehlen,SBD,MR-HS,125,Raw,2001,Neenah,WI,119.3,200,-212.5,-215,200,137.5,147.5,155,155,-245,-245,245,245,600,
3,M,Jordon Prondzinski,SBD,MR-HS,125,Raw,2000,,WI,114.6,-205,205,222.5,222.5,115,120,-127.5,120,220,227.5,232.5,232.5,575,
4,M,Carter Welch,SBD,MR-HS,125,Raw,2000,,WI,116.6,187.5,192.5,200,200,120,127.5,132.5,132.5,217.5,227.5,230,230,562.5,
5,M,Kaden Ferris,SBD,MR-HS,125,Raw,1999,,WI,110.01,-215,215,-222.5,215,115,120,125,125,192.5,202.5,220,220,560,
9,M,Blake Kaczmarski,SBD,MR-HS,125,Raw,2000,,WI,111,182.5,190,192.5,192.5,105,110,112.5,112.5,192.5,205,217.5,217.5,522.5,
10,M,Austin Januchowski,SBD,MR-HS,125,Raw,1999,,WI,115.5,185,-190,190,190,107.5,-110,-110,107.5,212.5,220,-227.5,220,517.5,
8,M,Brady Donovan,SBD,MR-HS,125,Raw,1999,,WI,121.8,177.5,-185,-185,177.5,102.5,107.5,-110,107.5,212.5,-227.5,227.5,227.5,512.5,
11,M,Noah Mann,SBD,MR-HS,125,Raw,1998,,WI,113.5,155,162.5,170,170,102.5,107.5,-110,107.5,200,210,227.5,227.5,505,
14,M,Chandler Firary,SBD,MR-HS,125,Raw,1999,,WI,114.1,165,177.5,185,185,112.5,120,125,125,175,182.5,-190,182.5,492.5,
16,M,Brenden Segreto,SBD,MR-HS,125,Raw,1998,,WI,115.4,177.5,-187.5,-192.5,177.5,85,92.5,102.5,102.5,182.5,195,-225,195,475,
18,M,Brandon Reigel,SBD,MR-HS,125,Raw,1999,,WI,114.4,-165,165,-170,165,90,95,100,100,182.5,187.5,202.5,202.5,467.5,
12,M,Anders LeMire,SBD,MR-HS,125,Raw,2001,,WI,122.7,170,175,-180,175,95,-100,100,100,182.5,-190,190,190,465,
13,M,Brandon Gilbertson,SBD,MR-HS,125,Raw,2000,,WI,120.6,160,-167.5,-167.5,160,85,90,-95,90,200,-210,-210,200,450,
DQ,M,Ryan Johnson,SBD,MR-HS,125,Raw,1994,,WI,121,175,180,-185,180,-125,125,-127.5,125,-182.5,-182.5,-182.5,,,
1,M,Michael Singer,SBD,MR-HS,125+,Raw,1999,,WI,132.8,182.5,-202.5,202.5,202.5,117.5,-137.5,-137.5,117.5,212.5,230,272.5,272.5,592.5,
2,M,Brandon Haag,SBD,MR-HS,125+,Raw,1999,,WI,140.6,220,-227.5,-230,220,130,135,137.5,137.5,215,225,-237.5,225,582.5,
3,M,Rylan Maves,SBD,MR-HS,125+,Raw,1999,,WI,142,195,205,220,220,97.5,102.5,105,105,225,-237.5,-237.5,225,550,
4,M,Aubrey Anderson,SBD,MR-HS,125+,Raw,1999,,WI,146.6,165,175,-180,175,110,120,125,125,212.5,227.5,240,240,540,
5,M,Devon Smith,SBD,MR-HS,125+,Raw,1991,,WI,138.7,175,192.5,205,205,110,-115,-115,110,202.5,222.5,-237.5,222.5,537.5,
6,M,Trevor Marquardt,SBD,MR-HS,125+,Raw,2000,Neenah,WI,149.6,205,217.5,225,225,105,-115,117.5,117.5,175,190,-220,190,532.5,
7,M,Cole Demulling,SBD,MR-HS,125+,Raw,1998,,WI,136.5,175,-185,185,185,125,135,140,140,185,192.5,-207.5,192.5,517.5,
9,M,Evan Derrick,SBD,MR-HS,125+,Raw,2000,,WI,149.8,170,175,182.5,182.5,97.5,100,102.5,102.5,195,202.5,207.5,207.5,492.5,
10,M,Benjamin Stoner,SBD,MR-HS,125+,Raw,2001,,WI,144.1,167.5,172.5,180,180,100,105,-110,105,192.5,200,-205,200,485,
11,M,Aaron Parker,SBD,MR-HS,125+,Raw,1999,,WI,132.4,172.5,-185,190,190,105,115,-122.5,115,175,-195,-195,175,480,
DQ,M,Andrew Elsner,SBD,MR-HS,125+,Raw,1999,,WI,136.6,-165,-165,-165,,-110,110,112.5,112.5,202.5,210,-227.5,210,,
DQ,M,Justin Newhouse,SBD,MR-HS,125+,Raw,1998,,WI,152.1,-255,-255,-255,,110,-115,115,115,242.5,257.5,-280,257.5,,
DQ,M,Adam Firari,SBD,MR-HS,125+,Raw,,,WI,160.09,-225,225,-227.5,225,147.5,152.5,155,155,-225,-225,-225,,,
2,F,Cara Senn,SBD,F-HS,44,Single-ply,2000,,WI,44,80,-87.5,-87.5,80,30,32.5,-35,32.5,80,85,-87.5,85,197.5,
8,F,Delaney Ortiz,SBD,F-HS,48,Single-ply,2000,Neenah,WI,47.2,-102.5,107.5,112.5,112.5,37.5,42.5,45,45,105,115,-122.5,115,272.5,
9,F,Alannah Daniels,SBD,F-HS,48,Single-ply,1999,Necedah,WI,47.8,102.5,-110,110,110,47.5,50,52.5,52.5,100,-105,-105,100,262.5,
1,F,Lauren Kunkel,SBD,F-HS,48,Single-ply,1999,,WI,46.5,102.5,112.5,117.5,117.5,40,-45,-45,40,87.5,97.5,102.5,102.5,260,
12,F,Emily Salm,SBD,F-HS,48,Single-ply,1999,Neenah,WI,47.5,-92.5,95,-102.5,95,37.5,40,45,45,97.5,105,110,110,250,
13,F,Noelle Ladwig,SBD,F-HS,48,Single-ply,2000,Necedah,WI,47.2,92.5,97.5,-105,97.5,35,37.5,40,40,90,97.5,110,110,247.5,
18,F,Melanie Johnson,SBD,F-HS,48,Single-ply,2001,Neenah,WI,47.5,-75,-75,77.5,77.5,30,-35,-35,30,97.5,102.5,-105,102.5,210,
DQ,F,Brooke Jorstad,SBD,F-HS,48,Single-ply,1998,,WI,47.8,-87.5,-87.5,-87.5,,45,-47.5,-47.5,45,95,-102.5,102.5,102.5,,
1,F,Stephanie Lavoy,SBD,F-HS,52,Single-ply,1999,Necedah,WI,51.7,145,-152.5,152.5,152.5,62.5,65,67.5,67.5,137.5,152.5,160,160,380,
2,F,Mikaela Leibfried,SBD,F-HS,52,Single-ply,1999,,WI,50.9,142.5,155,-160,155,70,75,77.5,77.5,137.5,145,-150,145,377.5,
3,F,Annika Angelo,SBD,F-HS,52,Single-ply,2000,,WI,51.2,132.5,137.5,142.5,142.5,57.5,62.5,-70,62.5,137.5,140,-145,140,345,
4,F,Anna Delao,SBD,F-HS,52,Single-ply,2000,,WI,51.6,125,132.5,140,140,45,47.5,-50,47.5,127.5,-132.5,132.5,132.5,320,
5,F,Britney Wright,SBD,F-HS,52,Single-ply,2002,,WI,51.9,-117.5,117.5,130,130,40,45,-47.5,45,115,127.5,142.5,142.5,317.5,
6,F,Lauren Freeck,SBD,F-HS,52,Single-ply,2001,Cudahy,WI,51.6,105,110,115,115,50,52.5,-55,52.5,140,142.5,-152.5,142.5,310,
7,F,Ashley Lee,SBD,F-HS,52,Single-ply,2001,Cudahy,WI,51.8,115,-120,120,120,50,52.5,-55,52.5,120,125,-130,125,297.5,
10,F,Natalie Weckesser,SBD,F-HS,52,Single-ply,2001,Necedah,WI,51.6,102.5,107.5,112.5,112.5,35,37.5,40,40,102.5,107.5,110,110,262.5,
11,F,Hannah Hanson,SBD,F-HS,52,Single-ply,1999,Riverdale,WI,51,92.5,105,-107.5,105,32.5,35,37.5,37.5,107.5,117.5,-125,117.5,260,
14,F,Brianna Rife,SBD,F-HS,52,Single-ply,1999,,WI,51.2,85,-92.5,92.5,92.5,37.5,42.5,-45,42.5,102.5,112.5,-115,112.5,247.5,
15,F,Ashlynn Arnold,SBD,F-HS,52,Single-ply,2001,,WI,50.8,-87.5,87.5,-97.5,87.5,32.5,37.5,-40,37.5,97.5,102.5,105,105,230,
16,F,Ally Spang,SBD,F-HS,52,Single-ply,2002,,WI,51.8,92.5,-100,-102.5,92.5,30,35,-37.5,35,95,102.5,-112.5,102.5,230,
17,F,Tahismari Santiago,SBD,F-HS,52,Single-ply,1999,Cudahy,WI,51.3,92.5,-97.5,97.5,97.5,32.5,-35,-35,32.5,97.5,-105,-105,97.5,227.5,
1,F,Taylor LaChapelle,SBD,F-HS,56,Single-ply,1999,,WI,55.7,170,180,185,185,75,80,-82.5,80,165,-175,-175,165,430,
3,F,Britney Kopp,SBD,F-HS,56,Single-ply,2001,Cudahy,WI,56,137.5,142.5,147.5,147.5,60,62.5,65,65,140,-145,-145,140,352.5,
4,F,Kenzie Svoboda,SBD,F-HS,56,Single-ply,2000,,WI,54.4,130,-135,-135,130,55,57.5,-62.5,57.5,137.5,140,142.5,142.5,330,
5,F,Rhiannon Mach,SBD,F-HS,56,Single-ply,1998,Necedah,WI,55.7,127.5,137.5,142.5,142.5,45,47.5,50,50,120,125,130,130,322.5,
6,F,Taylor Wyngaard,SBD,F-HS,56,Single-ply,2001,Neenah,WI,54.8,126.3,135,140,140,50,52.5,-57.5,52.5,115,-125,-130,115,307.5,
7,F,Jennifer Salazar,SBD,F-HS,56,Single-ply,2000,,WI,55.1,110,117.5,122.5,122.5,52.5,-57.5,-57.5,52.5,110,117.5,122.5,122.5,297.5,
8,F,Haley Chojnacki,SBD,F-HS,56,Single-ply,1999,,WI,55.1,-112.5,115,122.5,122.5,47.5,50,-52.5,50,112.5,120,-127.5,120,292.5,
9,F,Madeline Cieczka,SBD,F-HS,56,Single-ply,2000,Cudahy,WI,55.1,115,120,-122.5,120,37.5,42.5,45,45,110,115,122.5,122.5,287.5,
10,F,Kendra Bartels,SBD,F-HS,56,Single-ply,1999,Necedah,WI,54.8,115,120,122.5,122.5,40,42.5,-47.5,42.5,112.5,117.5,120,120,285,
12,F,Morgan Peters,SBD,F-HS,56,Single-ply,1999,,WI,53,112.5,125,132.5,132.5,32.5,-37.5,-37.5,32.5,102.5,-112.5,112.5,112.5,277.5,
13,F,Lindsey Pennel,SBD,F-HS,56,Single-ply,1999,,WI,53.7,102.5,-107.5,107.5,107.5,47.5,52.5,-55,52.5,95,-102.5,-102.5,95,255,
14,F,Riley Ganther,SBD,F-HS,56,Single-ply,2001,Necedah,WI,55.3,90,95,100,100,30,-32.5,-32.5,30,105,110,115,115,245,
15,F,Trinity Mead,SBD,F-HS,56,Single-ply,2001,Necedah,WI,55.6,-95,95,100,100,35,37.5,-40,37.5,100,105,107.5,107.5,245,
1,F,Cassie Kratt,SBD,F-HS,60,Single-ply,2000,Cudahy,WI,57.3,-152.5,155,165,165,57.5,60,62.5,62.5,-152.5,152.5,160,160,387.5,
2,F,Jane Krueger,SBD,F-HS,60,Single-ply,1999,,WI,57,150,-170,-170,150,55,60,62.5,62.5,155,172.5,175,175,387.5,
2,F,Kelsey Johnson,SBD,F-HS,60,Single-ply,1999,,WI,59.1,147.5,-152.5,-152.5,147.5,55,60,-65,60,147.5,157.5,162.5,162.5,370,
3,F,Courtney Corrente,SBD,F-HS,60,Single-ply,2000,Neenah,WI,57.2,130,-140,145,145,47.5,50,55,55,147.5,160,-170,160,360,
4,F,Olivia Schuerman,SBD,F-HS,60,Single-ply,1999,,WI,59.2,135,-142.5,150,150,52.5,57.5,60,60,137.5,147.5,-155,147.5,357.5,
5,F,Gabrielle Slater,SBD,F-HS,60,Single-ply,1998,,WI,58.5,135,140,145,145,47.5,52.5,-55,52.5,137.5,147.5,-152.5,147.5,345,
6,F,Jessica Larson,SBD,F-HS,60,Single-ply,1998,,WI,59.6,135,-140,142.5,142.5,52.5,57.5,62.5,62.5,135,-145,-155,135,340,
7,F,Grace Tollar,SBD,F-HS,60,Single-ply,2000,Neenah,WI,59,-115,-115,115,115,50,55,57.5,57.5,135,145,-150,145,317.5,
8,F,Elena Marquez,SBD,F-HS,60,Single-ply,2001,Necedah,WI,59.6,125,132.5,135,135,47.5,50,-52.5,50,120,127.5,-130,127.5,312.5,
9,F,Katrina Dunbar,SBD,F-HS,60,Single-ply,2000,,WI,58.8,125,-127.5,-127.5,125,50,52.5,55,55,125,130,-135,130,310,
10,F,Marina Behl,SBD,F-HS,60,Single-ply,1999,Waterford,WI,59.5,115,125,-130,125,40,-47.5,-47.5,40,125,137.5,-140,137.5,302.5,
12,F,Kendra Trewyn,SBD,F-HS,60,Single-ply,2001,Necedah,WI,59,112.5,117.5,-122.5,117.5,42.5,45,-47.5,45,120,-125,125,125,287.5,
11,F,Taja John,SBD,F-HS,60,Single-ply,2000,,WI,56.1,112.5,-125,-125,112.5,40,42.5,47.5,47.5,112.5,122.5,125,125,285,
13,F,Hatanna Larson,SBD,F-HS,60,Single-ply,2001,,WI,58.2,-115,-125,125,125,35,-37.5,37.5,37.5,110,120,-130,120,282.5,
14,F,Anna Dunnick,SBD,F-HS,60,Single-ply,2001,Necedah,WI,59.37,107.5,112.5,117.5,117.5,37.5,42.5,-45,42.5,110,115,-120,115,275,
15,F,Amber Deitz,SBD,F-HS,60,Single-ply,2000,,WI,58.6,-102.5,102.5,107.5,107.5,37.5,40,-42.5,40,107.5,110,-122.5,110,257.5,
16,F,Amanda Sahm,SBD,F-HS,60,Single-ply,2001,,WI,59.7,-100,100,-105,100,40,-45,-45,40,107.5,117.5,-125,117.5,257.5,
DQ,F,Abigail Flora,SBD,F-HS,60,Single-ply,2001,Germantown,WI,58.7,-135,-135,-135,,47.5,52.5,-55,52.5,125,135,-145,135,,
1,F,Jordanne Panton,SBD,F-HS,67.5,Single-ply,1999,,WI,63.6,172.5,182.5,192.5,192.5,70,75,-77.5,75,192.5,212.5,,212.5,480,
2,F,Emma Ramsey,SBD,F-HS,67.5,Single-ply,1998,,WI,66,140,150,160,160,62.5,67.5,-70,67.5,157.5,162.5,167.5,167.5,395,
7,F,Allison Lindquist,SBD,F-HS,67.5,Single-ply,2000,,WI,66,135,145,150,150,52.5,-55,-55,52.5,145,152.5,-157.5,152.5,355,
9,F,Erin Whipple,SBD,F-HS,67.5,Single-ply,2001,,WI,64.9,137.5,145,-157.5,145,42.5,47.5,-50,47.5,132.5,145,152.5,152.5,345,
10,F,Cienna Haller,SBD,F-HS,67.5,Single-ply,2001,,WI,63.1,122.5,130,137.5,137.5,50,55,57.5,57.5,125,135,140,140,335,
11,F,Elizabeth Schuerman,SBD,F-HS,67.5,Single-ply,2000,,WI,64.72,117.5,127.5,135,135,50,55,-57.5,55,120,130,137.5,137.5,327.5,
12,F,Audrey Williams,SBD,F-HS,67.5,Single-ply,2000,Necedah,WI,66.5,127.5,135,140,140,45,50,-52.5,50,127.5,137.5,-147.5,137.5,327.5,
13,F,Melanie Hess,SBD,F-HS,67.5,Single-ply,1999,Necedah,WI,63.1,137.5,142.5,147.5,147.5,50,52.5,-55,52.5,117.5,122.5,-135,122.5,322.5,
14,F,Kirstin Dutzle,SBD,F-HS,67.5,Single-ply,1998,,WI,65.3,125,130,-137.5,130,50,55,57.5,57.5,127.5,-135,-135,127.5,315,
15,F,Leah Underwood,SBD,F-HS,67.5,Single-ply,1999,,WI,65.8,115,127.5,-130,127.5,35,42.5,45,45,125,135,-142.5,135,307.5,
16,F,Emma Anglehart,SBD,F-HS,67.5,Single-ply,2000,,WI,64.8,117.5,-127.5,-132.5,117.5,52.5,55,-60,55,117.5,125,130,130,302.5,
17,F,Rebecca Lee,SBD,F-HS,67.5,Single-ply,1985,,WI,65.7,102.5,122.5,-140,122.5,45,-52.5,-52.5,45,110,135,-147.5,135,302.5,
18,F,Lauren Hodal,SBD,F-HS,67.5,Single-ply,1999,Necedah,WI,66.9,122.5,127.5,135,135,45,50,-55,50,112.5,117.5,-127.5,117.5,302.5,
11,F,Abigail Momberg,SBD,F-HS,67.5,Single-ply,2000,Cudahy,WI,62.8,-110,-110,110,110,47.5,52.5,57.5,57.5,-130,-130,130,130,297.5,
21,F,Somer Nolte,SBD,F-HS,67.5,Single-ply,2002,Necedah,WI,65.95,117.5,122.5,127.5,127.5,37.5,42.5,45,45,112.5,117.5,-122.5,117.5,290,
22,F,Jamie Regnier,SBD,F-HS,67.5,Single-ply,2001,Neenah,WI,65.8,110,120,-130,120,40,45,47.5,47.5,110,-122.5,-127.5,110,277.5,
DQ,F,Caitlyn Whipple,SBD,F-HS,67.5,Single-ply,2000,,WI,66.7,-160,-160,160,160,55,60,-62.5,60,-160,-160,-160,,,
2,F,Nina Duffeck,SBD,F-HS,75,Single-ply,1999,Neenah,WI,73.8,-147.5,155,170,170,65,72.5,-77.5,72.5,150,165,170,170,412.5,
3,F,Camryn Ochs,SBD,F-HS,75,Single-ply,1999,Waterford,WI,73.6,155,165,172.5,172.5,62.5,67.5,-72.5,67.5,135,145,150,150,390,
3,F,Abigail Saunders,SBD,F-HS,75,Single-ply,2000,Necedah,WI,68.5,155,165,-175,165,45,47.5,-50,47.5,157.5,162.5,175,175,387.5,
4,F,Shelby Vacula,SBD,F-HS,75,Single-ply,1999,,WI,72.7,165,172.5,180,180,52.5,55,57.5,57.5,130,137.5,150,150,387.5,
4,F,Rhonda Peronto,SBD,F-HS,75,Single-ply,1999,Cudahy,WI,71.3,150,160,170,170,60,62.5,65,65,137.5,145,150,150,385,
8,F,Dallas Cavegn,SBD,F-HS,75,Single-ply,2000,Neenah,WI,73.2,145,157.5,-165,157.5,67.5,75,-80,75,130,142.5,-157.5,142.5,375,
5,F,Brenna Zuehlke,SBD,F-HS,75,Single-ply,2000,,WI,69.6,142.5,152.5,160,160,57.5,62.5,-67.5,62.5,127.5,140,147.5,147.5,370,
6,F,Geri Fredrickson,SBD,F-HS,75,Single-ply,2001,,WI,71.8,142.5,152.5,160,160,57.5,62.5,-65,62.5,125,132.5,137.5,137.5,360,
8,F,Cloe Winters,SBD,F-HS,75,Single-ply,2000,Necedah,WI,69.3,137.5,142.5,150,150,47.5,52.5,-57.5,52.5,142.5,150,-152.5,150,352.5,
14,F,Kennedy Ketzer,SBD,F-HS,75,Single-ply,2000,,WI,74.6,132.5,140,147.5,147.5,52.5,55,57.5,57.5,130,-135,135,135,340,
20,F,Hannah Hawkins,SBD,F-HS,75,Single-ply,1999,,WI,74.8,125,130,-135,130,52.5,-55,-55,52.5,140,-147.5,-147.5,140,322.5,
19,F,Abagayle Kasper,SBD,F-HS,75,Single-ply,2001,,WI,70.1,-110,-110,110,110,52.5,-57.5,-57.5,52.5,-135,140,-145,140,302.5,
20,F,Kelsey Potratz,SBD,F-HS,75,Single-ply,1999,,WI,70,112.5,-120,-125,112.5,45,52.5,-55,52.5,107.5,120,130,130,295,
DQ,F,Kyla Egan,SBD,F-HS,75,Single-ply,2000,,WI,72.7,-125,125,132.5,132.5,-55,-55,-55,,147.5,-152.5,-152.5,147.5,,
1,F,Sophia Dionne,SBD,F-HS,82.5,Single-ply,1998,,WI,77.6,172.5,185,195,195,65,70,75,75,152.5,160,167.5,167.5,437.5,
5,F,Thea Kjos,SBD,F-HS,82.5,Single-ply,2000,,WI,79.2,152.5,165,170,170,60,62.5,65,65,142.5,147.5,152.5,152.5,387.5,
6,F,Ashley Ristic,SBD,F-HS,82.5,Single-ply,2000,,WI,75.3,150,162.5,167.5,167.5,65,67.5,-70,67.5,140,150,-157.5,150,385,
7,F,Heidi Colvin,SBD,F-HS,82.5,Single-ply,1999,Germantown,WI,80.1,160,-170,170,170,50,55,-57.5,55,147.5,157.5,-165,157.5,382.5,
9,F,Madelyn Woychik,SBD,F-HS,82.5,Single-ply,2000,,WI,79.8,127.5,135,-140,135,67.5,70,72.5,72.5,145,155,-162.5,155,362.5,
10,F,Miah Nielsen,SBD,F-HS,82.5,Single-ply,1999,Waterford,WI,80.9,137.5,142.5,147.5,147.5,65,67.5,70,70,137.5,142.5,-150,142.5,360,
11,F,Kelly Mahsem,SBD,F-HS,82.5,Single-ply,1999,,WI,81.6,152.5,-160,160,160,52.5,55,-57.5,55,142.5,145,-152.5,145,360,
12,F,Alexea Engel,SBD,F-HS,82.5,Single-ply,1999,,WI,80,140,147.5,157.5,157.5,47.5,52.5,-57.5,52.5,125,137.5,-155,137.5,347.5,
15,F,Samantha Kristian,SBD,F-HS,82.5,Single-ply,2000,Necedah,WI,75.1,135,140,142.5,142.5,50,52.5,-55,52.5,127.5,137.5,142.5,142.5,337.5,
16,F,Virginia McMillan,SBD,F-HS,82.5,Single-ply,2001,,WI,80.2,-132.5,132.5,137.5,137.5,55,60,-65,60,132.5,135,140,140,337.5,
17,F,Emily Nickolai,SBD,F-HS,82.5,Single-ply,1999,Neenah,WI,77,127.5,137.5,-147.5,137.5,47.5,52.5,57.5,57.5,127.5,137.5,140,140,335,
18,F,Stella Lobacz,SBD,F-HS,82.5,Single-ply,2002,Waterford,WI,80.6,-125,-140,140,140,40,45,-52.5,45,142.5,150,-160,150,335,
19,F,Laurell Lemberg,SBD,F-HS,82.5,Single-ply,2000,Neenah,WI,78,-122.5,125,140,140,45,50,55,55,117.5,130,-140,130,325,
22,F,Allison Castellon,SBD,F-HS,82.5,Single-ply,1998,,WI,79.3,-115,115,-125,115,50,52.5,-57.5,52.5,150,-167.5,-167.5,150,317.5,
23,F,Maleah Polzin,SBD,F-HS,82.5,Single-ply,2001,,WI,82.5,-125,125,142.5,142.5,42.5,47.5,-50,47.5,120,125,-132.5,125,315,
24,F,Madelynn Mcfarland,SBD,F-HS,82.5,Single-ply,2001,,WI,77.8,125,-137.5,142.5,142.5,37.5,42.5,-45,42.5,120,125,127.5,127.5,312.5,
25,F,Samantha Krajewski,SBD,F-HS,82.5,Single-ply,2001,Cudahy,WI,80.8,105,110,117.5,117.5,45,47.5,-50,47.5,125,137.5,-142.5,137.5,302.5,
26,F,Isabella Mullally,SBD,F-HS,82.5,Single-ply,2002,Neenah,WI,79.4,112.5,120,130,130,45,50,55,55,102.5,112.5,-122.5,112.5,297.5,
27,F,Makenzie Exner,SBD,F-HS,82.5,Single-ply,2002,Necedah,WI,77,105,112.5,-130,112.5,32.5,37.5,42.5,42.5,107.5,115,127.5,127.5,282.5,
3,F,Tessa Wertjes,SBD,F-HS,90,Single-ply,1999,Necedah,WI,87.8,180,185,-192.5,185,60,65,72.5,72.5,157.5,-170,180,180,437.5,
4,F,Dakota Irek,SBD,F-HS,90,Single-ply,1999,,WI,88.8,182.5,-190,-190,182.5,77.5,-85,-85,77.5,175,-177.5,-182.5,175,435,
13,F,Danielle Eaglin,SBD,F-HS,90,Single-ply,2001,Neenah,WI,83.8,145,155,-160,155,-60,65,-67.5,65,127.5,-140,-140,127.5,347.5,
9,F,Shelby Lewis,SBD,F-HS,90,Single-ply,2000,,WI,87.2,105,120,130,130,52.5,60,-65,60,120,137.5,142.5,142.5,332.5,
21,F,Victoria Gorski,SBD,F-HS,90,Single-ply,2001,Cudahy,WI,82.9,102.5,107.5,120,120,45,47.5,-50,47.5,140,147.5,155,155,322.5,
12,F,Anahi De Jesus,SBD,F-HS,90,Single-ply,2001,Cudahy,WI,86.7,110,115,125,125,50,52.5,-55,52.5,125,132.5,137.5,137.5,315,
1,F,Kristen Opiela,SBD,F-HS,90+,Single-ply,2000,Neenah,WI,104.2,200,215,227.5,227.5,67.5,72.5,80,80,195,-210,210,210,517.5,
2,F,Carlie Walker,SBD,F-HS,90+,Single-ply,1999,,WI,144.4,195,205,210,210,90,95,100,100,172.5,185,195,195,505,
5,F,Sabrina Servais,SBD,F-HS,90+,Single-ply,1999,,WI,106.2,185,190,192.5,192.5,60,62.5,-65,62.5,-145,145,150,150,405,
6,F,Miranda Adams,SBD,F-HS,90+,Single-ply,1999,,WI,117.8,182.5,192.5,-200,192.5,60,65,-67.5,65,132.5,140,147.5,147.5,405,
7,F,Bethany Skroch,SBD,F-HS,90+,Single-ply,2001,,WI,105,152.5,162.5,167.5,167.5,52.5,57.5,62.5,62.5,112.5,125,137.5,137.5,367.5,
8,F,Nicole Schmucki,SBD,F-HS,90+,Single-ply,1999,Germantown,WI,112.7,137.5,-145,-145,137.5,50,55,-57.5,55,137.5,147.5,-157.5,147.5,340,
10,F,Amber Beardsley,SBD,F-HS,90+,Single-ply,1999,,WI,100.8,132.5,137.5,-160,137.5,55,60,-65,60,132.5,-140,-140,132.5,330,
11,F,Nora Nichols,SBD,F-HS,90+,Single-ply,1999,,WI,101.2,117.5,127.5,135,135,67.5,72.5,-77.5,72.5,110,-130,-130,110,317.5,
13,F,Erin DeLong,SBD,F-HS,90+,Single-ply,2000,,WI,98.6,-132.5,132.5,-135,132.5,50,55,-60,55,120,-127.5,127.5,127.5,315,
DQ,F,Eden Mokler,SBD,F-HS,90+,Single-ply,2000,,WI,102,132.5,142.5,147.5,147.5,-45,45,-50,45,-132.5,-132.5,-132.5,,,
1,F,Cassie Kletschka,SBD,FR-HS,44,Raw,1998,,WI,42.1,80,85,90,90,37.5,42.5,-45,42.5,85,95,100,100,232.5,
5,F,Cyna Madigan,SBD,FR-HS,44,Raw,2002,,WI,43.2,-57.5,-60,60,60,25,30,32.5,32.5,72.5,77.5,82.5,82.5,175,
6,F,Jessica Mohan,SBD,FR-HS,44,Raw,2001,,WI,43,42.5,50,57.5,57.5,27.5,30,32.5,32.5,65,75,80,80,170,
2,F,Justine Freund,SBD,FR-HS,48,Raw,1999,,WI,44.8,70,75,-77.5,75,30,32.5,-35,32.5,87.5,95,100,100,207.5,
3,F,Jezzicka Tweed,SBD,FR-HS,48,Raw,1999,,WI,47,62.5,67.5,70,70,35,-37.5,37.5,37.5,87.5,95,100,100,207.5,
4,F,Payton Casey,SBD,FR-HS,48,Raw,1999,,WI,45.7,62.5,67.5,-70,67.5,27.5,30,32.5,32.5,75,80,85,85,185,
9,F,Katie Marano,SBD,FR-HS,48,Raw,2000,,WI,47.3,47.5,-50,50,50,25,-27.5,-27.5,25,85,90,-92.5,90,165,
1,F,Sarah Thorn,SBD,FR-HS,52,Raw,1999,,WI,51.2,65,75,-80,75,40,42.5,45,45,102.5,107.5,115,115,235,
2,F,Mari Stafslien-Dumale,SBD,FR-HS,52,Raw,2002,,WI,51,70,75,-80,75,37.5,40,42.5,42.5,105,112.5,115,115,232.5,
3,F,Kayley Colburn,SBD,FR-HS,52,Raw,2000,,WI,51.4,-80,80,-85,80,37.5,40,-42.5,40,-102.5,102.5,-117.5,102.5,222.5,
4,F,Jelly Barr,SBD,FR-HS,52,Raw,1999,,WI,49.5,75,80,-82.5,80,32.5,35,37.5,37.5,85,95,100,100,217.5,
5,F,Anna Wolgemuth,SBD,FR-HS,52,Raw,2000,,WI,51.9,62.5,67.5,-70,67.5,42.5,45,-47.5,45,102.5,-105,-105,102.5,215,
6,F,Karina Frisbie,SBD,FR-HS,52,Raw,2001,,WI,51.4,57.5,65,-70,65,42.5,-47.5,-47.5,42.5,-102.5,102.5,-110,102.5,210,
7,F,Leah Forsythe,SBD,FR-HS,52,Raw,1999,,WI,51.1,-72.5,72.5,-77.5,72.5,37.5,-40,-40,37.5,85,-90,-90,85,195,
8,F,Luanne Schwartz,SBD,FR-HS,52,Raw,1999,,WI,50.4,60,70,-75,70,30,32.5,35,35,-87.5,-87.5,87.5,87.5,192.5,
1,F,Machaela Exner,SBD,FR-HS,56,Raw,2001,Necedah,WI,54.8,100,105,-110,105,52.5,57.5,-60,57.5,102.5,112.5,117.5,117.5,280,
2,F,Elizabeth DeMunck,SBD,FR-HS,56,Raw,1998,,WI,54.4,97.5,-105,-105,97.5,40,42.5,-47.5,42.5,120,130,-140,130,270,
3,F,Elisabeth Oberlin,SBD,FR-HS,56,Raw,2000,,WI,55.1,92.5,-102.5,102.5,102.5,40,42.5,-45,42.5,100,-110,110,110,255,
4,F,Alannah Burke,SBD,FR-HS,56,Raw,2000,,WI,55.7,82.5,85,-87.5,85,40,42.5,45,45,110,115,120,120,250,
5,F,Lexus Zeigler,SBD,FR-HS,56,Raw,1998,,WI,54.5,72.5,-77.5,77.5,77.5,52.5,-57.5,-57.5,52.5,107.5,115,117.5,117.5,247.5,
6,F,Anna Maramonte,SBD,FR-HS,56,Raw,2000,,WI,53.8,82.5,87.5,90,90,40,42.5,-45,42.5,102.5,107.5,112.5,112.5,245,
7,F,Sarah Sweeney,SBD,FR-HS,56,Raw,1999,,WI,53,77.5,85,87.5,87.5,42.5,45,-47.5,45,102.5,105,-112.5,105,237.5,
8,F,Anastasia McCourt,SBD,FR-HS,56,Raw,2001,,WI,55.3,-80,-80,80,80,45,47.5,-50,47.5,87.5,92.5,102.5,102.5,230,
9,F,Jaclyn Sullivan,SBD,FR-HS,56,Raw,1999,,WI,53.9,80,82.5,85,85,40,42.5,-45,42.5,-97.5,97.5,-100,97.5,225,
10,F,Clare Hallum,SBD,FR-HS,56,Raw,2002,,WI,54.5,77.5,-85,-85,77.5,42.5,45,-47.5,45,-102.5,102.5,-105,102.5,225,
11,F,Ashley Sullivan,SBD,FR-HS,56,Raw,1999,,WI,52.2,-80,-82.5,82.5,82.5,37.5,40,-42.5,40,92.5,-100,-102.5,92.5,215,
13,F,Brynn Zwiefelhofer,SBD,FR-HS,56,Raw,2001,,WI,55.4,60,-67.5,-72.5,60,32.5,35,40,40,100,107.5,-112.5,107.5,207.5,
14,F,Sira Shepard,SBD,FR-HS,56,Raw,2000,,WI,56,65,-72.5,-75,65,37.5,42.5,-47.5,42.5,95,-97.5,97.5,97.5,205,
2,F,Jessica Hubley,SBD,FR-HS,60,Raw,1999,,WI,58.7,92.5,-97.5,-97.5,92.5,42.5,45,47.5,47.5,130,135,-140,135,275,
3,F,Jamie Hernandez,SBD,FR-HS,60,Raw,2000,Necedah,WI,59.2,92.5,97.5,102.5,102.5,45,50,-52.5,50,110,117.5,-120,117.5,270,
4,F,Megan Wesolek,SBD,FR-HS,60,Raw,2001,Necedah,WI,59.3,100,105,110,110,47.5,-50,50,50,102.5,107.5,110,110,270,
5,F,Anna Sackett,SBD,FR-HS,60,Raw,2001,,WI,57.7,85,97.5,-102.5,97.5,50,55,60,60,95,107.5,-115,107.5,265,
6,F,Lydia Anderson,SBD,FR-HS,60,Raw,2000,,WI,59.6,102.5,112.5,-115,112.5,45,-47.5,47.5,47.5,90,100,105,105,265,
7,F,Anna Cernohous,SBD,FR-HS,60,Raw,2000,,WI,58.4,92.5,100,102.5,102.5,47.5,52.5,-55,52.5,97.5,105,-112.5,105,260,
8,F,Shyla Dake,SBD,FR-HS,60,Raw,2000,,WI,57.3,80,-87.5,-87.5,80,50,55,60,60,102.5,115,-125,115,255,
11,F,Taylor Van De Hey,SBD,FR-HS,60,Raw,2002,,WI,58.2,75,-82.5,-82.5,75,-40,40,-42.5,40,112.5,117.5,-120,117.5,232.5,
12,F,Sarah Laudolff,SBD,FR-HS,60,Raw,1999,,WI,58.8,90,-95,-95,90,40,-42.5,-42.5,40,87.5,95,-100,95,225,
13,F,Elly Bjork,SBD,FR-HS,60,Raw,2001,,WI,59.1,62.5,-67.5,-67.5,62.5,40,42.5,-45,42.5,105,117.5,-120,117.5,222.5,
14,F,Alexis Snider,SBD,FR-HS,60,Raw,2001,,WI,57.9,65,75,77.5,77.5,35,-40,-40,35,90,100,-115,100,212.5,
12,F,Cailey Erickson,SBD,FR-HS,60,Raw,1999,,WI,56.6,60,72.5,-82.5,72.5,45,47.5,-52.5,47.5,85,90,-100,90,210,
DQ,F,Francesca Sokolik,SBD,FR-HS,60,Raw,2000,,WI,58.7,-92.5,-92.5,-92.5,,47.5,-50,-50,47.5,105,112.5,117.5,117.5,,
1,F,Jazsmin Washington,SBD,FR-HS,67.5,Raw,1999,,WI,65,-130,130,135,135,60,62.5,65,65,142.5,147.5,157.5,157.5,357.5,
2,F,Lexxie Barr,SBD,FR-HS,67.5,Raw,1999,,WI,66.2,132.5,140,142.5,142.5,52.5,57.5,60,60,132.5,142.5,152.5,152.5,355,
5,F,Hannah Slater,SBD,FR-HS,67.5,Raw,2000,,WI,65.3,-107.5,107.5,115,115,50,55,-57.5,55,115,120,125,125,295,
8,F,Emma Malloy,SBD,FR-HS,67.5,Raw,1998,,WI,65.6,92.5,97.5,102.5,102.5,45,50,55,55,105,115,125,125,282.5,
1,F,Emma Marietta,SBD,FR-HS,67.5,Raw,2000,,WI,62.5,80,87.5,92.5,92.5,52.5,57.5,60,60,112.5,125,-130,125,277.5,
11,F,Michelle Steffens,SBD,FR-HS,67.5,Raw,2000,,WI,66.2,90,95,97.5,97.5,37.5,40,42.5,42.5,117.5,125,127.5,127.5,267.5,
12,F,Kassidy Snell,SBD,FR-HS,67.5,Raw,2001,,WI,66.49,95,105,-112.5,105,-52.5,52.5,57.5,57.5,95,102.5,-107.5,102.5,265,
13,F,Madeline Mohorich,SBD,FR-HS,67.5,Raw,1999,,WI,64,85,95,100,100,45,-50,-50,45,117.5,-127.5,-127.5,117.5,262.5,
14,F,Alana Feser,SBD,FR-HS,67.5,Raw,2001,,WI,66.3,80,92.5,-97.5,92.5,42.5,45,47.5,47.5,102.5,117.5,122.5,122.5,262.5,
9,F,Kaylee Patnode,SBD,FR-HS,67.5,Raw,2000,,WI,62.7,-85,85,90,90,40,42.5,-45,42.5,110,115,-140,115,247.5,
15,F,Nadine Alberg,SBD,FR-HS,67.5,Raw,2000,Neenah,WI,65.13,77.5,85,-90,85,42.5,47.5,50,50,107.5,112.5,-120,112.5,247.5,
10,F,Jordan Braund,SBD,FR-HS,67.5,Raw,2002,,WI,62.1,90,-95,-95,90,45,50,55,55,100,-115,-115,100,245,
16,F,Adriana Domenech,SBD,FR-HS,67.5,Raw,2002,,WI,63.1,-82.5,-85,85,85,40,42.5,-47.5,42.5,100,112.5,-125,112.5,240,
17,F,Alexis Leverty,SBD,FR-HS,67.5,Raw,2000,,WI,63.4,85,90,-95,90,35,37.5,40,40,100,110,-120,110,240,
DQ,F,Kourtney Zurbuchen,SBD,FR-HS,67.5,Raw,2000,,WI,63.1,-85,-85,-85,,-52.5,-52.5,-52.5,,112.5,-115,-115,112.5,,
DQ,F,Kortnee Halgren,SBD,FR-HS,67.5,Raw,2001,,WI,66.4,82.5,-87.5,-87.5,82.5,40,42.5,45,45,-130,-135,-135,,,
3,F,Miranda Koehnke,SBD,FR-HS,75,Raw,2001,,WI,71.9,117.5,-125,-125,117.5,52.5,55,57.5,57.5,122.5,130,135,135,310,
4,F,Sophia Becerra,SBD,FR-HS,75,Raw,2000,Necedah,WI,69.4,110,115,120,120,47.5,52.5,55,55,115,120,127.5,127.5,302.5,
6,F,Erin Jacobson,SBD,FR-HS,75,Raw,1999,,WI,70.4,100,-105,105,105,55,60,-62.5,60,125,130,-135,130,295,
7,F,Natalie Phebus,SBD,FR-HS,75,Raw,2001,,WI,73.2,105,-112.5,-112.5,105,60,-65,-65,60,125,-132.5,-132.5,125,290,
7,F,Margaret Kendhammer,SBD,FR-HS,75,Raw,1999,,WI,71.1,102.5,110,-115,110,50,-55,-55,50,115,120,127.5,127.5,287.5,
8,F,Cheyenne Banasik,SBD,FR-HS,75,Raw,1999,,WI,72.5,95,97.5,-100,97.5,55,-57.5,57.5,57.5,132.5,-137.5,-137.5,132.5,287.5,
9,F,Madeline Jenson,SBD,FR-HS,75,Raw,2000,,WI,69.3,95,100,-102.5,100,52.5,55,-57.5,55,120,125,-132.5,125,280,
9,F,Emma Wilson,SBD,FR-HS,75,Raw,1999,,WI,73.2,-105,-105,105,105,50,-55,-55,50,115,125,-132.5,125,280,
10,F,Nicole Heller,SBD,FR-HS,75,Raw,2000,,WI,72,-105,-105,105,105,45,47.5,50,50,112.5,120,-130,120,275,
11,F,Johanna Wolf,SBD,FR-HS,75,Raw,2001,,WI,74,80,87.5,92.5,92.5,37.5,42.5,45,45,105,120,132.5,132.5,270,
13,F,Marley Richmond,SBD,FR-HS,75,Raw,2000,,WI,74,100,105,-110,105,45,47.5,-50,47.5,105,115,-120,115,267.5,
15,F,Emma Scott,SBD,FR-HS,75,Raw,2002,,WI,73.6,85,90,-92.5,90,50,52.5,-55,52.5,112.5,117.5,-125,117.5,260,
1,F,Emma Wothe,SBD,FR-HS,82.5,Raw,1999,,WI,80.5,135,142.5,150,150,65,-70,-70,65,150,160,165,165,380,
2,F,Olivia Shafer,SBD,FR-HS,82.5,Raw,1998,,WI,77.8,147.5,155,160,160,67.5,-72.5,-72.5,67.5,150,-155,-162.5,150,377.5,
3,F,Scout Zinniel,SBD,FR-HS,82.5,Raw,2000,,WI,78.1,102.5,110,115,115,50,52.5,-55,52.5,147.5,155,160,160,327.5,
4,F,Kyla Hatzenbeler,SBD,FR-HS,82.5,Raw,2000,,WI,78.7,107.5,-115,115,115,50,52.5,55,55,127.5,137.5,142.5,142.5,312.5,
5,F,Haley Harms,SBD,FR-HS,82.5,Raw,2000,,WI,79.3,102.5,110,115,115,50,-57.5,57.5,57.5,105,120,122.5,122.5,295,
6,F,Cassidy Wienke,SBD,FR-HS,82.5,Raw,1999,,WI,78.5,105,110,-115,110,55,-57.5,-57.5,55,117.5,-127.5,127.5,127.5,292.5,
12,F,Lindsay Bons,SBD,FR-HS,82.5,Raw,1999,,WI,81.3,-92.5,-92.5,92.5,92.5,42.5,45,-47.5,45,120,132.5,-150,132.5,270,
14,F,Allison Stencil,SBD,FR-HS,82.5,Raw,2000,,WI,76,87.5,90,92.5,92.5,47.5,50,52.5,52.5,100,115,122.5,122.5,267.5,
16,F,Lauren Hildebrandt,SBD,FR-HS,82.5,Raw,2001,,WI,79.2,92.5,97.5,105,105,37.5,40,42.5,42.5,100,105,110,110,257.5,
17,F,Elia Leary,SBD,FR-HS,82.5,Raw,1999,,WI,79.1,90,-100,-105,90,40,42.5,45,45,112.5,120,-130,120,255,
18,F,Michelle Heijtz,SBD,FR-HS,82.5,Raw,1999,,WI,80.6,-82.5,82.5,87.5,87.5,42.5,50,-52.5,50,92.5,110,115,115,252.5,
19,F,Abigail Bartch,SBD,FR-HS,82.5,Raw,1999,,WI,80.1,-82.5,82.5,-92.5,82.5,42.5,47.5,-50,47.5,102.5,115,-117.5,115,245,
20,F,Merideth Baleiko,SBD,FR-HS,82.5,Raw,1999,,WI,79.7,87.5,-95,-95,87.5,40,-45,-45,40,105,110,-120,110,237.5,
1,F,Abbi Stafslien-Dumale,SBD,FR-HS,90,Raw,2000,,WI,86.9,145,150,157.5,157.5,70,75,77.5,77.5,155,162.5,167.5,167.5,402.5,
7,F,Sydney Krueger,SBD,FR-HS,90,Raw,2002,,WI,87.4,110,-127.5,127.5,127.5,52.5,60,-65,60,122.5,137.5,142.5,142.5,330,
11,F,Hailey Durand-Christianson,SBD,FR-HS,90,Raw,1999,,WI,88.3,105,122.5,-127.5,122.5,60,-62.5,-62.5,60,130,137.5,-150,137.5,320,
14,F,Hallie Johnson,SBD,FR-HS,90,Raw,2001,,WI,87,102.5,-105,105,105,55,-57.5,-57.5,55,125,130,137.5,137.5,297.5,
15,F,Alexis Lee,SBD,FR-HS,90,Raw,2001,,WI,88.9,95,100,105,105,50,52.5,-55,52.5,125,135,-137.5,135,292.5,
18,F,Marie Haase,SBD,FR-HS,90,Raw,2000,,WI,87,-92.5,92.5,-105,92.5,55,60,-62.5,60,135,-147.5,-147.5,135,287.5,
19,F,DeAnna Leon,SBD,FR-HS,90,Raw,2000,,WI,88.8,100,105,110,110,47.5,-50,50,50,120,125,127.5,127.5,287.5,
21,F,Abigail Mcnitt,SBD,FR-HS,90,Raw,1999,,WI,86.9,100,105,-107.5,105,47.5,50,-52.5,50,122.5,130,-137.5,130,285,
10,F,Hannah Minke,SBD,FR-HS,90,Raw,2000,,WI,83.7,97.5,102.5,105,105,42.5,47.5,50,50,100,110,120,120,275,
23,F,Riley Schroeder,SBD,FR-HS,90,Raw,2000,,WI,87.7,77.5,-85,85,85,52.5,-57.5,-57.5,52.5,122.5,130,135,135,272.5,
25,F,Hannah Caron,SBD,FR-HS,90,Raw,2000,,WI,86.4,82.5,87.5,92.5,92.5,52.5,55,-60,55,115,-120,-122.5,115,262.5,
DQ,F,Faith Brooks,SBD,FR-HS,90,Raw,2000,,WI,87.4,-115,-115,-115,,-62.5,-62.5,-62.5,,-122.5,122.5,-142.5,122.5,,
2,F,Hailee Markey,SBD,FR-HS,90+,Raw,2000,,WI,103,117.5,140,147.5,147.5,60,65,-70,65,145,165,-182.5,165,377.5,
3,F,Savannah Woods,SBD,FR-HS,90+,Raw,1999,,WI,121.6,157.5,-165,165,165,65,-70,70,70,142.5,-155,-162.5,142.5,377.5,
4,F,Miranda Rueter,SBD,FR-HS,90+,Raw,2000,,WI,128.7,145,-150,-150,145,82.5,85,-87.5,85,145,-157.5,-157.5,145,375,
5,F,Sierra Keyes,SBD,FR-HS,90+,Raw,1999,,WI,94.5,122.5,127.5,135,135,65,67.5,72.5,72.5,127.5,132.5,140,140,347.5,
6,F,Claire Hawthorne,SBD,FR-HS,90+,Raw,1998,,WI,108.6,112.5,122.5,130,130,60,65,67.5,67.5,132.5,142.5,147.5,147.5,345,
8,F,Abbigayle Herman,SBD,FR-HS,90+,Raw,2000,,WI,100.5,107.5,120,-127.5,120,55,60,62.5,62.5,130,140,145,145,327.5,
9,F,Coryn Davidson,SBD,FR-HS,90+,Raw,2001,,WI,121.4,112.5,122.5,-135,122.5,52.5,57.5,-60,57.5,135,147.5,-160,147.5,327.5,
10,F,Emma Foster,SBD,FR-HS,90+,Raw,1999,,WI,143,107.5,110,115,115,75,80,82.5,82.5,120,125,130,130,327.5,
12,F,Sydney Regan,SBD,FR-HS,90+,Raw,2002,,WI,104,105,115,122.5,122.5,47.5,52.5,-55,52.5,120,125,137.5,137.5,312.5,
13,F,Makayla Mattson,SBD,FR-HS,90+,Raw,1999,,WI,103.3,-97.5,97.5,-110,97.5,57.5,62.5,65,65,117.5,130,137.5,137.5,300,
16,F,Savannah Tunks,SBD,FR-HS,90+,Raw,2000,,WI,106,-102.5,102.5,105,105,50,-52.5,-52.5,50,132.5,137.5,-142.5,137.5,292.5,
17,F,Rhea Brennand,SBD,FR-HS,90+,Raw,2000,,WI,96.8,100,107.5,112.5,112.5,45,50,-52.5,50,110,120,127.5,127.5,290,
20,F,Cora Bibeau,SBD,FR-HS,90+,Raw,2000,,WI,108,97.5,105,115,115,47.5,52.5,57.5,57.5,102.5,115,-122.5,115,287.5,
22,F,Taylor Senesac,SBD,FR-HS,90+,Raw,2000,,WI,110,102.5,107.5,115,115,40,42.5,45,45,-122.5,122.5,-125,122.5,282.5,
24,F,Anastasia Texley,SBD,FR-HS,90+,Raw,2000,Necedah,WI,93.6,97.5,102.5,-107.5,102.5,37.5,42.5,-47.5,42.5,107.5,112.5,122.5,122.5,267.5,
DQ,F,Katy Zimmerman,SBD,FR-HS,90+,Raw,2000,,WI,118.8,-150,-150,-150,,,,,,,,,,,
