Division,WeightClassKg,Place,Name,Team,BodyweightKg,Best3SquatKg,Best3BenchKg,Best3DeadliftKg,TotalKg,Equipment,Event,Sex
Boys,51.71,1,Bryan Tran,Amarillo Highland Park,51.35,131.54,74.84,136.08,342.46,Single-ply,SBD,M
Boys,55.79,2,Vinny Meza,Bovina,51.8,104.33,77.11,127.01,308.44,Single-ply,SBD,M
Boys,55.79,3,Sergio Romero,Childress,51.89,104.33,56.7,108.86,269.89,Single-ply,SBD,M
Boys,51.71,4,Edwin Garcia,Friona,49.44,102.06,47.63,113.4,263.08,Single-ply,SBD,M
Boys,51.71,5,Robert Lewis,Shamrock,51.62,45.36,34.02,65.77,145.15,Single-ply,SBD,M
Boys,55.79,1,Fernando Corpus,Amarillo Highland Park,55.16,136.08,77.11,145.15,358.34,Single-ply,SBD,M
Boys,55.79,2,Derek Adame,Plainview,55.25,131.54,74.84,129.27,335.66,Single-ply,SBD,M
Boys,55.79,3,Ray Jaramillo,Clarendon,53.52,124.74,72.57,133.81,331.12,Single-ply,SBD,M
Boys,55.79,4,Alex Lugo,Perryton,54.88,113.4,65.77,142.88,322.05,Single-ply,SBD,M
Boys,55.79,5,Juan Moreno,Amarillo Highland Park,55.16,102.06,65.77,122.47,290.3,Single-ply,SBD,M
Boys,55.79,6,Davin Luna,Plainview,55.79,113.4,56.7,117.93,288.03,Single-ply,SBD,M
Boys,59.87,1,Miguel Espino,Perryton,58.97,151.95,95.25,185.97,433.18,Single-ply,SBD,M
Boys,67.13,2,Danny Gallardo,Plainview,60.06,158.76,83.91,167.83,410.5,Single-ply,SBD,M
Boys,59.87,3,Kenneth Neskorik,Childress,58.79,145.15,81.65,138.35,365.14,Single-ply,SBD,M
Boys,59.87,4,Charles Sinclair,Childress,58.69,129.27,83.91,140.61,353.8,Single-ply,SBD,M
Boys,59.87,5,Jacob Jackson,Vernon,56.52,122.47,81.65,136.08,340.19,Single-ply,SBD,M
Boys,59.87,6,Kaiden Summerville,Perryton,59.15,129.27,70.31,131.54,331.12,Single-ply,SBD,M
Boys,59.87,7,Pedro Dominguez,Bovina,59.42,102.06,68.04,129.27,299.37,Single-ply,SBD,M
Boys,59.87,8,Clint Franks,Clarendon,59.33,90.72,81.65,106.59,278.96,Single-ply,SBD,M
Boys,67.13,DQ,Gerardo Tarango,Perryton,60.06,92.99,,,,Single-ply,SBD,M
Boys,59.87,DQ,Dalton Stang,Stinnett West Texas,58.06,124.74,,,,Single-ply,SBD,M
Boys,67.13,1,Adan Ramirez,Friona,65.77,222.26,124.74,201.85,548.85,Single-ply,SBD,M
Boys,67.13,2,Zack Rosas,Plainview,65.86,161.03,90.72,181.44,433.18,Single-ply,SBD,M
Boys,67.13,3,Jonathan Schwartzenberg,Canyon Randall,63.68,145.15,97.52,172.37,415.04,Single-ply,SBD,M
Boys,67.13,4,Carson Williams,Plainview,66.5,163.29,95.25,151.95,410.5,Single-ply,SBD,M
Boys,67.13,5,Aaron James,Childress,66.95,147.42,92.99,149.69,390.09,Single-ply,SBD,M
Boys,67.13,6,Joseph Jaramillo,Clarendon,64.5,142.88,88.45,156.49,387.82,Single-ply,SBD,M
Boys,67.13,7,Ramiro Carmona,Bovina,62.96,154.22,68.04,163.29,385.55,Single-ply,SBD,M
Boys,67.13,8,Bo Lott,Childress,66.04,136.08,92.99,147.42,376.48,Single-ply,SBD,M
Boys,67.13,9,Terrin Campbell,Amarillo Highland Park,61.6,142.88,65.77,138.35,347,Single-ply,SBD,M
Boys,67.13,10,Bernie De La Rosa,Bovina,62.41,127.01,63.5,149.69,340.19,Single-ply,SBD,M
Boys,67.13,11,David Del Fraire,Perryton,65.59,122.47,63.5,151.95,337.93,Single-ply,SBD,M
Boys,67.13,12,Francisco Borunda,Perryton,64.32,122.47,70.31,136.08,328.85,Single-ply,SBD,M
Boys,67.13,13,Isreal Espinoza,Bovina,61.96,106.59,70.31,120.2,297.1,Single-ply,SBD,M
Boys,67.13,14,Trey Lopez,Childress,62.32,111.13,58.97,122.47,292.57,Single-ply,SBD,M
Boys,67.13,15,Nick Shadle,Clarendon,63.5,99.79,61.23,120.2,281.23,Single-ply,SBD,M
Boys,74.84,16,Jaime Lizama,Childress,67.31,111.13,58.97,111.13,281.23,Single-ply,SBD,M
Boys,74.84,1,Jd Lopez,Childress,71.85,199.58,127.01,188.24,514.83,Single-ply,SBD,M
Boys,74.84,2,Jarric Weber,Borger,69.04,167.83,111.13,208.65,487.61,Single-ply,SBD,M
Boys,82.1,3,Kyle McConnell,Plainview,74.93,158.76,99.79,185.97,444.52,Single-ply,SBD,M
Boys,74.84,4,Tyrell Cambell,Amarillo Highland Park,73.94,156.49,95.25,190.51,442.25,Single-ply,SBD,M
Boys,74.84,5,Dylan Davidson,Childress,69.58,158.76,88.45,181.44,428.64,Single-ply,SBD,M
Boys,74.84,6,Garron Weber,Borger,68.76,142.88,95.25,181.44,419.57,Single-ply,SBD,M
Boys,74.84,7,Aldo Ramirez,Perryton,70.76,172.37,74.84,172.37,419.57,Single-ply,SBD,M
Boys,74.84,8,Julio Sanchez,Perryton,71.94,138.35,86.18,165.56,390.09,Single-ply,SBD,M
Boys,74.84,9,Devin Novak,Amarillo Highland Park,70.49,156.49,77.11,147.42,381.02,Single-ply,SBD,M
Boys,74.84,10,Aaron Hunt,Shamrock,71.49,129.27,81.65,165.56,376.48,Single-ply,SBD,M
Boys,74.84,11,Emilio Espinoza,Bovina,69.94,127.01,70.31,154.22,351.53,Single-ply,SBD,M
Boys,74.84,12,Thomas Adams #3,Childress,69.67,131.54,79.38,136.08,347,Single-ply,SBD,M
Boys,74.84,13,Ethan Ballard,Clarendon,72.57,122.47,77.11,138.35,337.93,Single-ply,SBD,M
Boys,74.84,14,Austin Prater,Childress,71.67,122.47,74.84,131.54,328.85,Single-ply,SBD,M
Boys,74.84,DQ,Justin Goodwin,Childress,73.57,154.22,,,,Single-ply,SBD,M
Boys,89.81,1,Domingo Saucedo,Plainview,82.28,238.14,158.76,226.8,623.69,Single-ply,SBD,M
Boys,82.1,2,Bailey Settle,Plainview,81.37,208.65,117.93,190.51,517.1,Single-ply,SBD,M
Boys,82.1,3,Tyler Baker,Borger,77.47,190.51,120.2,195.04,505.76,Single-ply,SBD,M
Boys,82.1,4,Courtney Gravely,Amarillo Highland Park,79.2,185.97,104.33,204.12,494.42,Single-ply,SBD,M
Boys,82.1,5,Alexander Guerrero,Childress,80.1,181.44,113.4,195.04,489.88,Single-ply,SBD,M
Boys,82.1,6,Cutter Paris,Canyon Randall,77.2,147.42,92.99,158.76,399.16,Single-ply,SBD,M
Boys,82.1,7,Jace Taylor,Stinnett West Texas,76.84,147.42,90.72,158.76,396.89,Single-ply,SBD,M
Boys,82.1,8,Jose Rodriguez,Friona,79.74,151.95,86.18,151.95,390.09,Single-ply,SBD,M
Boys,82.1,9,Wesley Ward,Borger,80.29,136.08,79.38,154.22,369.68,Single-ply,SBD,M
Boys,82.1,10,Dan O'Brian,Friona,81.83,129.27,86.18,142.88,358.34,Single-ply,SBD,M
Boys,82.1,11,Jt Bennett,Stinnett West Texas,80.83,131.54,83.91,138.35,353.8,Single-ply,SBD,M
Boys,82.1,12,Miguel Olivas,Perryton,80.29,120.2,70.31,151.95,342.46,Single-ply,SBD,M
Boys,89.81,13,Coleman Lott,Childress,82.28,117.93,97.52,113.4,328.85,Single-ply,SBD,M
Boys,89.81,1,Miguel Rangel,Borger,86.64,201.85,129.27,192.78,523.9,Single-ply,SBD,M
Boys,89.81,2,Patrick Lee,Canyon Randall,88.36,176.9,102.06,226.8,505.76,Single-ply,SBD,M
Boys,89.81,3,Chase Galyean,Childress,87.82,199.58,106.59,188.24,494.42,Single-ply,SBD,M
Boys,89.81,4,Erick Young,Canyon Randall,89.45,167.83,122.47,165.56,455.86,Single-ply,SBD,M
Boys,89.81,5,Tyler Lepp,Shamrock,87,176.9,92.99,176.9,446.79,Single-ply,SBD,M
Boys,89.81,6,Colin Davis,Vernon,84.01,149.69,95.25,181.44,426.38,Single-ply,SBD,M
Boys,89.81,7,Kendall Anders,Amarillo Highland Park,88,145.15,83.91,165.56,394.63,Single-ply,SBD,M
Boys,99.79,1,Ethan Embry,Plainview,91.44,185.97,106.59,188.24,480.81,Single-ply,SBD,M
Boys,99.79,2,Zach Bailey,Canyon Randall,99.25,163.29,127.01,183.7,474,Single-ply,SBD,M
Boys,99.79,3,Leonell Carillo,Bovina,98.52,154.22,115.67,192.78,462.66,Single-ply,SBD,M
Boys,99.79,4,Rhett Buckley,Childress,92.62,165.56,99.79,163.29,428.64,Single-ply,SBD,M
Boys,99.79,5,Julian Garcia,Bovina,95.71,142.88,81.65,142.88,367.41,Single-ply,SBD,M
Boys,99.79,6,Jesus Sanchez,Bovina,90.99,108.86,65.77,142.88,317.51,Single-ply,SBD,M
Boys,99.79,DQ,Adin Mizer,Canyon Randall,95.44,172.37,,,,Single-ply,SBD,M
Boys,99.79,DQ,Aaron Morales,Perryton,92.26,111.13,,,,Single-ply,SBD,M
Boys,109.77,1,Moises Garcia,Plainview,108.23,272.16,138.35,226.8,637.3,Single-ply,SBD,M
Boys,109.77,2,Joel Salas,Bovina,109.5,199.58,129.27,208.65,537.51,Single-ply,SBD,M
Boys,109.77,3,Steven Holsey,Borger,107.77,176.9,83.91,174.63,435.45,Single-ply,SBD,M
Boys,109.77,4,Mason Lafever,Canyon Randall,109.41,142.88,115.67,158.76,417.3,Single-ply,SBD,M
Boys,109.77,5,Jeremy Pace,Shamrock,107.86,163.29,95.25,140.61,399.16,Single-ply,SBD,M
Boys,109.77,6,Skyler Howery,Canyon Randall,106.23,138.35,92.99,165.56,396.89,Single-ply,SBD,M
Boys,109.77,7,Hulices Navarrete,Perryton,102.42,117.93,72.57,111.13,301.64,Single-ply,SBD,M
Boys,109.77,DQ,Ryan Lambert,Childress,107.05,158.76,,,,Single-ply,SBD,M
Boys,124.74+,1,Celso Guerrero,Childress,124.92,267.62,190.51,244.94,703.07,Single-ply,SBD,M
Boys,124.74,2,Spencer Holsey,Borger,117.84,272.16,149.69,263.08,684.92,Single-ply,SBD,M
Boys,124.74,3,Colton Jones,Borger,115.21,226.8,127.01,226.8,580.6,Single-ply,SBD,M
Boys,124.74,4,Mark Munoz,Childress,118.02,208.65,142.88,219.99,571.53,Single-ply,SBD,M
Boys,124.74+,5,Camilo de la Rosa,Bovina,124.92,204.12,117.93,204.12,526.17,Single-ply,SBD,M
Boys,124.74,6,Hagan Kelly,Plainview,111.67,179.17,131.54,179.17,489.88,Single-ply,SBD,M
Boys,124.74,7,Jacob Pace,Shamrock,116.3,185.97,90.72,181.44,458.13,Single-ply,SBD,M
Boys,,NS,Seth Greer,Clarendon,,,,,,Single-ply,SBD,M
