Division,WeightClassKg,Place,Name,Team,BodyweightKg,Best3SquatKg,Best3BenchKg,Best3DeadliftKg,TotalKg,Equipment,Event,Sex
Boys,51.71,1,Christian Obregon,Dilley,50.8,129.27,77.11,113.4,319.78,Single-ply,SBD,M
Boys,51.71,2,Sawyer Yandell,Devine,51.35,131.54,54.43,127.01,312.98,Single-ply,SBD,M
Boys,51.71,3,Joel Rodriguez,Castroville Medina Valley,51.48,86.18,74.84,124.74,285.76,Single-ply,SBD,M
Boys,51.71,4,Jesus Ramirez,Zapata,45.09,65.77,49.9,102.06,217.72,Single-ply,SBD,M
Boys,55.79,1,Felipe Medina,Zapata,55.79,145.15,65.77,145.15,356.07,Single-ply,SBD,M
Boys,55.79,2,Christian Sanchez,Cotulla,54.25,124.74,77.11,149.69,351.53,Single-ply,SBD,M
Boys,59.87,3,David Saenz,Hebbronville,55.88,127.01,72.57,149.69,349.27,Single-ply,SBD,M
Boys,55.79,DQ,Jacob Almaguer,George West,55.79,,,,,Single-ply,SBD,M
Boys,59.87,1,Austin Munoz,Freer,58.79,142.88,95.25,208.65,446.79,Single-ply,SBD,M
Boys,59.87,2,Virgil Alfaro,Zapata,59.51,149.69,95.25,201.85,446.79,Single-ply,SBD,M
Boys,59.87,3,Patrick Montellano,Crystal City,59.33,158.76,88.45,181.44,428.64,Single-ply,SBD,M
Boys,59.87,4,Ryan Montgomery,Devine,59.51,158.76,90.72,172.37,421.84,Single-ply,SBD,M
Boys,59.87,5,Benito Salazar,Carrizo Springs,58.11,131.54,70.31,136.08,337.93,Single-ply,SBD,M
Boys,59.87,6,Christian Aguirre,Pearsall,56.79,104.33,70.31,140.61,315.25,Single-ply,SBD,M
Boys,59.87,7,John Esquivel,Pearsall,56.43,97.52,65.77,136.08,299.37,Single-ply,SBD,M
Boys,59.87,DQ,Tj Romero,Jourdanton,59.87,,,,,Single-ply,SBD,M
Boys,59.87,DQ,David Rodriguez,Sabinal,59.42,,,,,Single-ply,SBD,M
Boys,59.87,DQ,Danny Zavala,Crystal City,59.87,,,,,Single-ply,SBD,M
Boys,59.87,DQ,Ezekiel Cortez,Castroville Medina Valley,59.87,,,,,Single-ply,SBD,M
Boys,59.87,DQ,Steven Garza,Crystal City,57.42,142.88,,,,Single-ply,SBD,M
Boys,67.13,1,Marty Garza,Jourdanton,65.41,210.92,136.08,195.04,542.04,Single-ply,SBD,M
Boys,67.13,2,Arturo Cervantez,Crystal City,66.59,179.17,113.4,190.51,483.08,Single-ply,SBD,M
Boys,67.13,3,Rene Molina,Hebbronville,67.04,188.24,102.06,185.97,476.27,Single-ply,SBD,M
Boys,67.13,4,Vinny Flores,Zapata,63.78,151.95,113.4,190.51,455.86,Single-ply,SBD,M
Boys,67.13,5,Aaron Lopez,Jourdanton,66.22,179.17,95.25,165.56,439.98,Single-ply,SBD,M
Boys,67.13,6,Benny Ray Castro,Cotulla,64.77,167.83,97.52,163.29,428.64,Single-ply,SBD,M
Boys,67.13,7,Adan Ruiz,Cotulla,67.13,165.56,83.91,165.56,415.04,Single-ply,SBD,M
Boys,67.13,8,Gabriel Ramirez,Ben Bolt-Palito Blanco,60.15,147.42,92.99,165.56,405.97,Single-ply,SBD,M
Boys,67.13,9,Josue Valadez,Zapata,63.5,124.74,68.04,158.76,351.53,Single-ply,SBD,M
Boys,67.13,10,Kevin Guerrero,Hebbronville,65.5,129.27,74.84,142.88,347,Single-ply,SBD,M
Boys,67.13,11,Lorenzo Garcia,Cotulla,60.42,113.4,86.18,136.08,335.66,Single-ply,SBD,M
Boys,67.13,12,Phillip Garfield,Dilley,65.86,88.45,47.63,102.06,238.14,Single-ply,SBD,M
Boys,67.13,DQ,Nick Adame,Freer,67.13,,,,,Single-ply,SBD,M
Boys,67.13,DQ,Robert Rutledge,George West,67.13,,,,,Single-ply,SBD,M
Boys,67.13,DQ,Santiago Contreras,Sabinal,65.77,,,,,Single-ply,SBD,M
Boys,67.13,DQ,Jake Davis,Sabinal,63.5,,,,,Single-ply,SBD,M
Boys,74.84,1,Danny Flores,Zapata,73.57,201.85,113.4,222.26,537.51,Single-ply,SBD,M
Boys,74.84,2,Roy Arispe,Devine,72.48,213.19,106.59,215.46,535.24,Single-ply,SBD,M
Boys,74.84,3,Adam Guerrero,George West,70.85,204.12,113.4,195.04,512.56,Single-ply,SBD,M
Boys,74.84,4,Thomas Garcia,Dilley,72.76,181.44,117.93,192.78,492.15,Single-ply,SBD,M
Boys,74.84,5,Darrell DuBose,Devine,70.94,176.9,104.33,195.04,476.27,Single-ply,SBD,M
Boys,74.84,6,Alex Hernandez,Zapata,74.53,176.9,122.47,176.9,476.27,Single-ply,SBD,M
Boys,74.84,7,Eddie Flores,Dilley,72.21,181.44,106.59,181.44,469.47,Single-ply,SBD,M
Boys,74.84,8,Levi House,Jourdanton,71.85,190.51,92.99,181.44,464.93,Single-ply,SBD,M
Boys,74.84,9,Alfredo Castillo,Zapata,74.03,163.29,115.67,185.97,464.93,Single-ply,SBD,M
Boys,74.84,10,Phillip Alvarez,George West,69.31,142.88,97.52,183.7,424.11,Single-ply,SBD,M
Boys,74.84,11,Ivan Trujillo,Pearsall,73.94,158.76,102.06,158.76,419.57,Single-ply,SBD,M
Boys,74.84,12,Jeremiah Martinez,Dilley,74.57,170.1,117.93,131.54,419.57,Single-ply,SBD,M
Boys,74.84,13,Mark Ruiz,Cotulla,67.4,120.2,86.18,151.95,358.34,Single-ply,SBD,M
Boys,74.84,14,John Ventura,Pearsall,74.12,113.4,72.57,165.56,351.53,Single-ply,SBD,M
Boys,74.84,15,Jesus Lopez,Zapata,74.3,113.4,79.38,147.42,340.19,Single-ply,SBD,M
Boys,82.1,16,Austin Gonzalez,Freer,75.02,122.47,74.84,127.01,324.32,Single-ply,SBD,M
Boys,74.84,DQ,Anthony Lee,Freer,74.84,,,,,Single-ply,SBD,M
Boys,74.84,DQ,Jeremiah Dominguez,Castroville Medina Valley,74.84,,,,,Single-ply,SBD,M
Boys,74.84,DQ,Daron Sotello,Jourdanton,74.84,,,,,Single-ply,SBD,M
Boys,74.84,DQ,Clarence Parker,Sabinal,69.4,,,,,Single-ply,SBD,M
Boys,74.84,DQ,Juan Aviles,Sabinal,73.94,,,,,Single-ply,SBD,M
Boys,74.84,DQ,Kevin Bales,Sabinal,74.84,,,,,Single-ply,SBD,M
Boys,82.1,1,Alex Elizondo,Pearsall,78.2,197.31,120.2,215.46,532.97,Single-ply,SBD,M
Boys,82.1,2,Alex Medrano,Dilley,75.57,197.31,127.01,204.12,528.44,Single-ply,SBD,M
Boys,82.1,3,Joey Perez,Crystal City,82.01,215.46,122.47,181.44,519.36,Single-ply,SBD,M
Boys,82.1,4,Ryan de la Cruz,Ben Bolt-Palito Blanco,81.74,206.38,108.86,181.44,496.68,Single-ply,SBD,M
Boys,82.1,5,David Garza,Cotulla,75.66,170.1,99.79,199.58,469.47,Single-ply,SBD,M
Boys,82.1,6,Joseph Sadler,Devine,77.02,176.9,95.25,188.24,460.4,Single-ply,SBD,M
Boys,82.1,7,Stormee Foulds,Charlotte,76.43,170.1,106.59,181.44,458.13,Single-ply,SBD,M
Boys,82.1,8,Miguel Castillo,Zapata,77.56,147.42,108.86,158.76,415.04,Single-ply,SBD,M
Boys,82.1,9,Kevin Barfield,Castroville Medina Valley,80.65,158.76,86.18,170.1,415.04,Single-ply,SBD,M
Boys,82.1,10,Dalton Foster,Dilley,75.3,142.88,77.11,149.69,369.68,Single-ply,SBD,M
Boys,82.1,DQ,Jason Jungman,Castroville Medina Valley,82.1,,,,,Single-ply,SBD,M
Boys,82.1,DQ,Miguel Sandoval,Sabinal,80.74,,,,,Single-ply,SBD,M
Boys,89.81,1,Chris Hearn,Cotulla,86.27,199.58,113.4,238.14,551.11,Single-ply,SBD,M
Boys,89.81,2,Abel Gonzalez,Dilley,88.36,215.46,106.59,192.78,514.83,Single-ply,SBD,M
Boys,89.81,3,Justin Fuentes,Zapata,87,204.12,120.2,188.24,512.56,Single-ply,SBD,M
Boys,99.79,4,Heriberto Canales,Hebbronville,89.99,179.17,102.06,199.58,480.81,Single-ply,SBD,M
Boys,89.81,5,David Caravajal,George West,85.55,163.29,104.33,183.7,451.32,Single-ply,SBD,M
Boys,89.81,6,Ivan Gonzalez,Ben Bolt-Palito Blanco,87.54,163.29,106.59,181.44,451.32,Single-ply,SBD,M
Boys,89.81,7,Josh Perez,Crystal City,84.46,188.24,92.99,165.56,446.79,Single-ply,SBD,M
Boys,89.81,8,David Cruz,Zapata,89.09,149.69,77.11,149.69,376.48,Single-ply,SBD,M
Boys,89.81,9,Kyle Wehe,Castroville Medina Valley,85.46,136.08,86.18,142.88,365.14,Single-ply,SBD,M
Boys,89.81,DQ,Logan Garza,Castroville Medina Valley,89.81,,,,,Single-ply,SBD,M
Boys,89.81,DQ,Tyler Cantu,Charlotte,89.81,,,,,Single-ply,SBD,M
Boys,89.81,DQ,Isais Cruz,Jourdanton,89.81,,,,,Single-ply,SBD,M
Boys,89.81,DQ,Phillip Gallegos,Carrizo Springs,86.27,142.88,,,,Single-ply,SBD,M
Boys,99.79,1,Justin Sosa,Zapata,92.08,226.8,154.22,231.33,612.35,Single-ply,SBD,M
Boys,99.79,2,Jeremy Carrasco,Pearsall,95.93,238.14,138.35,210.92,587.4,Single-ply,SBD,M
Boys,99.79,3,Salo Galindo,Dilley,96.98,226.8,158.76,197.31,582.87,Single-ply,SBD,M
Boys,99.79,4,Isaih Vasquez,Pearsall,91.08,208.65,113.4,229.06,551.11,Single-ply,SBD,M
Boys,99.79,5,Jamie Menchaca,Carrizo Springs,93.12,199.58,140.61,195.04,535.24,Single-ply,SBD,M
Boys,99.79,6,Sanchez Zane,Devine,90.81,199.58,122.47,195.04,517.1,Single-ply,SBD,M
Boys,99.79,7,Jon Garcia,Ben Bolt-Palito Blanco,97.84,190.51,113.4,181.44,485.34,Single-ply,SBD,M
Boys,99.79,8,Raul Hernandez,Dilley,96.98,183.7,113.4,179.17,476.27,Single-ply,SBD,M
Boys,99.79,9,Joseph Moore,George West,92.71,163.29,129.27,172.37,464.93,Single-ply,SBD,M
Boys,99.79,10,Jorge Gutierrez,Zapata,96.8,163.29,120.2,181.44,464.93,Single-ply,SBD,M
Boys,99.79,11,Christian Guerra,Castroville Medina Valley,92.49,174.63,120.2,154.22,449.06,Single-ply,SBD,M
Boys,99.79,12,Kevin Leal,Freer,93.17,158.76,92.99,172.37,424.11,Single-ply,SBD,M
Boys,99.79,13,Steven Sartuche,Devine,92.44,124.74,86.18,149.69,360.61,Single-ply,SBD,M
Boys,99.79,14,Dennis Cruz,Zapata,91.08,97.52,61.23,122.47,281.23,Single-ply,SBD,M
Boys,99.79,DQ,Anderson Daniels,George West,99.79,,,,,Single-ply,SBD,M
Boys,99.79,DQ,Bryan Chesser,George West,99.79,,,,,Single-ply,SBD,M
Boys,99.79,DQ,Hector Perez,Crystal City,99.79,,,,,Single-ply,SBD,M
Boys,99.79,DQ,Taylor Jones,Castroville Medina Valley,99.79,,,,,Single-ply,SBD,M
Boys,99.79,DQ,Josh Guarnero,Castroville Medina Valley,99.79,,,,,Single-ply,SBD,M
Boys,99.79,DQ,Lucas Lopez,Ben Bolt-Palito Blanco,99.79,,,,,Single-ply,SBD,M
Boys,99.79,DQ,Jose Rodriguez,Charlotte,99.79,,,,,Single-ply,SBD,M
Boys,99.79,DQ,Juan Rios,Crystal City,90.17,204.12,,,,Single-ply,SBD,M
Boys,99.79,DQ,Jesus Benavides,Ben Bolt-Palito Blanco,98.79,240.4,156.49,,,Single-ply,SBD,M
Boys,109.77,1,Brandon Brashear,Jourdanton,107.95,244.94,151.95,222.26,619.15,Single-ply,SBD,M
Boys,109.77,2,Wylie Tisdale,Zapata,109.41,217.72,136.08,235.87,589.67,Single-ply,SBD,M
Boys,109.77,3,Michael Dominguez,Hebbronville,107.73,226.8,122.47,235.87,585.13,Single-ply,SBD,M
Boys,109.77,4,Raul Hinojosa,Zapata,104.6,226.8,124.74,222.26,573.79,Single-ply,SBD,M
Boys,109.77,5,Luke Briscoe,Devine,107.05,197.31,131.54,195.04,523.9,Single-ply,SBD,M
Boys,109.77,6,Patrick Rodriguez,Devine,101.97,172.37,122.47,190.51,485.34,Single-ply,SBD,M
Boys,124.74,7,Trey Munoz,Ben Bolt-Palito Blanco,109.86,170.1,140.61,165.56,476.27,Single-ply,SBD,M
Boys,109.77,8,Vicente Aguirre,Carrizo Springs,106.37,127.01,70.31,149.69,347,Single-ply,SBD,M
Boys,109.77,DQ,Matt Thomas,Sabinal,108.86,,,,,Single-ply,SBD,M
Boys,109.77,DQ,Andres Carrillo,Freer,102.78,,,,,Single-ply,SBD,M
Boys,109.77,DQ,Salazar Andrew,Devine,106.23,215.46,127.01,,,Single-ply,SBD,M
Boys,124.74,1,Tony Garcia,Hebbronville,117.71,272.16,138.35,229.06,639.57,Single-ply,SBD,M
Boys,124.74,2,Tyler Verette,Jourdanton,121.47,192.78,129.27,206.38,528.44,Single-ply,SBD,M
Boys,124.74,3,Tanner Bierstedt,Freer,110.5,190.51,142.88,192.78,526.17,Single-ply,SBD,M
Boys,124.74,4,Sean Pittman,Devine,116.48,188.24,138.35,185.97,512.56,Single-ply,SBD,M
Boys,124.74,5,Dj Carlson,Devine,121.29,201.85,111.13,181.44,494.42,Single-ply,SBD,M
Boys,124.74,6,Rolando Garza,Hebbronville,117.53,192.78,97.52,195.04,485.34,Single-ply,SBD,M
Boys,124.74,7,Jeffery Garcia,Carrizo Springs,118.43,140.61,122.47,167.83,430.91,Single-ply,SBD,M
Boys,124.74,8,Nicholas O'Bryant,Castroville Medina Valley,115.12,154.22,88.45,154.22,396.89,Single-ply,SBD,M
Boys,124.74,9,Michael Escamilla,Carrizo Springs,111.77,129.27,79.38,181.44,390.09,Single-ply,SBD,M
Boys,124.74,10,Bryan Jackson,Dilley,121.93,136.08,63.5,122.47,322.05,Single-ply,SBD,M
Boys,124.74,DQ,Jonathon Galindo,Jourdanton,124.74,,,,,Single-ply,SBD,M
Boys,124.74+,1,Tyler Seiler,Pearsall,134.72,235.87,142.88,210.92,589.67,Single-ply,SBD,M
Boys,124.74+,2,Nune Perez,Crystal City,135.03,235.87,136.08,204.12,576.06,Single-ply,SBD,M
Boys,124.74+,3,Manuel Tijerina,Jourdanton,126.55,204.12,120.2,226.8,551.11,Single-ply,SBD,M
Boys,124.74+,4,Joey Ybanez,Freer,138.89,183.7,133.81,215.46,532.97,Single-ply,SBD,M
Boys,124.74+,DQ,Steven Balderrama,Devine,132.99,,,,,Single-ply,SBD,M
Boys,124.74+,DQ,Ricky Rodriguez,Charlotte,129.18,142.88,90.72,,,Single-ply,SBD,M
